%!PS-Adobe-2.0 EPSF-2.0
%%BoundingBox:  0 0 567 282
%%Title: rhoeta_small_loop.eps: rhoeta_small_loop (Summer 12)
%%Creator: ROOT Version 5.32/02
%%CreationDate: Wed Aug 22 07:19:19 2012
%%EndComments
%%BeginProlog
80 dict begin
/s {stroke} def /l {lineto} def /m {moveto} def /t {translate} def
/r {rotate} def /rl {roll}  def /R {repeat} def
/d {rlineto} def /rm {rmoveto} def /gr {grestore} def /f {eofill} def
/c {setrgbcolor} def /black {0 setgray} def /sd {setdash} def
/cl {closepath} def /sf {scalefont setfont} def /lw {setlinewidth} def
/box {m dup 0 exch d exch 0 d 0 exch neg d cl} def
/NC{systemdict begin initclip end}def/C{NC box clip newpath}def
/bl {box s} def /bf {box f} def /Y { 0 exch d} def /X { 0 d} def 
/K {{pop pop 0 moveto} exch kshow} bind def
/ita {/ang 15 def gsave [1 0 ang dup sin exch cos div 1 0 0] concat} def 
/mp {newpath /y exch def /x exch def} def
/side {[w .77 mul w .23 mul] .385 w mul sd w 0 l currentpoint t -144 r} def
/mr {mp x y w2 0 360 arc} def /m24 {mr s} def /m20 {mr f} def
/mb {mp x y w2 add m w2 neg 0 d 0 w neg d w 0 d 0 w d cl} def
/mt {mp x y w2 add m w2 neg w neg d w 0 d cl} def
/m21 {mb f} def /m25 {mb s} def /m22 {mt f} def /m26{mt s} def
/m23 {mp x y w2 sub m w2 w d w neg 0 d cl f} def
/m27 {mp x y w2 add m w3 neg w2 neg d w3 w2 neg d w3 w2 d cl s} def
/m28 {mp x w2 sub y w2 sub w3 add m w3 0 d  0 w3 neg d w3 0 d 0 w3 d w3 0 d  0 w3 d w3 neg 0 d 0 w3 d w3 neg 0 d 0 w3 neg d w3 neg 0 d cl s } def
/m29 {mp gsave x w2 sub y w2 add w3 sub m currentpoint t 4 {side} repeat cl fill gr} def
/m30 {mp gsave x w2 sub y w2 add w3 sub m currentpoint t 4 {side} repeat cl s gr} def
/m31 {mp x y w2 sub m 0 w d x w2 sub y m w 0 d x w2 sub y w2 add m w w neg d x w2 sub y w2 sub m w w d s} def
/m32 {mp x y w2 sub m w2 w d w neg 0 d cl s} def
/m33 {mp x y w2 add m w3 neg w2 neg d w3 w2 neg d w3 w2 d cl f} def
/m34 {mp x w2 sub y w2 sub w3 add m w3 0 d  0 w3 neg d w3 0 d 0 w3 d w3 0 d  0 w3 d w3 neg 0 d 0 w3 d w3 neg 0 d 0 w3 neg d w3 neg 0 d cl f } def
/m2 {mp x y w2 sub m 0 w d x w2 sub y m w 0 d s} def
/m5 {mp x w2 sub y w2 sub m w w d x w2 sub y w2 add m w w neg d s} def
/reEncode {exch findfont dup length dict begin {1 index /FID eq  {pop pop} {def} ifelse } forall /Encoding exch def currentdict end dup /FontName get exch definefont pop } def [/Times-Bold /Times-Italic /Times-BoldItalic /Helvetica /Helvetica-Oblique
 /Helvetica-Bold /Helvetica-BoldOblique /Courier /Courier-Oblique /Courier-Bold /Courier-BoldOblique /Times-Roman /AvantGarde-Book /AvantGarde-BookOblique /AvantGarde-Demi /AvantGarde-DemiOblique /Bookman-Demi /Bookman-DemiItalic /Bookman-Light
 /Bookman-LightItalic /Helvetica-Narrow /Helvetica-Narrow-Bold /Helvetica-Narrow-BoldOblique /Helvetica-Narrow-Oblique /NewCenturySchlbk-Roman /NewCenturySchlbk-Bold /NewCenturySchlbk-BoldItalic /NewCenturySchlbk-Italic /Palatino-Bold
 /Palatino-BoldItalic /Palatino-Italic /Palatino-Roman ] {ISOLatin1Encoding reEncode } forall%%EndProlog
%%BeginSetup
%%EndSetup
newpath  gsave  .25 .25 scale  gsave  0 0 t black[  ] 0 sd 3 lw 1 1 1 c 2268 1128 0 0 bf black 0 lw 1 1 1 c 1791 857 363 158 bf
 gsave 
 1791.5 857.236 363.335 158.412 C
 0.980392 0.980392 0.117647 c 3 lw 1650 1017 m -6 1 d -12 X -6 1 d -442 X -6 -1 d -6 X -6 -1 d -3 X -3 Y -3 -3 d -3 -3 d -2 -3 d -1 -1 d -2 -2 d -2 -3 d -2 -1 d -1 -1 d -3 -3 d -2 -3 d -3 -3 d -2 -3 d -1 -1 d -2 -2 d -2 -3 d -2 -1 d -1 -1 d -2 -3 d
 -3 -3 d -2 -3 d -3 -3 d -1 -1 d -1 -2 d -3 -3 d -2 -2 d -2 -3 d -3 -3 d -1 -2 d -1 -1 d -2 -3 d -3 -3 d -2 -3 d -2 -2 d -2 -2 d -1 -1 d -2 -3 d -2 -3 d -1 -1 d -1 -2 d -3 -3 d -2 -2 d -1 Y -2 -2 d -2 -3 d -2 -2 d -1 Y -3 -3 d -2 -3 d -1 -1 d -1 -2 d
 -2 -3 d -2 -2 d -1 Y -2 -2 d -2 -3 d -2 -3 d -3 -3 d -2 -3 d -1 -3 d -3 -2 d -2 -3 d -1 -3 d -1 X -2 -3 d -2 -3 d -1 -3 d -1 X -2 -3 d -2 -2 d -1 -3 d -3 -3 d -1 -3 d -2 -3 d -2 -3 d -2 -3 d -2 -2 d -1 Y -2 -2 d -2 -3 d -2 -3 d -1 Y -1 -2 d -2 -3 d
 -2 -3 d -1 -2 d -1 X -2 -3 d -1 -3 d -2 -3 d -2 -3 d -2 -3 d -1 -3 d -1 -1 d -1 -1 d -2 -3 d -2 -3 d -1 -3 d -2 -3 d -2 -3 d -1 -3 d -1 -1 d -1 -1 d -2 -3 d -1 -3 d -2 -3 d -1 Y -2 -2 d -1 -3 d -2 -3 d -1 -2 d -2 -3 d -2 -3 d -1 -3 d -1 -2 d -1 Y -2
 -3 d -2 -3 d -1 -2 d -1 -2 d -1 -1 d -1 -3 d -2 -3 d -1 -3 d -1 -2 d -1 -1 d -1 -3 d -2 -2 d -1 -3 d -1 -3 d -2 -3 d -1 -3 d -2 -3 d -1 -3 d -2 -2 d -1 -3 d -1 -3 d -1 -3 d -1 -1 d -1 -2 d -1 -3 d -2 -3 d -1 -2 d -1 -3 d -2 -3 d -1 -3 d -1 -3 d -1
 -3 d -1 -1 d -1 -2 d -1 -2 d -1 -3 d -2 -3 d -1 -3 d -1 -3 d -1 -3 d -2 -3 d -1 -2 d -1 -3 d -1 -3 d -1 -3 d -2 -3 d -1 -3 d -1 -3 d -1 -2 d -1 -3 d -1 -3 d -1 -3 d -1 -3 d -1 -1 d -1 -2 d -1 -3 d -1 -2 d -1 -3 d -1 -3 d -1 -3 d -1 -3 d -1 -3 d -1
 -3 d -1 -2 d -1 -3 d -1 -2 d -1 Y -1 -3 d -1 -3 d -1 -3 d -1 -3 d -1 -2 d -1 -2 d -1 Y -1 -3 d -1 -3 d -1 -3 d -1 -3 d -1 -3 d -1 -2 d -1 -3 d -1 -3 d -1 -3 d -1 -3 d -3 Y -1 -3 d -1 -1 d -1 Y -1 -3 d -1 -3 d -1 -3 d -1 -3 d -1 -3 d -3 Y -1 -1 d -1
 Y -1 -3 d -1 -3 d -1 -3 d -3 Y -1 -3 d -1 -3 d -1 -2 d -3 Y -1 -3 d -1 -3 d -1 -3 d -1 -3 d -3 Y -1 -2 d -3 Y -1 -3 d -1 -3 d -1 -3 d -1 -3 d -3 Y -1 -2 d -3 Y -1 -3 d -3 Y -1 X -3 Y -1 -3 d -1 -3 d -2 Y -1 -3 d -1 -3 d -3 Y -1 -3 d -4 Y -1 -2 d -2
 Y -1 -3 d -1 -3 d -3 Y -1 -3 d -3 Y -1 -3 d -2 Y -1 -3 d -5 Y -1 -1 d -3 Y -1 -3 d -3 Y -1 -2 d -3 Y -1 -3 d -3 Y -1 -3 d -6 Y -1 -2 d -6 Y -1 -3 d -3 Y -1 -3 d -3 Y -1 -2 d -6 Y -1 -3 d -6 Y -1 -3 d -5 Y -1 -3 d -9 Y -1 -3 d -5 Y -1 -3 d -6 Y -1 -3
 d -8 Y -1 -3 d -14 Y -1 -3 d -17 Y -1 -3 d -29 Y -1 -3 d -25 Y 1 -1 d 6 -1 d 6 X 6 -1 d 274 X 6 1 d 6 X 5 2 d 45 Y 1 3 d 17 Y 1 3 d 9 Y 1 3 d 5 Y 1 3 d 9 Y 1 3 d 5 Y 1 3 d 9 Y 1 3 d 5 Y 1 3 d 3 Y 1 3 d 3 Y 1 3 d 2 Y 1 3 d 3 Y 1 3 d 6 Y 1 3 d 3 Y 1 2
 d 3 Y 1 3 d 1 3 d 3 Y 1 3 d 2 Y 1 3 d 3 Y 1 3 d 3 Y 1 3 d 1 3 d 2 Y 1 3 d 1 3 d 3 Y 1 3 d 3 Y 1 3 d 1 2 d 1 3 d 3 Y 1 3 d 1 3 d 1 3 d 3 Y 1 2 d 2 Y 1 1 d 3 Y 1 3 d 1 3 d 1 3 d 1 3 d 2 Y 1 3 d 1 3 d 1 3 d 1 3 d 1 3 d 1 3 d 2 Y 1 3 d 1 3 d 1 3 d 1 3 d
 1 3 d 1 3 d 1 2 d 1 Y 1 2 d 1 3 d 1 3 d 1 3 d 1 3 d 1 3 d 1 2 d 1 3 d 1 3 d 1 3 d 1 3 d 1 2 d 1 Y 1 3 d 2 2 d 1 3 d 1 3 d 1 3 d 1 Y 1 2 d 1 3 d 1 3 d 2 2 d 1 3 d 1 Y 1 2 d 1 3 d 1 3 d 2 3 d 1 3 d 1 2 d 1 3 d 2 3 d 1 3 d 1 3 d 2 3 d 1 3 d 1 2 d 1 3 d
 1 1 d 1 2 d 1 3 d 2 3 d 1 3 d 1 2 d 1 Y 2 2 d 1 3 d 2 3 d 1 3 d 2 3 d 1 3 d 2 3 d 1 2 d 2 3 d 1 3 d 2 3 d 1 2 d 1 Y 2 3 d 1 3 d 2 2 d 1 2 d 1 Y 2 3 d 2 3 d 1 3 d 1 1 d 1 2 d 2 3 d 1 2 d 2 3 d 2 3 d 1 3 d 2 3 d 1 1 d 1 2 d 2 3 d 1 2 d 2 3 d 2 3 d 2 3
 d 1 3 d 2 3 d 2 3 d 2 2 d 1 Y 2 2 d 2 3 d 2 3 d 1 Y 2 2 d 2 3 d 2 3 d 1 Y 2 1 d 2 3 d 2 3 d 2 Y 2 1 d 2 3 d 2 3 d 1 Y 2 2 d 2 2 d 2 3 d 1 Y 2 2 d 2 3 d 2 3 d 2 3 d 3 3 d 1 2 d 1 X 2 3 d 2 3 d 1 2 d 1 1 d 3 3 d 2 3 d 2 3 d 3 2 d 1 3 d 1 X 2 3 d 2 3 d
 1 1 d 2 2 d 2 3 d 2 2 d 1 1 d 2 2 d 3 3 d 1 Y 2 2 d 3 3 d 1 2 d 1 1 d 3 3 d 2 3 d 3 2 d 2 3 d 1 1 d 2 2 d 3 3 d 1 2 d 1 1 d 3 3 d 2 2 d 1 Y 3 2 d 3 3 d 3 3 d 2 3 d 1 1 d 2 2 d 3 3 d 1 1 d 2 2 d 3 2 d 1 1 d 2 2 d 3 3 d 1 1 d 2 2 d 3 3 d 1 1 d 2 2 d 3
 3 d 1 1 d 2 1 d 3 3 d 1 1 d 2 2 d 3 3 d 1 1 d 2 2 d 3 3 d 1 X 2 3 d 3 2 d 1 1 d 3 2 d 3 3 d 4 3 d 2 2 d 1 1 d 3 3 d 2 1 d 2 2 d 3 2 d 1 1 d 3 2 d 2 3 d 1 X 3 3 d 2 2 d 2 1 d 4 3 d 3 3 d 3 2 d 1 X 4 3 d 1 2 d 2 1 d 4 3 d 4 3 d 2 2 d 2 1 d 3 3 d 1 X 3
 2 d 3 3 d 1 X 4 3 d 1 1 d 3 2 d 3 2 d 1 1 d 4 3 d 1 X 4 3 d 2 1 d 2 1 d 4 3 d 4 3 d 2 1 d 3 2 d 3 2 d 1 1 d 4 3 d 1 X 4 3 d 2 1 d 3 1 d 3 3 d 1 X 5 3 d 5 3 d 1 1 d 3 2 d 3 1 d 2 2 d 4 2 d 1 1 d 5 2 d 5 3 d 1 1 d 4 2 d 2 1 d 3 2 d 3 1 d 2 2 d 4 2 d 2
 1 d 3 Y -2 X f 0 lw 0.54902 1 0.313726 c 3 lw 1948 1018 m -6 1 d -442 X -6 -1 d -6 X -5 -1 d -2 X -3 Y -3 -3 d -1 -2 d -2 -1 d -3 -3 d -1 -1 d -2 -2 d -3 -3 d -1 -1 d -2 -1 d -3 -3 d -1 -2 d -2 -1 d -3 -3 d -1 -1 d -3 -2 d -3 -3 d -3 -3 d -3 -2 d -1
 Y -4 -2 d -2 -3 d -1 X -3 -3 d -2 -2 d -1 -1 d -4 -3 d -1 -1 d -2 -2 d -4 -2 d -1 Y -3 -2 d -3 -3 d -4 -3 d -2 -2 d -2 -1 d -3 -3 d -1 -1 d -3 -2 d -3 -2 d -4 -3 d -2 -2 d -2 -1 d -3 -3 d -1 X -3 -3 d -3 -2 d -1 -1 d -4 -3 d -1 X -3 -2 d -3 -3 d -1
 X -4 -3 d -1 -1 d -3 -2 d -3 -3 d -5 -3 d -1 -1 d -3 -2 d -3 -2 d -1 X -4 -3 d -1 -1 d -3 -2 d -3 -2 d -1 -1 d -4 -3 d -1 X -4 -3 d -2 -1 d -2 -2 d -4 -2 d -5 -3 d -1 -1 d -3 -2 d -3 -2 d -2 -1 d -4 -3 d -5 -3 d -1 X -3 -3 d -3 -1 d -2 -1 d -3 -3 d
 -2 X -4 -3 d -5 -3 d -1 -1 d -4 -2 d -2 -1 d -3 -2 d -3 -2 d -2 -1 d -4 -2 d -6 -3 d -1 Y -5 -2 d -1 -1 d -4 -2 d -2 -1 d -3 -2 d -3 -2 d -2 -1 d -4 -2 d -1 -1 d -5 -2 d -6 -3 d -1 Y -5 -2 d -1 -1 d -5 -2 d -1 -1 d -4 -2 d -2 -1 d -4 -2 d -2 -1 d -3
 -2 d -3 -1 d -3 -1 d -3 -2 d -3 -1 d -3 -2 d -2 -1 d -4 -2 d -2 -1 d -4 -2 d -2 -1 d -4 -2 d -2 -1 d -4 -2 d -2 -1 d -4 -1 d -2 -1 d -4 -2 d -2 -1 d -4 -2 d -2 -1 d -4 -2 d -3 -1 d -3 -1 d -3 -2 d -3 -1 d -3 -2 d -3 -1 d -4 -2 d -2 X -4 -2 d -2 -1 d
 -5 -2 d -1 -1 d -5 -2 d -1 X -5 -3 d -1 X -5 -2 d -2 -1 d -4 -2 d -3 -1 d -3 -1 d -4 -2 d -2 -1 d -5 -1 d -1 -1 d -6 -2 d -6 -3 d -1 X -5 -2 d -3 -1 d -3 -1 d -4 -2 d -2 -1 d -5 -2 d -1 X -6 -2 d -1 -1 d -5 -2 d -2 X -4 -2 d -4 -1 d -2 -1 d -6 -2 d
 -6 -2 d -2 -1 d -4 -2 d -4 -1 d -2 -1 d -6 -2 d -6 -2 d -2 -1 d -4 -1 d -4 -1 d -2 -1 d -6 -2 d -6 -2 d -3 -1 d -3 -1 d -5 -2 d -1 X -6 -2 d -2 -1 d -4 -1 d -5 -2 d -1 X -6 -2 d -1 -1 d -5 -1 d -4 -1 d -2 -1 d -6 -2 d -1 X -4 -2 d -6 -1 d -6 -2 d -3
 -1 d -3 -1 d -6 -2 d -6 -2 d -4 -1 d -2 X -6 -2 d -1 -1 d -5 -1 d -5 -1 d -1 -1 d -6 -1 d -3 -1 d -3 -1 d -6 -2 d -1 X -5 -2 d -5 -1 d -1 X -6 -2 d -4 -1 d -2 -1 d -6 -1 d -2 -1 d -4 -1 d -6 -1 d -1 Y -6 -1 d -5 -1 d -1 -1 d -6 -1 d -4 -1 d -2 -1 d
 -6 -1 d -3 -1 d -3 -1 d -6 -1 d -2 -1 d -4 -1 d -6 -1 d -1 -1 d -5 -1 d -6 -1 d -1 -1 d -5 -1 d -6 -1 d -1 Y -6 -1 d -6 -1 d -5 -2 d -6 -1 d -1 X -5 -2 d -6 -1 d -1 X -5 -1 d -6 -2 d -1 X -5 -1 d -6 -2 d -2 X -4 -1 d -6 -1 d -2 -1 d -4 -1 d -6 -1 d
 -3 -1 d -3 X -6 -2 d -4 X -2 -1 d -6 -1 d -5 -1 d -1 -1 d -6 -1 d -6 -1 d -6 -1 d -6 -2 d -2 X -4 -1 d -6 -1 d -4 -1 d -2 X -6 -1 d -6 -2 d -6 -1 d -6 -1 d -2 -1 d -4 X -6 -1 d -4 -1 d -2 -1 d -6 -1 d -6 -1 d -1 X -5 -1 d -6 -1 d -4 -1 d -1 -1 d -6
 -1 d -6 -1 d -2 X -4 -1 d -6 -1 d -5 -1 d -1 X -6 -1 d -6 -1 d -3 -1 d -3 X -6 -1 d -6 -2 d -6 -1 d -6 -1 d -7 X -2 -3 d -1 -3 d -1 -3 d -9 Y -1 -2 d -115 Y 1 -3 d -2 Y 1 -3 d 2 -3 d 2 -2 d 6 X 6 1 d 6 X 4 1 d 8 X 6 1 d 6 1 d 6 X 1 1 d 5 X 6 1 d 6 X
 6 1 d 4 1 d 7 X 6 1 d 6 X 6 1 d 1 X 5 1 d 6 X 6 1 d 6 1 d 2 X 4 1 d 6 X 6 1 d 6 1 d 6 X 6 1 d 6 1 d 6 X 3 1 d 3 X 6 1 d 6 1 d 6 X 3 1 d 3 X 6 1 d 6 X 6 1 d 2 1 d 4 X 6 1 d 6 X 6 1 d 1 1 d 5 X 6 1 d 6 1 d 6 X 6 1 d 6 1 d 6 1 d 2 X 3 1 d 6 X 6 1 d 6 1
 d 6 1 d 6 1 d 6 1 d 6 X 6 1 d 6 1 d 5 1 d 1 X 6 1 d 6 1 d 6 1 d 6 X 6 1 d 6 1 d 2 1 d 4 X 6 1 d 6 1 d 3 X 3 1 d 6 1 d 6 1 d 3 X 3 1 d 6 X 6 1 d 4 1 d 2 X 6 1 d 6 1 d 3 1 d 3 X 6 1 d 6 1 d 3 1 d 3 X 6 1 d 6 1 d 2 1 d 3 X 6 1 d 6 1 d 1 1 d 5 X 6 1 d 6
 1 d 6 1 d 6 1 d 4 1 d 2 1 d 6 1 d 6 1 d 2 X 4 1 d 6 1 d 5 1 d 1 X 6 1 d 6 1 d 2 1 d 4 X 6 2 d 5 1 d 1 X 6 1 d 6 1 d 2 1 d 4 X 6 1 d 4 1 d 2 1 d 6 1 d 6 1 d 6 1 d 6 2 d 2 X 4 1 d 6 1 d 4 1 d 2 X 6 1 d 5 2 d 1 X 6 1 d 6 2 d 5 1 d 6 1 d 2 1 d 4 X 6 2 d
 3 X 3 1 d 6 1 d 3 1 d 3 1 d 6 1 d 4 1 d 2 1 d 6 1 d 4 1 d 2 1 d 6 1 d 3 1 d 3 X 6 2 d 3 1 d 3 X 6 2 d 3 1 d 3 X 6 2 d 2 X 4 1 d 6 2 d 1 X 5 1 d 6 2 d 6 2 d 4 1 d 2 X 6 2 d 3 1 d 3 X 6 2 d 1 1 d 5 1 d 6 2 d 6 1 d 4 1 d 2 1 d 6 2 d 2 X 4 1 d 5 2 d 1 X
 6 2 d 3 1 d 2 1 d 6 1 d 2 1 d 4 1 d 5 2 d 1 X 6 2 d 2 1 d 4 1 d 5 1 d 1 1 d 6 2 d 2 X 4 1 d 5 2 d 1 X 6 2 d 2 1 d 4 1 d 4 2 d 2 X 6 2 d 1 1 d 5 1 d 3 2 d 3 X 5 2 d 1 1 d 6 2 d 1 X 5 2 d 3 1 d 3 1 d 5 2 d 1 X 6 2 d 1 1 d 5 2 d 3 1 d 3 1 d 4 2 d 2 X 6
 2 d 6 3 d 1 X 5 2 d 2 1 d 4 1 d 4 2 d 2 1 d 5 2 d 1 X 5 3 d 1 X 6 2 d 1 Y 6 2 d 1 X 5 2 d 2 1 d 3 2 d 4 1 d 2 1 d 4 2 d 2 1 d 5 2 d 1 1 d 5 2 d 1 X 5 3 d 1 X 6 2 d 1 Y 6 2 d 1 Y 6 2 d 6 3 d 6 3 d 6 3 d 5 3 d 1 X 5 2 d 1 1 d 5 2 d 1 1 d 5 2 d 1 1 d 4
 2 d 2 1 d 4 2 d 2 1 d 3 2 d 3 1 d 2 2 d 4 2 d 2 X 4 3 d 1 X 5 3 d 5 3 d 1 X 4 3 d 2 1 d 3 2 d 3 1 d 2 2 d 4 2 d 1 X 5 3 d 4 3 d 2 1 d 3 2 d 3 2 d 2 1 d 4 2 d 1 Y 5 3 d 1 X 4 2 d 2 2 d 2 1 d 4 3 d 5 3 d 1 X 3 3 d 3 1 d 2 2 d 3 3 d 1 X 4 2 d 1 1 d 3 2
 d 3 3 d 1 X 4 3 d 1 1 d 3 2 d 3 2 d 1 1 d 4 3 d 1 X 3 2 d 3 3 d 1 X 4 3 d 1 1 d 3 2 d 3 3 d 4 3 d 2 1 d 2 2 d 3 2 d 1 1 d 3 2 d 3 3 d 1 X 3 3 d 2 2 d 2 1 d 3 3 d 1 1 d 3 2 d 3 2 d 1 Y 4 2 d 2 3 d 1 X 3 3 d 2 2 d 1 1 d 4 3 d 1 1 d 2 2 d 3 2 d 1 1 d 2
 2 d 3 3 d 1 1 d 3 2 d 2 3 d 1 X 3 3 d 3 3 d 3 2 d 2 3 d 1 1 d 3 2 d 2 3 d 1 1 d 2 2 d 3 3 d 1 X 2 3 d 3 2 d 1 1 d 2 2 d 2 3 d 2 2 d 1 1 d 3 3 d 2 2 d 1 Y 3 3 d 3 2 d 3 3 d 2 3 d 1 1 d 2 2 d 2 3 d 2 2 d 1 1 d 2 3 d 3 2 d 2 3 d 3 3 d 1 1 d 1 2 d 3 3 d
 2 3 d 2 3 d 3 2 d 1 2 d 1 1 d 2 3 d 2 3 d 3 3 d 2 3 d 1 2 d 1 1 d 3 2 d 2 3 d 1 Y 2 2 d 2 3 d 2 3 d 2 3 d 3 3 d 1 2 d 1 Y 3 2 d 2 3 d 1 3 d 3 3 d 2 3 d 1 2 d 1 1 d 2 2 d 2 3 d 1 3 d 3 3 d 2 3 d 1 3 d 3 Y -6 1 d f 0 lw 1 0.6 0 c 3 lw 1465 1017 m -6 1
 d -6 1 d -168 X -6 -1 d -5 -1 d -4 Y -3 -2 d -2 -3 d -1 -1 d -2 -2 d -3 -3 d -1 -2 d -2 -1 d -2 -2 d -2 -3 d -1 X -3 -3 d -2 -3 d -3 -3 d -3 -3 d -1 Y -2 -2 d -3 -2 d -1 -2 d -2 -1 d -2 -3 d -2 -3 d -3 -3 d -3 -3 d -1 Y -2 -2 d -3 -2 d -1 -2 d -1 -1
 d -3 -3 d -2 -3 d -3 -3 d -2 -3 d -1 -1 d -1 -2 d -3 -2 d -2 -3 d -1 Y -3 -2 d -2 -3 d -1 -2 d -1 -1 d -3 -3 d -2 -3 d -2 -2 d -3 -3 d -1 -3 d -1 X -2 -3 d -2 -3 d -1 -1 d -2 -2 d -2 -3 d -2 -2 d -1 Y -2 -2 d -2 -3 d -2 -3 d -3 -3 d -2 -3 d -1 -2 d
 -1 -1 d -2 -2 d -2 -3 d -1 -2 d -1 -1 d -3 -3 d -1 -3 d -1 -1 d -1 -2 d -3 -3 d -1 -2 d -1 -1 d -2 -2 d -2 -3 d -1 -3 d -1 -1 d -2 -2 d -2 -3 d -1 -3 d -1 -1 d -1 -1 d -3 -3 d -1 -3 d -1 -1 d -1 -2 d -2 -3 d -2 -3 d -1 -1 d -1 -2 d -2 -2 d -2 -3 d
 -1 -3 d -2 -3 d -2 -3 d -2 -3 d -2 -3 d -2 -2 d -1 -3 d -1 -2 d -1 -1 d -2 -3 d -2 -3 d -1 -2 d -1 Y -2 -3 d -2 -2 d -1 -3 d -1 -1 d -1 -2 d -2 -3 d -1 -3 d -2 -3 d -2 -3 d -2 -2 d -1 -3 d -1 -2 d -1 -1 d -1 -3 d -2 -3 d -1 -3 d -1 -1 d -1 -2 d -2
 -2 d -1 -3 d -1 -3 d -2 -3 d -2 -3 d -1 -3 d -1 -3 d -2 -2 d -2 -3 d -1 -3 d -1 -3 d -2 -3 d -2 -3 d -1 -3 d -1 -2 d -1 Y -2 -2 d -2 -3 d -1 -3 d -1 -3 d -1 Y -2 -2 d -1 -3 d -1 -2 d -2 -3 d -2 Y -1 -1 d -2 -3 d -1 -3 d -1 -3 d -1 -3 d -2 -2 d -1 -3
 d -1 -3 d -1 -3 d -1 -3 d -1 X -1 -3 d -2 -3 d -1 -2 d -1 -3 d -2 Y -1 -1 d -1 -3 d -2 -3 d -1 -3 d -1 -3 d -1 Y -1 -1 d -1 -3 d -2 -3 d -1 -3 d -1 -3 d -2 Y -1 -1 d -1 -3 d -1 -2 d -1 -3 d -1 -3 d -1 -3 d -2 -3 d -1 -3 d -1 -3 d -1 -2 d -1 -3 d -2
 Y -1 -1 d -1 -3 d -1 -3 d -1 -3 d -1 -3 d -1 -2 d -2 Y -1 -1 d -1 -3 d -1 -3 d -1 -3 d -1 -3 d -1 -3 d -1 Y -1 -1 d -1 -3 d -1 -3 d -1 -3 d -1 -3 d -3 Y -1 -2 d -1 Y -1 -2 d -1 -3 d -1 -3 d -1 -3 d -1 -3 d -1 -3 d -3 Y -2 -2 d -1 -3 d -3 Y -1 -3 d
 -1 -3 d -3 Y -1 -3 d -1 -2 d -1 -3 d -1 -3 d -1 -3 d -3 Y -1 -3 d -1 -3 d -2 Y -1 -3 d -1 -3 d -1 -3 d -1 -3 d -3 Y -1 -3 d -2 Y -1 -3 d -1 Y -1 -2 d -1 -3 d -3 Y -1 -3 d -1 -3 d -2 Y -1 -3 d -3 Y -1 -3 d -3 Y -1 -3 d -1 -3 d -1 -2 d -3 Y -1 -3 d -3
 Y -1 -3 d -3 Y -1 -3 d -2 Y -1 -3 d -3 Y -1 -3 d -1 -3 d -3 Y -1 -3 d -5 Y -1 -3 d -6 Y -1 -3 d -3 Y -1 -2 d -1 -3 d -3 Y -1 -3 d -6 Y -1 -3 d -5 Y -1 -3 d -9 Y -1 -3 d -2 Y -1 -3 d -6 Y -1 -3 d -3 Y -1 -3 d -8 Y -1 -3 d -11 Y -1 -3 d -15 Y -1 -2 d
 -12 Y -1 -3 d -11 Y -1 -3 d -26 Y -1 -3 d -22 Y 3 -1 d 6 -2 d 108 X 6 1 d 5 2 d 28 Y 1 3 d 17 Y 1 3 d 11 Y 1 3 d 12 Y 1 3 d 8 Y 1 3 d 11 Y 1 3 d 12 Y 1 2 d 3 Y 1 3 d 3 Y 1 3 d 6 Y 1 3 d 2 Y 1 3 d 6 Y 1 3 d 8 Y 1 2 d 1 Y 1 3 d 3 Y 1 3 d 3 Y 1 3 d 2 Y
 1 3 d 3 Y 1 3 d 6 Y 1 1 d 2 Y 1 2 d 3 Y 1 3 d 1 3 d 3 Y 1 3 d 3 Y 1 2 d 6 Y 1 X 1 3 d 3 Y 1 3 d 1 3 d 2 Y 1 3 d 1 3 d 6 Y 1 X 1 3 d 3 Y 1 2 d 1 3 d 1 3 d 3 Y 1 3 d 3 Y 1 3 d 1 2 d 1 3 d 1 3 d 1 3 d 1 3 d 4 Y 1 2 d 1 2 d 1 3 d 1 3 d 1 3 d 3 Y 1 3 d 1
 Y 1 2 d 1 2 d 1 3 d 1 3 d 1 3 d 1 3 d 3 Y 2 3 d 1 2 d 1 3 d 1 3 d 1 3 d 3 Y 2 3 d 1 3 d 1 2 d 1 3 d 1 3 d 3 Y 2 3 d 1 3 d 1 3 d 1 2 d 1 3 d 2 Y 1 1 d 2 3 d 1 3 d 1 3 d 1 3 d 2 Y 1 X 1 3 d 1 3 d 2 3 d 1 3 d 3 Y 2 3 d 1 2 d 2 3 d 1 3 d 2 Y 1 1 d 1 3 d
 2 3 d 1 3 d 1 2 d 1 Y 1 2 d 2 3 d 1 3 d 1 3 d 1 2 d 1 Y 2 3 d 2 2 d 1 3 d 1 3 d 1 Y 1 2 d 2 3 d 1 3 d 2 3 d 1 Y 1 1 d 2 3 d 1 3 d 1 3 d 1 2 d 1 1 d 2 3 d 1 3 d 1 2 d 1 2 d 1 1 d 2 3 d 1 3 d 1 3 d 1 1 d 1 2 d 2 3 d 1 2 d 2 3 d 1 Y 1 2 d 2 3 d 2 3 d 1
 3 d 2 3 d 2 2 d 1 3 d 1 2 d 1 1 d 2 3 d 1 3 d 2 3 d 2 3 d 2 2 d 1 3 d 1 2 d 1 1 d 2 3 d 2 3 d 1 2 d 1 Y 2 3 d 2 2 d 2 3 d 1 Y 2 2 d 2 3 d 1 3 d 1 1 d 2 2 d 2 3 d 1 2 d 1 2 d 1 1 d 2 3 d 2 3 d 1 1 d 1 2 d 2 3 d 2 3 d 1 1 d 1 1 d 2 3 d 2 3 d 1 1 d 1 2
 d 2 3 d 2 3 d 1 1 d 1 2 d 3 2 d 1 3 d 1 1 d 2 2 d 2 3 d 2 3 d 2 3 d 2 3 d 2 1 d 1 1 d 2 3 d 2 3 d 1 Y 2 2 d 3 3 d 1 3 d 1 X 2 3 d 2 2 d 1 2 d 2 1 d 2 3 d 2 3 d 3 3 d 2 3 d 1 1 d 2 2 d 2 2 d 2 3 d 3 3 d 2 3 d 1 1 d 2 2 d 3 3 d 1 2 d 1 1 d 3 2 d 2 3 d
 1 Y 3 2 d 2 3 d 1 1 d 2 2 d 3 3 d 1 2 d 1 1 d 3 2 d 2 3 d 3 3 d 3 3 d 1 Y 3 2 d 2 3 d 1 1 d 2 2 d 3 2 d 1 2 d 2 1 d 3 3 d 1 2 d 1 1 d 3 3 d 2 2 d 1 1 d 3 3 d 2 2 d 1 X 3 3 d 2 2 d 1 1 d 3 3 d 2 2 d 1 1 d 3 3 d 2 2 d 1 1 d 3 2 d 2 2 d 1 1 d 4 3 d 1 1
 d 2 2 d 3 3 d 1 1 d 2 2 d 3 3 d 1 X 3 2 d 3 3 d 3 3 d 3 2 d 1 1 d 3 3 d 2 1 d 1 2 d 4 3 d 1 X 2 2 d 3 3 d 1 X 3 3 d 3 2 d 1 1 d 3 3 d 2 1 d 2 2 d 3 Y -2 X f 0 lw 0.745098 0.784314 1 c -1201890 414835 m 1204044 -414677 d -1177542 479334 d -26502
 -64657 d cl 1206199 -414518 m -1204045 414676 d 1177544 -479333 d 26501 64657 d cl f 0.9 0.9 0.9 c -498713 1127074 m 500867 -1126916 d -433305 1152278 d -67562 -25362 d cl 503023 -1126758 m -500869 1126916 d 433307 -1152277 d 67562 25361 d cl f
 0.392157 0.705882 1 c -1195940 430329 m 1198094 -430171 d -1184606 463119 d -13488 -32948 d cl 1200249 -430012 m -1198095 430170 d 1184608 -463118 d 13487 32948 d cl f 0.980392 0.980392 0.117647 c 3 lw 0.95 0.95 0.95 c 0.980392 0.980392 0.117647 c
 1650 1017 m -6 1 d -12 X -6 1 d -442 X -6 -1 d -6 X -6 -1 d -3 X -3 Y -3 -3 d -3 -3 d -2 -3 d -1 -1 d -2 -2 d -2 -3 d -2 -1 d -1 -1 d -3 -3 d -2 -3 d -3 -3 d -2 -3 d -1 -1 d -2 -2 d -2 -3 d -2 -1 d -1 -1 d -2 -3 d -3 -3 d -2 -3 d -3 -3 d -1 -1 d -1
 -2 d -3 -3 d -2 -2 d -2 -3 d -3 -3 d -1 -2 d -1 -1 d -2 -3 d -3 -3 d -2 -3 d -2 -2 d -2 -2 d -1 -1 d -2 -3 d -2 -3 d -1 -1 d -1 -2 d -3 -3 d -2 -2 d -1 Y -2 -2 d -2 -3 d -2 -2 d -1 Y -3 -3 d -2 -3 d -1 -1 d -1 -2 d -2 -3 d -2 -2 d -1 Y -2 -2 d -2 -3
 d -2 -3 d -3 -3 d -2 -3 d -1 -3 d -3 -2 d -2 -3 d -1 -3 d -1 X -2 -3 d -2 -3 d -1 -3 d -1 X -2 -3 d -2 -2 d -1 -3 d -3 -3 d -1 -3 d -2 -3 d -2 -3 d -2 -3 d -2 -2 d -1 Y -2 -2 d -2 -3 d -2 -3 d -1 Y -1 -2 d -2 -3 d -2 -3 d -1 -2 d -1 X -2 -3 d -1 -3
 d -2 -3 d -2 -3 d -2 -3 d -1 -3 d -1 -1 d -1 -1 d -2 -3 d -2 -3 d -1 -3 d -2 -3 d -2 -3 d -1 -3 d -1 -1 d -1 -1 d -2 -3 d -1 -3 d -2 -3 d -1 Y -2 -2 d -1 -3 d -2 -3 d -1 -2 d -2 -3 d -2 -3 d -1 -3 d -1 -2 d -1 Y -2 -3 d -2 -3 d -1 -2 d -1 -2 d -1 -1
 d -1 -3 d -2 -3 d -1 -3 d -1 -2 d -1 -1 d -1 -3 d -2 -2 d -1 -3 d -1 -3 d -2 -3 d -1 -3 d -2 -3 d -1 -3 d -2 -2 d -1 -3 d -1 -3 d -1 -3 d -1 -1 d -1 -2 d -1 -3 d -2 -3 d -1 -2 d -1 -3 d -2 -3 d -1 -3 d -1 -3 d -1 -3 d -1 -1 d -1 -2 d -1 -2 d -1 -3 d
 -2 -3 d -1 -3 d -1 -3 d -1 -3 d -2 -3 d -1 -2 d -1 -3 d -1 -3 d -1 -3 d -2 -3 d -1 -3 d -1 -3 d -1 -2 d -1 -3 d -1 -3 d -1 -3 d -1 -3 d -1 -1 d -1 -2 d -1 -3 d -1 -2 d -1 -3 d -1 -3 d -1 -3 d -1 -3 d -1 -3 d -1 -3 d -1 -2 d -1 -3 d -1 -2 d -1 Y -1
 -3 d -1 -3 d -1 -3 d -1 -3 d -1 -2 d -1 -2 d -1 Y -1 -3 d -1 -3 d -1 -3 d -1 -3 d -1 -3 d -1 -2 d -1 -3 d -1 -3 d -1 -3 d -1 -3 d -3 Y -1 -3 d -1 -1 d -1 Y -1 -3 d -1 -3 d -1 -3 d -1 -3 d -1 -3 d -3 Y -1 -1 d -1 Y -1 -3 d -1 -3 d -1 -3 d -3 Y -1 -3
 d -1 -3 d -1 -2 d -3 Y -1 -3 d -1 -3 d -1 -3 d -1 -3 d -3 Y -1 -2 d -3 Y -1 -3 d -1 -3 d -1 -3 d -1 -3 d -3 Y -1 -2 d -3 Y -1 -3 d -3 Y -1 X -3 Y -1 -3 d -1 -3 d -2 Y -1 -3 d -1 -3 d -3 Y -1 -3 d -4 Y -1 -2 d -2 Y -1 -3 d -1 -3 d -3 Y -1 -3 d -3 Y
 -1 -3 d -2 Y -1 -3 d -5 Y -1 -1 d -3 Y -1 -3 d -3 Y -1 -2 d -3 Y -1 -3 d -3 Y -1 -3 d -6 Y -1 -2 d -6 Y -1 -3 d -3 Y -1 -3 d -3 Y -1 -2 d -6 Y -1 -3 d -6 Y -1 -3 d -5 Y -1 -3 d -9 Y -1 -3 d -5 Y -1 -3 d -6 Y -1 -3 d -8 Y -1 -3 d -14 Y -1 -3 d -17 Y
 -1 -3 d -29 Y -1 -3 d -25 Y 1 -1 d 6 -1 d 6 X 6 -1 d 274 X 6 1 d 6 X 5 2 d 45 Y 1 3 d 17 Y 1 3 d 9 Y 1 3 d 5 Y 1 3 d 9 Y 1 3 d 5 Y 1 3 d 9 Y 1 3 d 5 Y 1 3 d 3 Y 1 3 d 3 Y 1 3 d 2 Y 1 3 d 3 Y 1 3 d 6 Y 1 3 d 3 Y 1 2 d 3 Y 1 3 d 1 3 d 3 Y 1 3 d 2 Y 1
 3 d 3 Y 1 3 d 3 Y 1 3 d 1 3 d 2 Y 1 3 d 1 3 d 3 Y 1 3 d 3 Y 1 3 d 1 2 d 1 3 d 3 Y 1 3 d 1 3 d 1 3 d 3 Y 1 2 d 2 Y 1 1 d 3 Y 1 3 d 1 3 d 1 3 d 1 3 d 2 Y 1 3 d 1 3 d 1 3 d 1 3 d 1 3 d 1 3 d 2 Y 1 3 d 1 3 d 1 3 d 1 3 d 1 3 d 1 3 d 1 2 d 1 Y 1 2 d 1 3 d
 1 3 d 1 3 d 1 3 d 1 3 d 1 2 d 1 3 d 1 3 d 1 3 d 1 3 d 1 2 d 1 Y 1 3 d 2 2 d 1 3 d 1 3 d 1 3 d 1 Y 1 2 d 1 3 d 1 3 d 2 2 d 1 3 d 1 Y 1 2 d 1 3 d 1 3 d 2 3 d 1 3 d 1 2 d 1 3 d 2 3 d 1 3 d 1 3 d 2 3 d 1 3 d 1 2 d 1 3 d 1 1 d 1 2 d 1 3 d 2 3 d 1 3 d 1 2
 d 1 Y 2 2 d 1 3 d 2 3 d 1 3 d 2 3 d 1 3 d 2 3 d 1 2 d 2 3 d 1 3 d 2 3 d 1 2 d 1 Y 2 3 d 1 3 d 2 2 d 1 2 d 1 Y 2 3 d 2 3 d 1 3 d 1 1 d 1 2 d 2 3 d 1 2 d 2 3 d 2 3 d 1 3 d 2 3 d 1 1 d 1 2 d 2 3 d 1 2 d 2 3 d 2 3 d 2 3 d 1 3 d 2 3 d 2 3 d 2 2 d 1 Y 2 2
 d 2 3 d 2 3 d 1 Y 2 2 d 2 3 d 2 3 d 1 Y 2 1 d 2 3 d 2 3 d 2 Y 2 1 d 2 3 d 2 3 d 1 Y 2 2 d 2 2 d 2 3 d 1 Y 2 2 d 2 3 d 2 3 d 2 3 d 3 3 d 1 2 d 1 X 2 3 d 2 3 d 1 2 d 1 1 d 3 3 d 2 3 d 2 3 d 3 2 d 1 3 d 1 X 2 3 d 2 3 d 1 1 d 2 2 d 2 3 d 2 2 d 1 1 d 2 2
 d 3 3 d 1 Y 2 2 d 3 3 d 1 2 d 1 1 d 3 3 d 2 3 d 3 2 d 2 3 d 1 1 d 2 2 d 3 3 d 1 2 d 1 1 d 3 3 d 2 2 d 1 Y 3 2 d 3 3 d 3 3 d 2 3 d 1 1 d 2 2 d 3 3 d 1 1 d 2 2 d 3 2 d 1 1 d 2 2 d 3 3 d 1 1 d 2 2 d 3 3 d 1 1 d 2 2 d 3 3 d 1 1 d 2 1 d 3 3 d 1 1 d 2 2 d
 3 3 d 1 1 d 2 2 d 3 3 d 1 X 2 3 d 3 2 d 1 1 d 3 2 d 3 3 d 4 3 d 2 2 d 1 1 d 3 3 d 2 1 d 2 2 d 3 2 d 1 1 d 3 2 d 2 3 d 1 X 3 3 d 2 2 d 2 1 d 4 3 d 3 3 d 3 2 d 1 X 4 3 d 1 2 d 2 1 d 4 3 d 4 3 d 2 2 d 2 1 d 3 3 d 1 X 3 2 d 3 3 d 1 X 4 3 d 1 1 d 3 2 d 3
 2 d 1 1 d 4 3 d 1 X 4 3 d 2 1 d 2 1 d 4 3 d 4 3 d 2 1 d 3 2 d 3 2 d 1 1 d 4 3 d 1 X 4 3 d 2 1 d 3 1 d 3 3 d 1 X 5 3 d 5 3 d 1 1 d 3 2 d 3 1 d 2 2 d 4 2 d 1 1 d 5 2 d 5 3 d 1 1 d 4 2 d 2 1 d 3 2 d 3 1 d 2 2 d 4 2 d 2 1 d 3 Y -2 X cl s 0.54902 1
 0.313726 c 0.95 0.95 0.95 c 0.54902 1 0.313726 c 1948 1018 m -6 1 d -442 X -6 -1 d -6 X -5 -1 d -2 X -3 Y -3 -3 d -1 -2 d -2 -1 d -3 -3 d -1 -1 d -2 -2 d -3 -3 d -1 -1 d -2 -1 d -3 -3 d -1 -2 d -2 -1 d -3 -3 d -1 -1 d -3 -2 d -3 -3 d -3 -3 d -3 -2 d
 -1 Y -4 -2 d -2 -3 d -1 X -3 -3 d -2 -2 d -1 -1 d -4 -3 d -1 -1 d -2 -2 d -4 -2 d -1 Y -3 -2 d -3 -3 d -4 -3 d -2 -2 d -2 -1 d -3 -3 d -1 -1 d -3 -2 d -3 -2 d -4 -3 d -2 -2 d -2 -1 d -3 -3 d -1 X -3 -3 d -3 -2 d -1 -1 d -4 -3 d -1 X -3 -2 d -3 -3 d
 -1 X -4 -3 d -1 -1 d -3 -2 d -3 -3 d -5 -3 d -1 -1 d -3 -2 d -3 -2 d -1 X -4 -3 d -1 -1 d -3 -2 d -3 -2 d -1 -1 d -4 -3 d -1 X -4 -3 d -2 -1 d -2 -2 d -4 -2 d -5 -3 d -1 -1 d -3 -2 d -3 -2 d -2 -1 d -4 -3 d -5 -3 d -1 X -3 -3 d -3 -1 d -2 -1 d -3 -3
 d -2 X -4 -3 d -5 -3 d -1 -1 d -4 -2 d -2 -1 d -3 -2 d -3 -2 d -2 -1 d -4 -2 d -6 -3 d -1 Y -5 -2 d -1 -1 d -4 -2 d -2 -1 d -3 -2 d -3 -2 d -2 -1 d -4 -2 d -1 -1 d -5 -2 d -6 -3 d -1 Y -5 -2 d -1 -1 d -5 -2 d -1 -1 d -4 -2 d -2 -1 d -4 -2 d -2 -1 d
 -3 -2 d -3 -1 d -3 -1 d -3 -2 d -3 -1 d -3 -2 d -2 -1 d -4 -2 d -2 -1 d -4 -2 d -2 -1 d -4 -2 d -2 -1 d -4 -2 d -2 -1 d -4 -1 d -2 -1 d -4 -2 d -2 -1 d -4 -2 d -2 -1 d -4 -2 d -3 -1 d -3 -1 d -3 -2 d -3 -1 d -3 -2 d -3 -1 d -4 -2 d -2 X -4 -2 d -2
 -1 d -5 -2 d -1 -1 d -5 -2 d -1 X -5 -3 d -1 X -5 -2 d -2 -1 d -4 -2 d -3 -1 d -3 -1 d -4 -2 d -2 -1 d -5 -1 d -1 -1 d -6 -2 d -6 -3 d -1 X -5 -2 d -3 -1 d -3 -1 d -4 -2 d -2 -1 d -5 -2 d -1 X -6 -2 d -1 -1 d -5 -2 d -2 X -4 -2 d -4 -1 d -2 -1 d -6
 -2 d -6 -2 d -2 -1 d -4 -2 d -4 -1 d -2 -1 d -6 -2 d -6 -2 d -2 -1 d -4 -1 d -4 -1 d -2 -1 d -6 -2 d -6 -2 d -3 -1 d -3 -1 d -5 -2 d -1 X -6 -2 d -2 -1 d -4 -1 d -5 -2 d -1 X -6 -2 d -1 -1 d -5 -1 d -4 -1 d -2 -1 d -6 -2 d -1 X -4 -2 d -6 -1 d -6 -2
 d -3 -1 d -3 -1 d -6 -2 d -6 -2 d -4 -1 d -2 X -6 -2 d -1 -1 d -5 -1 d -5 -1 d -1 -1 d -6 -1 d -3 -1 d -3 -1 d -6 -2 d -1 X -5 -2 d -5 -1 d -1 X -6 -2 d -4 -1 d -2 -1 d -6 -1 d -2 -1 d -4 -1 d -6 -1 d -1 Y -6 -1 d -5 -1 d -1 -1 d -6 -1 d -4 -1 d -2
 -1 d -6 -1 d -3 -1 d -3 -1 d -6 -1 d -2 -1 d -4 -1 d -6 -1 d -1 -1 d -5 -1 d -6 -1 d -1 -1 d -5 -1 d -6 -1 d -1 Y -6 -1 d -6 -1 d -5 -2 d -6 -1 d -1 X -5 -2 d -6 -1 d -1 X -5 -1 d -6 -2 d -1 X -5 -1 d -6 -2 d -2 X -4 -1 d -6 -1 d -2 -1 d -4 -1 d -6
 -1 d -3 -1 d -3 X -6 -2 d -4 X -2 -1 d -6 -1 d -5 -1 d -1 -1 d -6 -1 d -6 -1 d -6 -1 d -6 -2 d -2 X -4 -1 d -6 -1 d -4 -1 d -2 X -6 -1 d -6 -2 d -6 -1 d -6 -1 d -2 -1 d -4 X -6 -1 d -4 -1 d -2 -1 d -6 -1 d -6 -1 d -1 X -5 -1 d -6 -1 d -4 -1 d -1 -1
 d -6 -1 d -6 -1 d -2 X -4 -1 d -6 -1 d -5 -1 d -1 X -6 -1 d -6 -1 d -3 -1 d -3 X -6 -1 d -6 -2 d -6 -1 d -6 -1 d -7 X -2 -3 d -1 -3 d -1 -3 d -9 Y -1 -2 d -115 Y 1 -3 d -2 Y 1 -3 d 2 -3 d 2 -2 d 6 X 6 1 d 6 X 4 1 d 8 X 6 1 d 6 1 d 6 X 1 1 d 5 X 6 1
 d 6 X 6 1 d 4 1 d 7 X 6 1 d 6 X 6 1 d 1 X 5 1 d 6 X 6 1 d 6 1 d 2 X 4 1 d 6 X 6 1 d 6 1 d 6 X 6 1 d 6 1 d 6 X 3 1 d 3 X 6 1 d 6 1 d 6 X 3 1 d 3 X 6 1 d 6 X 6 1 d 2 1 d 4 X 6 1 d 6 X 6 1 d 1 1 d 5 X 6 1 d 6 1 d 6 X 6 1 d 6 1 d 6 1 d 2 X 3 1 d 6 X 6 1
 d 6 1 d 6 1 d 6 1 d 6 1 d 6 X 6 1 d 6 1 d 5 1 d 1 X 6 1 d 6 1 d 6 1 d 6 X 6 1 d 6 1 d 2 1 d 4 X 6 1 d 6 1 d 3 X 3 1 d 6 1 d 6 1 d 3 X 3 1 d 6 X 6 1 d 4 1 d 2 X 6 1 d 6 1 d 3 1 d 3 X 6 1 d 6 1 d 3 1 d 3 X 6 1 d 6 1 d 2 1 d 3 X 6 1 d 6 1 d 1 1 d 5 X 6
 1 d 6 1 d 6 1 d 6 1 d 4 1 d 2 1 d 6 1 d 6 1 d 2 X 4 1 d 6 1 d 5 1 d 1 X 6 1 d 6 1 d 2 1 d 4 X 6 2 d 5 1 d 1 X 6 1 d 6 1 d 2 1 d 4 X 6 1 d 4 1 d 2 1 d 6 1 d 6 1 d 6 1 d 6 2 d 2 X 4 1 d 6 1 d 4 1 d 2 X 6 1 d 5 2 d 1 X 6 1 d 6 2 d 5 1 d 6 1 d 2 1 d 4 X
 6 2 d 3 X 3 1 d 6 1 d 3 1 d 3 1 d 6 1 d 4 1 d 2 1 d 6 1 d 4 1 d 2 1 d 6 1 d 3 1 d 3 X 6 2 d 3 1 d 3 X 6 2 d 3 1 d 3 X 6 2 d 2 X 4 1 d 6 2 d 1 X 5 1 d 6 2 d 6 2 d 4 1 d 2 X 6 2 d 3 1 d 3 X 6 2 d 1 1 d 5 1 d 6 2 d 6 1 d 4 1 d 2 1 d 6 2 d 2 X 4 1 d 5 2
 d 1 X 6 2 d 3 1 d 2 1 d 6 1 d 2 1 d 4 1 d 5 2 d 1 X 6 2 d 2 1 d 4 1 d 5 1 d 1 1 d 6 2 d 2 X 4 1 d 5 2 d 1 X 6 2 d 2 1 d 4 1 d 4 2 d 2 X 6 2 d 1 1 d 5 1 d 3 2 d 3 X 5 2 d 1 1 d 6 2 d 1 X 5 2 d 3 1 d 3 1 d 5 2 d 1 X 6 2 d 1 1 d 5 2 d 3 1 d 3 1 d 4 2 d
 2 X 6 2 d 6 3 d 1 X 5 2 d 2 1 d 4 1 d 4 2 d 2 1 d 5 2 d 1 X 5 3 d 1 X 6 2 d 1 Y 6 2 d 1 X 5 2 d 2 1 d 3 2 d 4 1 d 2 1 d 4 2 d 2 1 d 5 2 d 1 1 d 5 2 d 1 X 5 3 d 1 X 6 2 d 1 Y 6 2 d 1 Y 6 2 d 6 3 d 6 3 d 6 3 d 5 3 d 1 X 5 2 d 1 1 d 5 2 d 1 1 d 5 2 d 1
 1 d 4 2 d 2 1 d 4 2 d 2 1 d 3 2 d 3 1 d 2 2 d 4 2 d 2 X 4 3 d 1 X 5 3 d 5 3 d 1 X 4 3 d 2 1 d 3 2 d 3 1 d 2 2 d 4 2 d 1 X 5 3 d 4 3 d 2 1 d 3 2 d 3 2 d 2 1 d 4 2 d 1 Y 5 3 d 1 X 4 2 d 2 2 d 2 1 d 4 3 d 5 3 d 1 X 3 3 d 3 1 d 2 2 d 3 3 d 1 X 4 2 d 1 1
 d 3 2 d 3 3 d 1 X 4 3 d 1 1 d 3 2 d 3 2 d 1 1 d 4 3 d 1 X 3 2 d 3 3 d 1 X 4 3 d 1 1 d 3 2 d 3 3 d 4 3 d 2 1 d 2 2 d 3 2 d 1 1 d 3 2 d 3 3 d 1 X 3 3 d 2 2 d 2 1 d 3 3 d 1 1 d 3 2 d 3 2 d 1 Y 4 2 d 2 3 d 1 X 3 3 d 2 2 d 1 1 d 4 3 d 1 1 d 2 2 d 3 2 d 1
 1 d 2 2 d 3 3 d 1 1 d 3 2 d 2 3 d 1 X 3 3 d 3 3 d 3 2 d 2 3 d 1 1 d 3 2 d 2 3 d 1 1 d 2 2 d 3 3 d 1 X 2 3 d 3 2 d 1 1 d 2 2 d 2 3 d 2 2 d 1 1 d 3 3 d 2 2 d 1 Y 3 3 d 3 2 d 3 3 d 2 3 d 1 1 d 2 2 d 2 3 d 2 2 d 1 1 d 2 3 d 3 2 d 2 3 d 3 3 d 1 1 d 1 2 d
 3 3 d 2 3 d 2 3 d 3 2 d 1 2 d 1 1 d 2 3 d 2 3 d 3 3 d 2 3 d 1 2 d 1 1 d 3 2 d 2 3 d 1 Y 2 2 d 2 3 d 2 3 d 2 3 d 3 3 d 1 2 d 1 Y 3 2 d 2 3 d 1 3 d 3 3 d 2 3 d 1 2 d 1 1 d 2 2 d 2 3 d 1 3 d 3 3 d 2 3 d 1 3 d 3 Y -6 1 d cl s 1 0.6 0 c 0.95 0.95 0.95 c
 1 0.6 0 c 1465 1017 m -6 1 d -6 1 d -168 X -6 -1 d -5 -1 d -4 Y -3 -2 d -2 -3 d -1 -1 d -2 -2 d -3 -3 d -1 -2 d -2 -1 d -2 -2 d -2 -3 d -1 X -3 -3 d -2 -3 d -3 -3 d -3 -3 d -1 Y -2 -2 d -3 -2 d -1 -2 d -2 -1 d -2 -3 d -2 -3 d -3 -3 d -3 -3 d -1 Y -2
 -2 d -3 -2 d -1 -2 d -1 -1 d -3 -3 d -2 -3 d -3 -3 d -2 -3 d -1 -1 d -1 -2 d -3 -2 d -2 -3 d -1 Y -3 -2 d -2 -3 d -1 -2 d -1 -1 d -3 -3 d -2 -3 d -2 -2 d -3 -3 d -1 -3 d -1 X -2 -3 d -2 -3 d -1 -1 d -2 -2 d -2 -3 d -2 -2 d -1 Y -2 -2 d -2 -3 d -2 -3
 d -3 -3 d -2 -3 d -1 -2 d -1 -1 d -2 -2 d -2 -3 d -1 -2 d -1 -1 d -3 -3 d -1 -3 d -1 -1 d -1 -2 d -3 -3 d -1 -2 d -1 -1 d -2 -2 d -2 -3 d -1 -3 d -1 -1 d -2 -2 d -2 -3 d -1 -3 d -1 -1 d -1 -1 d -3 -3 d -1 -3 d -1 -1 d -1 -2 d -2 -3 d -2 -3 d -1 -1 d
 -1 -2 d -2 -2 d -2 -3 d -1 -3 d -2 -3 d -2 -3 d -2 -3 d -2 -3 d -2 -2 d -1 -3 d -1 -2 d -1 -1 d -2 -3 d -2 -3 d -1 -2 d -1 Y -2 -3 d -2 -2 d -1 -3 d -1 -1 d -1 -2 d -2 -3 d -1 -3 d -2 -3 d -2 -3 d -2 -2 d -1 -3 d -1 -2 d -1 -1 d -1 -3 d -2 -3 d -1
 -3 d -1 -1 d -1 -2 d -2 -2 d -1 -3 d -1 -3 d -2 -3 d -2 -3 d -1 -3 d -1 -3 d -2 -2 d -2 -3 d -1 -3 d -1 -3 d -2 -3 d -2 -3 d -1 -3 d -1 -2 d -1 Y -2 -2 d -2 -3 d -1 -3 d -1 -3 d -1 Y -2 -2 d -1 -3 d -1 -2 d -2 -3 d -2 Y -1 -1 d -2 -3 d -1 -3 d -1 -3
 d -1 -3 d -2 -2 d -1 -3 d -1 -3 d -1 -3 d -1 -3 d -1 X -1 -3 d -2 -3 d -1 -2 d -1 -3 d -2 Y -1 -1 d -1 -3 d -2 -3 d -1 -3 d -1 -3 d -1 Y -1 -1 d -1 -3 d -2 -3 d -1 -3 d -1 -3 d -2 Y -1 -1 d -1 -3 d -1 -2 d -1 -3 d -1 -3 d -1 -3 d -2 -3 d -1 -3 d -1
 -3 d -1 -2 d -1 -3 d -2 Y -1 -1 d -1 -3 d -1 -3 d -1 -3 d -1 -3 d -1 -2 d -2 Y -1 -1 d -1 -3 d -1 -3 d -1 -3 d -1 -3 d -1 -3 d -1 Y -1 -1 d -1 -3 d -1 -3 d -1 -3 d -1 -3 d -3 Y -1 -2 d -1 Y -1 -2 d -1 -3 d -1 -3 d -1 -3 d -1 -3 d -1 -3 d -3 Y -2 -2
 d -1 -3 d -3 Y -1 -3 d -1 -3 d -3 Y -1 -3 d -1 -2 d -1 -3 d -1 -3 d -1 -3 d -3 Y -1 -3 d -1 -3 d -2 Y -1 -3 d -1 -3 d -1 -3 d -1 -3 d -3 Y -1 -3 d -2 Y -1 -3 d -1 Y -1 -2 d -1 -3 d -3 Y -1 -3 d -1 -3 d -2 Y -1 -3 d -3 Y -1 -3 d -3 Y -1 -3 d -1 -3 d
 -1 -2 d -3 Y -1 -3 d -3 Y -1 -3 d -3 Y -1 -3 d -2 Y -1 -3 d -3 Y -1 -3 d -1 -3 d -3 Y -1 -3 d -5 Y -1 -3 d -6 Y -1 -3 d -3 Y -1 -2 d -1 -3 d -3 Y -1 -3 d -6 Y -1 -3 d -5 Y -1 -3 d -9 Y -1 -3 d -2 Y -1 -3 d -6 Y -1 -3 d -3 Y -1 -3 d -8 Y -1 -3 d -11
 Y -1 -3 d -15 Y -1 -2 d -12 Y -1 -3 d -11 Y -1 -3 d -26 Y -1 -3 d -22 Y 3 -1 d 6 -2 d 108 X 6 1 d 5 2 d 28 Y 1 3 d 17 Y 1 3 d 11 Y 1 3 d 12 Y 1 3 d 8 Y 1 3 d 11 Y 1 3 d 12 Y 1 2 d 3 Y 1 3 d 3 Y 1 3 d 6 Y 1 3 d 2 Y 1 3 d 6 Y 1 3 d 8 Y 1 2 d 1 Y 1 3 d
 3 Y 1 3 d 3 Y 1 3 d 2 Y 1 3 d 3 Y 1 3 d 6 Y 1 1 d 2 Y 1 2 d 3 Y 1 3 d 1 3 d 3 Y 1 3 d 3 Y 1 2 d 6 Y 1 X 1 3 d 3 Y 1 3 d 1 3 d 2 Y 1 3 d 1 3 d 6 Y 1 X 1 3 d 3 Y 1 2 d 1 3 d 1 3 d 3 Y 1 3 d 3 Y 1 3 d 1 2 d 1 3 d 1 3 d 1 3 d 1 3 d 4 Y 1 2 d 1 2 d 1 3 d
 1 3 d 1 3 d 3 Y 1 3 d 1 Y 1 2 d 1 2 d 1 3 d 1 3 d 1 3 d 1 3 d 3 Y 2 3 d 1 2 d 1 3 d 1 3 d 1 3 d 3 Y 2 3 d 1 3 d 1 2 d 1 3 d 1 3 d 3 Y 2 3 d 1 3 d 1 3 d 1 2 d 1 3 d 2 Y 1 1 d 2 3 d 1 3 d 1 3 d 1 3 d 2 Y 1 X 1 3 d 1 3 d 2 3 d 1 3 d 3 Y 2 3 d 1 2 d 2 3
 d 1 3 d 2 Y 1 1 d 1 3 d 2 3 d 1 3 d 1 2 d 1 Y 1 2 d 2 3 d 1 3 d 1 3 d 1 2 d 1 Y 2 3 d 2 2 d 1 3 d 1 3 d 1 Y 1 2 d 2 3 d 1 3 d 2 3 d 1 Y 1 1 d 2 3 d 1 3 d 1 3 d 1 2 d 1 1 d 2 3 d 1 3 d 1 2 d 1 2 d 1 1 d 2 3 d 1 3 d 1 3 d 1 1 d 1 2 d 2 3 d 1 2 d 2 3 d
 1 Y 1 2 d 2 3 d 2 3 d 1 3 d 2 3 d 2 2 d 1 3 d 1 2 d 1 1 d 2 3 d 1 3 d 2 3 d 2 3 d 2 2 d 1 3 d 1 2 d 1 1 d 2 3 d 2 3 d 1 2 d 1 Y 2 3 d 2 2 d 2 3 d 1 Y 2 2 d 2 3 d 1 3 d 1 1 d 2 2 d 2 3 d 1 2 d 1 2 d 1 1 d 2 3 d 2 3 d 1 1 d 1 2 d 2 3 d 2 3 d 1 1 d 1 1
 d 2 3 d 2 3 d 1 1 d 1 2 d 2 3 d 2 3 d 1 1 d 1 2 d 3 2 d 1 3 d 1 1 d 2 2 d 2 3 d 2 3 d 2 3 d 2 3 d 2 1 d 1 1 d 2 3 d 2 3 d 1 Y 2 2 d 3 3 d 1 3 d 1 X 2 3 d 2 2 d 1 2 d 2 1 d 2 3 d 2 3 d 3 3 d 2 3 d 1 1 d 2 2 d 2 2 d 2 3 d 3 3 d 2 3 d 1 1 d 2 2 d 3 3 d
 1 2 d 1 1 d 3 2 d 2 3 d 1 Y 3 2 d 2 3 d 1 1 d 2 2 d 3 3 d 1 2 d 1 1 d 3 2 d 2 3 d 3 3 d 3 3 d 1 Y 3 2 d 2 3 d 1 1 d 2 2 d 3 2 d 1 2 d 2 1 d 3 3 d 1 2 d 1 1 d 3 3 d 2 2 d 1 1 d 3 3 d 2 2 d 1 X 3 3 d 2 2 d 1 1 d 3 3 d 2 2 d 1 1 d 3 3 d 2 2 d 1 1 d 3 2
 d 2 2 d 1 1 d 4 3 d 1 1 d 2 2 d 3 3 d 1 1 d 2 2 d 3 3 d 1 X 3 2 d 3 3 d 3 3 d 3 2 d 1 1 d 3 3 d 2 1 d 1 2 d 4 3 d 1 X 2 2 d 3 3 d 1 X 3 3 d 3 2 d 1 1 d 3 3 d 2 1 d 2 2 d 3 Y -2 X cl s 0.392157 0.705882 1 c 0.95 0.95 0.95 c 0.392157 0.705882 1 c 0
 900 m 2154 -742 d s 2154 158 m -2154 877 d s 0.95 0.95 0.95 c 0.392157 0.705882 1 c 2268 119 m -114 39 d s 2154 158 m 114 -46 d s 0.666667 0.666667 0.666667 c 0.95 0.95 0.95 c 0.666667 0.666667 0.666667 c 1723 1128 m 431 -970 d s 2154 158 m -364 970
 d s 0.95 0.95 0.95 c 0.666667 0.666667 0.666667 c 2225 0 m -71 158 d s 2154 158 m 60 -158 d s 0.392157 0.705882 1 c 0.95 0.95 0.95 c 0.392157 0.705882 1 c 0 931 m 2154 -773 d s 2154 158 m -2154 842 d s 0.95 0.95 0.95 c 0.392157 0.705882 1 c 2268 117
 m -114 41 d s 2154 158 m 114 -44 d s 1 1 0 c 1037 619 m -2 1 d -6 1 d -6 -1 d -2 -1 d -4 -1 d -3 -1 d -3 -2 d -1 -1 d -4 -3 d -1 -1 d -2 -2 d -3 -3 d -1 -3 d -3 -3 d -1 -2 d -1 -3 d -1 -3 d -1 Y -1 -2 d -1 -3 d -1 -3 d -8 Y 1 -3 d -3 Y 2 -3 d 1 -3 d
 1 -3 d 2 -2 d 2 -3 d 3 -3 d 3 -2 d 2 -1 d 4 -2 d 2 -1 d 4 -1 d 5 -2 d 1 X 6 -2 d 1 -1 d 5 -1 d 4 -1 d 2 -1 d 6 -2 d 6 -2 d 4 -1 d 2 -1 d 6 -1 d 5 -1 d 6 -1 d 6 -1 d 12 X 6 1 d 3 1 d 3 1 d 4 2 d 2 1 d 3 2 d 3 3 d 3 2 d 2 3 d 1 2 d 1 1 d 2 3 d 3 Y 1 3
 d 14 Y -1 3 d -1 3 d -2 2 d 1 Y -1 2 d -2 3 d -3 2 d -1 1 d -4 3 d -1 1 d -5 2 d -1 X -6 3 d -6 2 d -1 1 d -5 2 d -2 X -4 2 d -3 1 d -3 2 d -4 1 d -2 1 d -4 2 d -1 X -6 3 d -1 X -5 2 d -1 1 d -5 2 d -2 1 d -4 1 d -4 1 d f 1 0 0 c 1113 545 m -6 -6 d
 s 1116 558 m -23 -23 d s 1114 566 m -30 -30 d s 1111 572 m -34 -34 d s 1105 576 m -36 -36 d s 1098 579 m -36 -36 d s 1091 581 m -36 -36 d s 1084 584 m -36 -36 d s 1077 587 m -36 -37 d s 1071 589 m -37 -36 d s 1064 592 m -37 -37 d s 1057 595 m -37
 -37 d s 1050 598 m -37 -37 d s 1043 600 m -35 -35 d s 1036 603 m -31 -31 d s 1029 605 m -26 -25 d s 1013 600 m -3 -4 d s 0.392157 0.705882 1 c[ 12 12] 0 sd 0.95 0.95 0.95 c 0.392157 0.705882 1 c 0 900 m 2154 -742 d s 2154 158 m -2154 877 d s 0.95
 0.95 0.95 c 0.392157 0.705882 1 c 2268 119 m -114 39 d s 2154 158 m 114 -46 d s 0.95 0.95 0.95 c 0.392157 0.705882 1 c 0 931 m 2154 -773 d s 2154 158 m -2154 842 d s 0.95 0.95 0.95 c 0.392157 0.705882 1 c 2268 117 m -114 41 d s 2154 158 m 114 -44 d
 s 1 0 0 c[  ] 0 sd 0.95 0.95 0.95 c 1 0 0 c 1037 619 m -2 1 d -6 1 d -6 -1 d -2 -1 d -4 -1 d -3 -1 d -3 -2 d -1 -1 d -4 -3 d -1 -1 d -2 -2 d -3 -3 d -1 -3 d -3 -3 d -1 -2 d -1 -3 d -1 -3 d -1 Y -1 -2 d -1 -3 d -1 -3 d -8 Y 1 -3 d -3 Y 2 -3 d 1 -3 d
 1 -3 d 2 -2 d 2 -3 d 3 -3 d 3 -2 d 2 -1 d 4 -2 d 2 -1 d 4 -1 d 5 -2 d 1 X 6 -2 d 1 -1 d 5 -1 d 4 -1 d 2 -1 d 6 -2 d 6 -2 d 4 -1 d 2 -1 d 6 -1 d 5 -1 d 6 -1 d 6 -1 d 12 X 6 1 d 3 1 d 3 1 d 4 2 d 2 1 d 3 2 d 3 3 d 3 2 d 2 3 d 1 2 d 1 1 d 2 3 d 3 Y 1 3
 d 14 Y -1 3 d -1 3 d -2 2 d 1 Y -1 2 d -2 3 d -3 2 d -1 1 d -4 3 d -1 1 d -5 2 d -1 X -6 3 d -6 2 d -1 1 d -5 2 d -2 X -4 2 d -3 1 d -3 2 d -4 1 d -2 1 d -4 2 d -1 X -6 3 d -1 X -5 2 d -1 1 d -5 2 d -2 1 d -4 1 d -4 1 d cl s black 6 lw 0.95 0.95
 0.95 c black 875 158 m 1279 X -1100 420 d -179 -420 d cl s 3 lw 1 1 1 c black 982 410 m 17 -6 d 17 -4 d 17 -3 d 18 -1 d 17 1 d 18 2 d 17 3 d 17 6 d 16 6 d 16 8 d 14 9 d 14 11 d 13 12 d 11 13 d 10 13 d 9 15 d 7 15 d s 1 1 1 c black 1893 258 m -5 -12
 d -4 -12 d -3 -13 d -3 -12 d -2 -13 d -2 -13 d -1 -12 d -13 Y s 1 1 1 c black 1064 158 m -1 16 d -2 17 d -4 16 d -5 15 d -7 16 d -8 14 d -10 14 d -11 13 d -12 11 d -13 11 d -14 10 d -15 8 d -16 7 d s
 gr 
 black
 gsave  2268 1128 0 0 C 1106.25 887.367 t 0 r /Helvetica findfont 35.4947 sf 0 0 m (d) show NC gr 
 gsave  2268 1128 0 0 C 1064.84 901.171 t 0 r /Helvetica findfont 53.242 sf 0 0 m (m) show NC gr 
 gsave  2268 1128 0 0 C 1031.32 901.171 t 0 r /Symbol findfont 53.242 sf 0 0 m (D) show NC gr 
 gsave  2268 1128 0 0 C 650.736 491.01 t 0 r /Helvetica findfont 35.4947 sf 0 0 m (K) show NC gr 
 gsave  2268 1128 0 0 C 627.073 508.757 t 0 r /Symbol findfont 53.242 sf 0 0 m (e) show NC gr 
 gsave  2268 1128 0 0 C 1705.72 881.452 t 0 r /Helvetica findfont 35.4947 sf 0 0 m (K) show NC gr 
 gsave  2268 1128 0 0 C 1682.05 899.199 t 0 r /Symbol findfont 53.242 sf 0 0 m (e) show NC gr 
 gsave  2268 1128 0 0 C 1407.96 918.918 t 0 r /Helvetica findfont 35.4947 sf 0 0 m (s) show NC gr 
 gsave  2268 1128 0 0 C 1366.55 930.75 t 0 r /Helvetica findfont 53.242 sf 0 0 m (m) show NC gr 
 gsave  2268 1128 0 0 C 1333.02 930.75 t 0 r /Symbol findfont 53.242 sf 0 0 m (D) show NC gr 
 gsave  2268 1128 0 0 C 1269.92 930.75 t 0 r /Helvetica findfont 53.242 sf 0 0 m ( & ) show NC gr 
 gsave  2268 1128 0 0 C 1252.17 914.974 t 0 r /Helvetica findfont 35.4947 sf 0 0 m (d) show NC gr 
 gsave  2268 1128 0 0 C 1210.76 930.75 t 0 r /Helvetica findfont 53.242 sf 0 0 m (m) show NC gr 
 gsave  2268 1128 0 0 C 1177.24 930.75 t 0 r /Symbol findfont 53.242 sf 0 0 m (D) show NC gr 
 gsave  2268 1128 0 0 C 595.522 743.417 t 0 r /Symbol findfont 53.242 sf 0 0 m (b) show NC gr 
 gsave  2268 1128 0 0 C 485.094 743.417 t 0 r /Helvetica findfont 53.242 sf 0 0 m (sin 2) show NC gr 
 gsave  2268 1128 0 0 C 1853.61 686.231 t 0 r /Helvetica findfont 25.6351 sf 0 0 m 
 214 199 184 177 162 155 140 132 119 100 92 85 70 63 56 50 37 23 9
(\(excl. at CL > 0.95\)) K NC gr 
 gsave  2268 1128 0 0 C 2007.42 717.782 t 0 r /Helvetica findfont 25.6351 sf 0 0 m ( < 0) show NC gr 
 gsave  2268 1128 0 0 C 1993.62 717.782 t 0 r /Symbol findfont 25.6351 sf 0 0 m (b) show NC gr 
 gsave  2268 1128 0 0 C 1853.61 717.782 t 0 r /Helvetica findfont 25.6351 sf 0 0 m (sol. w/ cos 2) show NC gr 
 gsave  2268 1128 0 0 C 1090.48 447.628 t 0 r /Symbol findfont 41.4105 sf 0 0 m (a) show NC gr 
 gsave  2268 1128 0 0 C 1808.26 220.856 t 0 r /Symbol findfont 41.4105 sf 0 0 m (b) show NC gr 
 gsave  2268 1128 0 0 C 976.104 212.968 t 0 r /Symbol findfont 41.4105 sf 0 0 m (g) show NC gr [  ] 0 sd 3 lw 1 1 1 c 0 0 m 2268 X 1128 Y -2268 X -1128 Y 363 158 d 857 Y 1791 X -857 Y -1791 X -363 -158 d f black
 gsave  2268 1128 0 0 C 1242.31 29.5789 t 0 r /Symbol findfont 63.1017 sf 0 0 m (r) show NC gr  6 lw 1242 69 m 32 X s 3 lw 363 185 m -27 Y s 427 171 m -13 Y s 491 171 m -13 Y s 555 171 m -13 Y s 619 185 m -27 Y s 683 171 m -13 Y s 747 171 m -13 Y s
 811 171 m -13 Y s 875 185 m -27 Y s 939 171 m -13 Y s 1003 171 m -13 Y s 1067 171 m -13 Y s 1131 185 m -27 Y s 1195 171 m -13 Y s 1259 171 m -13 Y s 1323 171 m -13 Y s 1387 185 m -27 Y s 1451 171 m -13 Y s 1515 171 m -13 Y s 1578 171 m -13 Y s 1642
 185 m -27 Y s 1706 171 m -13 Y s 1770 171 m -13 Y s 1834 171 m -13 Y s 1898 185 m -27 Y s 1962 171 m -13 Y s 2026 171 m -13 Y s 2090 171 m -13 Y s 2154 185 m -27 Y s 363 185 m -27 Y s 2154 185 m -27 Y s
 gsave  2268 1128 0 0 C 329.312 110.428 t 0 r /Helvetica-Bold findfont 37.4666 sf 0 0 m (\2550.4) show NC gr 
 gsave  2268 1128 0 0 C 585.662 110.428 t 0 r /Helvetica-Bold findfont 37.4666 sf 0 0 m (\2550.2) show NC gr 
 gsave  2268 1128 0 0 C 847.929 110.428 t 0 r /Helvetica-Bold findfont 37.4666 sf 0 0 m (0.0) show NC gr 
 gsave  2268 1128 0 0 C 1104.28 110.428 t 0 r /Helvetica-Bold findfont 37.4666 sf 0 0 m (0.2) show NC gr 
 gsave  2268 1128 0 0 C 1360.63 110.428 t 0 r /Helvetica-Bold findfont 37.4666 sf 0 0 m (0.4) show NC gr 
 gsave  2268 1128 0 0 C 1615.01 110.428 t 0 r /Helvetica-Bold findfont 37.4666 sf 0 0 m (0.6) show NC gr 
 gsave  2268 1128 0 0 C 1871.36 110.428 t 0 r /Helvetica-Bold findfont 37.4666 sf 0 0 m (0.8) show NC gr 
 gsave  2268 1128 0 0 C 2127.71 110.428 t 0 r /Helvetica-Bold findfont 37.4666 sf 0 0 m (1.0) show NC gr  363 988 m 27 Y s 427 1002 m 13 Y s 491 1002 m 13 Y s 555 1002 m 13 Y s 619 988 m 27 Y s 683 1002 m 13 Y s 747 1002 m 13 Y s 811 1002 m 13 Y s
 875 988 m 27 Y s 939 1002 m 13 Y s 1003 1002 m 13 Y s 1067 1002 m 13 Y s 1131 988 m 27 Y s 1195 1002 m 13 Y s 1259 1002 m 13 Y s 1323 1002 m 13 Y s 1387 988 m 27 Y s 1451 1002 m 13 Y s 1515 1002 m 13 Y s 1578 1002 m 13 Y s 1642 988 m 27 Y s 1706
 1002 m 13 Y s 1770 1002 m 13 Y s 1834 1002 m 13 Y s 1898 988 m 27 Y s 1962 1002 m 13 Y s 2026 1002 m 13 Y s 2090 1002 m 13 Y s 2154 988 m 27 Y s 363 988 m 27 Y s 2154 988 m 27 Y s
 gsave  2268 1128 0 0 C 230.716 571.859 t 90 r /Symbol findfont 63.1017 sf 0 0 m (h) show NC gr  6 lw 191 572 m 33 Y s 3 lw 415 158 m -52 X s 389 182 m -26 X s 389 207 m -26 X s 389 231 m -26 X s 389 256 m -26 X s 415 280 m -52 X s 389 305 m -26 X s
 389 329 m -26 X s 389 354 m -26 X s 389 378 m -26 X s 415 403 m -52 X s 389 427 m -26 X s 389 452 m -26 X s 389 476 m -26 X s 389 501 m -26 X s 415 525 m -52 X s 389 550 m -26 X s 389 574 m -26 X s 389 599 m -26 X s 389 623 m -26 X s 415 648 m -52 X
 s 389 672 m -26 X s 389 697 m -26 X s 389 721 m -26 X s 389 746 m -26 X s 415 770 m -52 X s 389 795 m -26 X s 389 819 m -26 X s 389 844 m -26 X s 389 868 m -26 X s 415 893 m -52 X s 389 917 m -26 X s 389 942 m -26 X s 389 966 m -26 X s 389 991 m -26
 X s 415 1015 m -52 X s 415 1015 m -52 X s
 gsave  2268 1128 0 0 C 281.986 145.923 t 0 r /Helvetica-Bold findfont 37.4666 sf 0 0 m (0.0) show NC gr 
 gsave  2268 1128 0 0 C 285.929 268.182 t 0 r /Helvetica-Bold findfont 37.4666 sf 0 0 m (0.1) show NC gr 
 gsave  2268 1128 0 0 C 281.986 390.442 t 0 r /Helvetica-Bold findfont 37.4666 sf 0 0 m (0.2) show NC gr 
 gsave  2268 1128 0 0 C 281.986 512.701 t 0 r /Helvetica-Bold findfont 37.4666 sf 0 0 m (0.3) show NC gr 
 gsave  2268 1128 0 0 C 281.986 634.961 t 0 r /Helvetica-Bold findfont 37.4666 sf 0 0 m (0.4) show NC gr 
 gsave  2268 1128 0 0 C 281.986 757.22 t 0 r /Helvetica-Bold findfont 37.4666 sf 0 0 m (0.5) show NC gr 
 gsave  2268 1128 0 0 C 281.986 879.48 t 0 r /Helvetica-Bold findfont 37.4666 sf 0 0 m (0.6) show NC gr 
 gsave  2268 1128 0 0 C 281.986 1001.74 t 0 r /Helvetica-Bold findfont 37.4666 sf 0 0 m (0.7) show NC gr  2103 1015 m 51 X s 2128 991 m 26 X s 2128 966 m 26 X s 2128 942 m 26 X s 2128 917 m 26 X s 2103 893 m 51 X s 2128 868 m 26 X s 2128 844 m 26 X s
 2128 819 m 26 X s 2128 795 m 26 X s 2103 770 m 51 X s 2128 746 m 26 X s 2128 721 m 26 X s 2128 697 m 26 X s 2128 672 m 26 X s 2103 648 m 51 X s 2128 623 m 26 X s 2128 599 m 26 X s 2128 574 m 26 X s 2128 550 m 26 X s 2103 525 m 51 X s 2128 501 m 26 X
 s 2128 476 m 26 X s 2128 452 m 26 X s 2128 427 m 26 X s 2103 403 m 51 X s 2128 378 m 26 X s 2128 354 m 26 X s 2128 329 m 26 X s 2128 305 m 26 X s 2103 280 m 51 X s 2128 256 m 26 X s 2128 231 m 26 X s 2128 207 m 26 X s 2128 182 m 26 X s 2103 158 m 51
 X s 2103 1015 m 51 X s 2103 158 m 51 X s 0.95 0.95 0.95 c black 1791 857 363 158 bl[ 12 12] 0 sd 875 158 m 857 Y s 0.666667 0.666667 0.666667 c[  ] 0 sd 0.95 0.95 0.95 c 37 423 417 566 bf 0.666667 0.666667 0.666667 c 417 566 m 37 X s 454 566 m 423 Y
 s 454 989 m -37 X s 417 989 m -423 Y s black
 gsave  2268 1128 0 0 C 445.656 577.775 t 90 r /Helvetica findfont 31.5508 sf 0 0 m 
 386 368 360 342 333 315 306 290 267 258 243 225 207 199 181 164 153 135 127 109 92 74 57 50 34 18
(excluded area has CL > 0.95) K NC gr  0.784314 0.784314 0.941176 c 190 33 1875 859 bf 1 1 1 c 0 0 1 c black 0 0 1 c
 gsave  2268 1128 0 0 C 1896.99 863.704 t 0 r /Helvetica findfont 27.607 sf 0 0 m (Summer 12) show NC gr  190 77 1875 895 bf 119 43 1900 928 bf 0.999 0.999 0.999 c black 0.999 0.999 0.999 c
 gsave  2268 1128 0 0 C 1896.99 930.75 t 0 r /Helvetica-Oblique findfont 53.242 sf 0 0 m (CKM) show NC gr  1 1 1 c 186 26 1879 900 bf 122 21 1933 902 bf 0 0 1 c black 0 0 1 c
 gsave  2268 1128 0 0 C 1934.46 901.171 t 0 r /Helvetica-Bold findfont 31.5508 sf 0 0 m (f i t t e r) show NC gr 
 gr  gr showpage
end
%%EOF
