%!PS-Adobe-3.0 EPSF-3.0 
%%BoundingBox: 0 0 567 213
%%Pages: 0
%%Creator: Sun Microsystems, Inc.
%%Title: none
%%CreationDate: none
%%LanguageLevel: 2
%%EndComments
%%BeginProlog
%%BeginResource: procset SDRes-Prolog 1.0 0
/b4_inc_state save def
/dict_count countdictstack def
/op_count count 1 sub def
userdict begin
0 setgray 0 setlinecap 1 setlinewidth 0 setlinejoin 10 setmiterlimit[] 0 setdash newpath
/languagelevel where {pop languagelevel 1 ne {false setstrokeadjust false setoverprint} if} if
/bdef {bind def} bind def
/c {setrgbcolor} bdef
/l {neg lineto} bdef
/rl {neg rlineto} bdef
/lc {setlinecap} bdef
/lj {setlinejoin} bdef
/lw {setlinewidth} bdef
/ml {setmiterlimit} bdef
/ld {setdash} bdef
/m {neg moveto} bdef
/ct {6 2 roll neg 6 2 roll neg 6 2 roll neg curveto} bdef
/r {rotate} bdef
/t {neg translate} bdef
/s {scale} bdef
/sw {show} bdef
/gs {gsave} bdef
/gr {grestore} bdef
/f {findfont dup length dict begin
{1 index /FID ne {def} {pop pop} ifelse} forall /Encoding ISOLatin1Encoding def
currentdict end /NFont exch definefont pop /NFont findfont} bdef
/p {closepath} bdef
/sf {scalefont setfont} bdef
/ef {eofill}bdef
/pc {closepath stroke}bdef
/ps {stroke}bdef
/pum {matrix currentmatrix}bdef
/pom {setmatrix}bdef
/bs {/aString exch def /nXOfs exch def /nWidth exch def currentpoint nXOfs 0 rmoveto pum nWidth aString stringwidth pop div 1 scale aString show pom moveto} bdef
%%EndResource
%%EndProlog
%%BeginSetup
%%EndSetup
%%Page: 1 1
%%BeginPageSetup
%%EndPageSetup
pum
0.02835 0.0284 s 
0 -7500 t
/tm matrix currentmatrix def
gs
0 0 m 19999 0 l 19999 7499 l 0 7499 l 0 0 l eoclip newpath
gs
0 0 m 19999 0 l 19999 7499 l 0 7499 l 0 0 l eoclip newpath
0 0 m 20000 0 l 20000 7500 l 0 7500 l 0 0 l eoclip newpath
0.003 0.003 0.003 c 18243 1045 m  18473 1045 l  18358 1390 l  18243 1045 l 
p ef
18473 3915 m  18243 3915 l  18358 3570 l  18473 3915 l  p ef
18358 1114 m  18358 805 l  18358 805 l  ps
18358 4155 m  18358 3846 l  ps
18358 1390 m  18358 3570 l  ps
16958 1390 m  18558 1390 l  ps
16958 3570 m  18558 3570 l  ps
gs
gs
pum
18229 3482 t
90.0 r 284 -48 m  284 -48 284 -48 284 0 ct 284 0 284 0 17 0 ct 17 -12 19 -23 23 -35 ct 
30 -53 40 -71 55 -88 ct 70 -106 92 -126 120 -149 ct 164 -186 193 -215 209 -236 ct 
224 -257 232 -276 232 -295 ct 232 -315 225 -331 211 -345 ct 197 -358 179 -365 156 -365 ct 
132 -365 113 -358 99 -344 ct 84 -329 77 -309 77 -284 ct 77 -284 77 -284 26 -289 ct 
29 -327 43 -356 65 -376 ct 88 -396 119 -406 157 -406 ct 196 -406 227 -395 249 -374 ct 
272 -352 283 -326 283 -294 ct 283 -278 280 -262 273 -246 ct 267 -231 256 -214 240 -197 ct 
225 -180 200 -156 164 -126 ct 135 -101 115 -84 107 -75 ct 98 -66 91 -57 86 -48 ct 
86 -48 86 -48 284 -48 ct p ef
523 0 m  523 0 523 0 473 0 ct 473 0 473 0 473 -316 ct 461 -305 445 -294 426 -282 ct 
407 -271 389 -262 374 -257 ct 374 -257 374 -257 374 -305 ct 402 -318 426 -333 447 -352 ct 
467 -371 482 -389 491 -406 ct 491 -406 491 -406 523 -406 ct 523 -406 523 -406 523 0 ct 
p ef
677 0 m  677 -56 l  733 -56 l  733 0 l  677 0 l  p ef
883 -219 m  862 -227 847 -238 837 -252 ct 827 -266 822 -282 822 -302 ct 822 -331 833 -356 854 -376 ct 
875 -396 903 -406 938 -406 ct 973 -406 1001 -396 1023 -375 ct 1044 -355 1055 -330 1055 -300 ct 
1055 -282 1050 -265 1040 -251 ct 1030 -237 1016 -227 996 -219 ct 1020 -211 1039 -198 1052 -180 ct 
1065 -162 1072 -141 1072 -116 ct 1072 -81 1060 -52 1035 -28 ct 1011 -5 979 7 939 7 ct 
899 7 867 -5 843 -28 ct 818 -52 806 -82 806 -117 ct 806 -143 813 -165 826 -183 ct 
839 -201 858 -213 883 -219 ct p
873 -303 m  873 -284 879 -268 891 -256 ct 903 -244 919 -238 939 -238 ct 958 -238 974 -244 986 -256 ct 
998 -268 1004 -283 1004 -300 ct 1004 -319 998 -334 985 -346 ct 973 -359 957 -365 939 -365 ct 
919 -365 904 -359 891 -347 ct 879 -335 873 -320 873 -303 ct p
857 -117 m  857 -103 860 -89 867 -76 ct 873 -62 883 -52 897 -45 ct 910 -38 924 -34 939 -34 ct 
963 -34 983 -42 998 -57 ct 1013 -72 1021 -92 1021 -115 ct 1021 -139 1013 -159 997 -175 ct 
982 -190 962 -198 938 -198 ct 914 -198 895 -190 880 -175 ct 865 -159 857 -140 857 -117 ct 
p ef
pom
gr
gs
pum
18229 2387 t
90.0 r 385 -107 m  385 -107 385 -107 434 -100 ct 429 -67 415 -41 393 -22 ct 371 -3 344 6 313 6 ct 
273 6 241 -7 216 -33 ct 192 -59 180 -97 180 -145 ct 180 -177 185 -204 196 -228 ct 
206 -252 222 -269 243 -281 ct 265 -293 288 -299 313 -299 ct 344 -299 370 -291 390 -275 ct 
410 -259 423 -236 429 -206 ct 429 -206 429 -206 381 -199 ct 376 -219 368 -233 357 -243 ct 
345 -253 331 -258 315 -258 ct 290 -258 270 -249 254 -231 ct 239 -213 231 -185 231 -147 ct 
231 -108 238 -79 253 -62 ct 268 -44 288 -35 312 -35 ct 331 -35 347 -41 360 -53 ct 
373 -64 382 -83 385 -107 ct p ef
475 0 m  475 0 475 0 475 -293 ct 475 -293 475 -293 520 -293 ct 520 -293 520 -293 520 -251 ct 
529 -266 542 -277 557 -286 ct 572 -295 589 -299 609 -299 ct 630 -299 648 -295 662 -286 ct 
676 -277 686 -264 691 -248 ct 715 -282 745 -299 782 -299 ct 811 -299 834 -291 850 -275 ct 
865 -259 873 -234 873 -201 ct 873 -201 873 -201 873 0 ct 873 0 873 0 823 0 ct 823 0 823 0 823 -184 ct 
823 -204 822 -218 818 -227 ct 815 -236 809 -243 801 -248 ct 792 -253 782 -256 771 -256 ct 
750 -256 733 -249 720 -235 ct 706 -222 699 -200 699 -170 ct 699 -170 699 -170 699 0 ct 
699 0 699 0 649 0 ct 649 0 649 0 649 -190 ct 649 -212 645 -228 637 -239 ct 629 -251 616 -256 597 -256 ct 
584 -256 571 -252 559 -245 ct 547 -238 538 -227 533 -213 ct 528 -199 525 -178 525 -152 ct 
525 -152 525 -152 525 0 ct 525 0 525 0 475 0 ct p ef
pom
gr
gr
19800 410 m  19915 870 l  19685 870 l  19800 410 l  p ef
19800 4550 m  19685 4090 l  19915 4090 l  19800 4550 l  p ef
19800 778 m  19800 4182 l  ps
13400 410 m  20000 410 l  ps
13400 4550 m  20000 4550 l  ps
gs
gs
pum
19671 3482 t
90.0 r 182 0 m  182 -97 l  7 -97 l  7 -142 l  192 -404 l  232 -404 l  232 -142 l 
287 -142 l  287 -97 l  232 -97 l  232 0 l  182 0 l  p
182 -142 m  182 -322 l  56 -142 l  182 -142 l  p ef
523 0 m  523 0 523 0 473 0 ct 473 0 473 0 473 -316 ct 461 -305 445 -294 426 -282 ct 
407 -271 389 -262 374 -257 ct 374 -257 374 -257 374 -305 ct 402 -318 426 -333 447 -352 ct 
467 -371 482 -389 491 -406 ct 491 -406 491 -406 523 -406 ct 523 -406 523 -406 523 0 ct 
p ef
677 0 m  677 -56 l  733 -56 l  733 0 l  677 0 l  p ef
965 0 m  965 -97 l  790 -97 l  790 -142 l  975 -404 l  1015 -404 l  1015 -142 l 
1070 -142 l  1070 -97 l  1015 -97 l  1015 0 l  965 0 l  p
965 -142 m  965 -322 l  839 -142 l  965 -142 l  p ef
pom
gr
gs
pum
19671 2387 t
90.0 r 385 -107 m  385 -107 385 -107 434 -100 ct 429 -67 415 -41 393 -22 ct 371 -3 344 6 313 6 ct 
273 6 241 -7 216 -33 ct 192 -59 180 -97 180 -145 ct 180 -177 185 -204 196 -228 ct 
206 -252 222 -269 243 -281 ct 265 -293 288 -299 313 -299 ct 344 -299 370 -291 390 -275 ct 
410 -259 423 -236 429 -206 ct 429 -206 429 -206 381 -199 ct 376 -219 368 -233 357 -243 ct 
345 -253 331 -258 315 -258 ct 290 -258 270 -249 254 -231 ct 239 -213 231 -185 231 -147 ct 
231 -108 238 -79 253 -62 ct 268 -44 288 -35 312 -35 ct 331 -35 347 -41 360 -53 ct 
373 -64 382 -83 385 -107 ct p ef
475 0 m  475 0 475 0 475 -293 ct 475 -293 475 -293 520 -293 ct 520 -293 520 -293 520 -251 ct 
529 -266 542 -277 557 -286 ct 572 -295 589 -299 609 -299 ct 630 -299 648 -295 662 -286 ct 
676 -277 686 -264 691 -248 ct 715 -282 745 -299 782 -299 ct 811 -299 834 -291 850 -275 ct 
865 -259 873 -234 873 -201 ct 873 -201 873 -201 873 0 ct 873 0 873 0 823 0 ct 823 0 823 0 823 -184 ct 
823 -204 822 -218 818 -227 ct 815 -236 809 -243 801 -248 ct 792 -253 782 -256 771 -256 ct 
750 -256 733 -249 720 -235 ct 706 -222 699 -200 699 -170 ct 699 -170 699 -170 699 0 ct 
699 0 699 0 649 0 ct 649 0 649 0 649 -190 ct 649 -212 645 -228 637 -239 ct 629 -251 616 -256 597 -256 ct 
584 -256 571 -252 559 -245 ct 547 -238 538 -227 533 -213 ct 528 -199 525 -178 525 -152 ct 
525 -152 525 -152 525 0 ct 525 0 525 0 475 0 ct p ef
pom
gr
gr
16935 7281 m  16475 7396 l  16475 7166 l  16935 7281 l  p ef
4375 7281 m  4835 7166 l  4835 7396 l  4375 7281 l  p ef
16567 7281 m  4743 7281 l  ps
16935 3670 m  16935 7481 l  ps
4375 3670 m  4375 7481 l  ps
gs
gs
pum
9505 7158 t
210 0 m  210 0 210 0 160 0 ct 160 0 160 0 160 -316 ct 148 -305 132 -294 113 -282 ct 
94 -271 76 -262 61 -257 ct 61 -257 61 -257 61 -305 ct 89 -318 113 -333 134 -352 ct 
154 -371 169 -389 178 -406 ct 178 -406 178 -406 210 -406 ct 210 -406 210 -406 210 0 ct 
p ef
597 -48 m  597 -48 597 -48 597 0 ct 597 0 597 0 330 0 ct 330 -12 332 -23 336 -35 ct 
343 -53 353 -71 368 -88 ct 383 -106 405 -126 433 -149 ct 477 -186 506 -215 522 -236 ct 
537 -257 545 -276 545 -295 ct 545 -315 538 -331 524 -345 ct 510 -358 492 -365 469 -365 ct 
445 -365 426 -358 412 -344 ct 397 -329 390 -309 390 -284 ct 390 -284 390 -284 339 -289 ct 
342 -327 356 -356 378 -376 ct 401 -396 432 -406 470 -406 ct 509 -406 540 -395 562 -374 ct 
585 -352 596 -326 596 -294 ct 596 -278 593 -262 586 -246 ct 580 -231 569 -214 553 -197 ct 
538 -180 513 -156 477 -126 ct 448 -101 428 -84 420 -75 ct 411 -66 404 -57 399 -48 ct 
399 -48 399 -48 597 -48 ct p ef
650 -106 m  650 -106 650 -106 701 -110 ct 705 -85 714 -66 728 -53 ct 742 -40 759 -34 779 -34 ct 
804 -34 824 -43 840 -61 ct 857 -79 865 -103 865 -133 ct 865 -161 857 -183 842 -199 ct 
826 -216 805 -224 779 -224 ct 763 -224 749 -220 736 -213 ct 723 -205 713 -196 706 -184 ct 
706 -184 706 -184 659 -191 ct 659 -191 659 -191 698 -399 ct 698 -399 698 -399 899 -399 ct 
899 -399 899 -399 899 -352 ct 899 -352 899 -352 737 -352 ct 737 -352 737 -352 716 -243 ct 
740 -260 766 -268 792 -268 ct 828 -268 857 -256 882 -231 ct 906 -207 918 -175 918 -137 ct 
918 -100 907 -69 886 -42 ct 860 -9 825 7 780 7 ct 743 7 713 -3 690 -24 ct 667 -45 653 -72 650 -106 ct 
p ef
990 0 m  990 -56 l  1046 -56 l  1046 0 l  990 0 l  p ef
1377 -305 m  1377 -305 1377 -305 1328 -301 ct 1324 -321 1317 -335 1309 -344 ct 
1296 -358 1279 -365 1259 -365 ct 1243 -365 1229 -361 1217 -352 ct 1201 -340 1189 -324 1180 -302 ct 
1171 -280 1166 -249 1166 -208 ct 1178 -226 1193 -240 1210 -249 ct 1227 -258 1245 -262 1264 -262 ct 
1298 -262 1326 -250 1349 -225 ct 1372 -201 1384 -170 1384 -131 ct 1384 -106 1379 -82 1368 -60 ct 
1357 -39 1342 -22 1323 -10 ct 1303 1 1282 7 1257 7 ct 1216 7 1182 -8 1156 -39 ct 
1130 -69 1117 -119 1117 -189 ct 1117 -267 1131 -324 1160 -360 ct 1186 -391 1220 -406 1262 -406 ct 
1294 -406 1320 -397 1340 -379 ct 1361 -361 1373 -337 1377 -305 ct p
1174 -131 m  1174 -114 1178 -97 1185 -82 ct 1192 -66 1202 -54 1215 -46 ct 1228 -38 1242 -34 1256 -34 ct 
1278 -34 1296 -42 1311 -59 ct 1326 -76 1333 -99 1333 -128 ct 1333 -156 1326 -178 1311 -194 ct 
1296 -210 1277 -218 1254 -218 ct 1232 -218 1213 -210 1197 -194 ct 1182 -178 1174 -157 1174 -131 ct 
p ef
pom
gr
gs
pum
10915 7158 t
385 -107 m  385 -107 385 -107 434 -100 ct 429 -67 415 -41 393 -22 ct 371 -3 344 6 313 6 ct 
273 6 241 -7 216 -33 ct 192 -59 180 -97 180 -145 ct 180 -177 185 -204 196 -228 ct 
206 -252 222 -269 243 -281 ct 265 -293 288 -299 313 -299 ct 344 -299 370 -291 390 -275 ct 
410 -259 423 -236 429 -206 ct 429 -206 429 -206 381 -199 ct 376 -219 368 -233 357 -243 ct 
345 -253 331 -258 315 -258 ct 290 -258 270 -249 254 -231 ct 239 -213 231 -185 231 -147 ct 
231 -108 238 -79 253 -62 ct 268 -44 288 -35 312 -35 ct 331 -35 347 -41 360 -53 ct 
373 -64 382 -83 385 -107 ct p ef
475 0 m  475 0 475 0 475 -293 ct 475 -293 475 -293 520 -293 ct 520 -293 520 -293 520 -251 ct 
529 -266 542 -277 557 -286 ct 572 -295 589 -299 609 -299 ct 630 -299 648 -295 662 -286 ct 
676 -277 686 -264 691 -248 ct 715 -282 745 -299 782 -299 ct 811 -299 834 -291 850 -275 ct 
865 -259 873 -234 873 -201 ct 873 -201 873 -201 873 0 ct 873 0 873 0 823 0 ct 823 0 823 0 823 -184 ct 
823 -204 822 -218 818 -227 ct 815 -236 809 -243 801 -248 ct 792 -253 782 -256 771 -256 ct 
750 -256 733 -249 720 -235 ct 706 -222 699 -200 699 -170 ct 699 -170 699 -170 699 0 ct 
699 0 699 0 649 0 ct 649 0 649 0 649 -190 ct 649 -212 645 -228 637 -239 ct 629 -251 616 -256 597 -256 ct 
584 -256 571 -252 559 -245 ct 547 -238 538 -227 533 -213 ct 528 -199 525 -178 525 -152 ct 
525 -152 525 -152 525 0 ct 525 0 525 0 475 0 ct p ef
pom
gr
gr
0.503 0.503 0.503 c 10660 3356 m  10179 3356 9789 2966 9789 2485 ct 9789 2004 10179 1614 10660 1614 ct 
11141 1614 11531 2004 11531 2485 ct 11531 2966 11141 3356 10660 3356 ct p ef
0 lw 1 lj 0.003 0.003 0.003 c 10660 3356 m  10179 3356 9789 2966 9789 2485 ct 
9789 2004 10179 1614 10660 1614 ct 11141 1614 11531 2004 11531 2485 ct 11531 2966 11141 3356 10660 3356 ct 
pc
1.000 1.000 1.000 c 10660 3337 m  10190 3337 9808 2955 9808 2485 ct 9808 2015 10190 1633 10660 1633 ct 
11130 1633 11512 2015 11512 2485 ct 11512 2955 11130 3337 10660 3337 ct p ef
0.003 0.003 0.003 c 10660 3337 m  10190 3337 9808 2955 9808 2485 ct 9808 2015 10190 1633 10660 1633 ct 
11130 1633 11512 2015 11512 2485 ct 11512 2955 11130 3337 10660 3337 ct pc
[ 51 51 51 51 ] 0 ld
10655 3460 m  10114 3460 9675 3021 9675 2480 ct 9675 1939 10114 1500 10655 1500 ct 
11196 1500 11635 1939 11635 2480 ct 11635 3021 11196 3460 10655 3460 ct pc
9665 6065 m  9205 6180 l  9205 5950 l  9665 6065 l  p ef
11645 6065 m  12105 5950 l  12105 6180 l  11645 6065 l  p ef
1 lw 0 lj [ ] 0 ld
9297 6065 m  7200 6065 l  7200 6065 l  ps
12335 6065 m  12013 6065 l  ps
9665 6065 m  11645 6065 l  ps
9665 1590 m  9665 6265 l  ps
11645 1590 m  11645 6265 l  ps
gs
gs
pum
7183 5927 t
210 0 m  210 0 210 0 160 0 ct 160 0 160 0 160 -316 ct 148 -305 132 -294 113 -282 ct 
94 -271 76 -262 61 -257 ct 61 -257 61 -257 61 -305 ct 89 -318 113 -333 134 -352 ct 
154 -371 169 -389 178 -406 ct 178 -406 178 -406 210 -406 ct 210 -406 210 -406 210 0 ct 
p ef
343 -93 m  343 -93 343 -93 391 -97 ct 395 -75 403 -59 414 -49 ct 425 -39 440 -34 458 -34 ct 
473 -34 486 -37 498 -44 ct 509 -51 519 -61 526 -72 ct 533 -84 539 -100 544 -120 ct 
549 -139 551 -160 551 -180 ct 551 -182 551 -186 551 -190 ct 541 -174 528 -162 511 -152 ct 
493 -142 475 -137 455 -137 ct 422 -137 394 -149 371 -173 ct 348 -198 336 -230 336 -269 ct 
336 -310 348 -343 372 -368 ct 396 -393 426 -406 463 -406 ct 489 -406 513 -399 535 -385 ct 
556 -371 573 -350 584 -324 ct 595 -298 601 -260 601 -210 ct 601 -159 595 -118 584 -87 ct 
573 -56 556 -33 534 -17 ct 512 -1 486 7 456 7 ct 425 7 399 -2 379 -19 ct 359 -37 347 -61 343 -93 ct 
p
546 -272 m  546 -301 539 -323 524 -340 ct 509 -357 490 -365 469 -365 ct 447 -365 427 -356 411 -338 ct 
395 -320 387 -297 387 -268 ct 387 -242 395 -221 410 -205 ct 425 -189 444 -181 467 -181 ct 
490 -181 509 -189 524 -205 ct 539 -221 546 -244 546 -272 ct p ef
677 0 m  677 -56 l  733 -56 l  733 0 l  677 0 l  p ef
883 -219 m  862 -227 847 -238 837 -252 ct 827 -266 822 -282 822 -302 ct 822 -331 833 -356 854 -376 ct 
875 -396 903 -406 938 -406 ct 973 -406 1001 -396 1023 -375 ct 1044 -355 1055 -330 1055 -300 ct 
1055 -282 1050 -265 1040 -251 ct 1030 -237 1016 -227 996 -219 ct 1020 -211 1039 -198 1052 -180 ct 
1065 -162 1072 -141 1072 -116 ct 1072 -81 1060 -52 1035 -28 ct 1011 -5 979 7 939 7 ct 
899 7 867 -5 843 -28 ct 818 -52 806 -82 806 -117 ct 806 -143 813 -165 826 -183 ct 
839 -201 858 -213 883 -219 ct p
873 -303 m  873 -284 879 -268 891 -256 ct 903 -244 919 -238 939 -238 ct 958 -238 974 -244 986 -256 ct 
998 -268 1004 -283 1004 -300 ct 1004 -319 998 -334 985 -346 ct 973 -359 957 -365 939 -365 ct 
919 -365 904 -359 891 -347 ct 879 -335 873 -320 873 -303 ct p
857 -117 m  857 -103 860 -89 867 -76 ct 873 -62 883 -52 897 -45 ct 910 -38 924 -34 939 -34 ct 
963 -34 983 -42 998 -57 ct 1013 -72 1021 -92 1021 -115 ct 1021 -139 1013 -159 997 -175 ct 
982 -190 962 -198 938 -198 ct 914 -198 895 -190 880 -175 ct 865 -159 857 -140 857 -117 ct 
p ef
pom
gr
gs
pum
8279 5927 t
385 -107 m  385 -107 385 -107 434 -100 ct 429 -67 415 -41 393 -22 ct 371 -3 344 6 313 6 ct 
273 6 241 -7 216 -33 ct 192 -59 180 -97 180 -145 ct 180 -177 185 -204 196 -228 ct 
206 -252 222 -269 243 -281 ct 265 -293 288 -299 313 -299 ct 344 -299 370 -291 390 -275 ct 
410 -259 423 -236 429 -206 ct 429 -206 429 -206 381 -199 ct 376 -219 368 -233 357 -243 ct 
345 -253 331 -258 315 -258 ct 290 -258 270 -249 254 -231 ct 239 -213 231 -185 231 -147 ct 
231 -108 238 -79 253 -62 ct 268 -44 288 -35 312 -35 ct 331 -35 347 -41 360 -53 ct 
373 -64 382 -83 385 -107 ct p ef
475 0 m  475 0 475 0 475 -293 ct 475 -293 475 -293 520 -293 ct 520 -293 520 -293 520 -251 ct 
529 -266 542 -277 557 -286 ct 572 -295 589 -299 609 -299 ct 630 -299 648 -295 662 -286 ct 
676 -277 686 -264 691 -248 ct 715 -282 745 -299 782 -299 ct 811 -299 834 -291 850 -275 ct 
865 -259 873 -234 873 -201 ct 873 -201 873 -201 873 0 ct 873 0 873 0 823 0 ct 823 0 823 0 823 -184 ct 
823 -204 822 -218 818 -227 ct 815 -236 809 -243 801 -248 ct 792 -253 782 -256 771 -256 ct 
750 -256 733 -249 720 -235 ct 706 -222 699 -200 699 -170 ct 699 -170 699 -170 699 0 ct 
699 0 699 0 649 0 ct 649 0 649 0 649 -190 ct 649 -212 645 -228 637 -239 ct 629 -251 616 -256 597 -256 ct 
584 -256 571 -252 559 -245 ct 547 -238 538 -227 533 -213 ct 528 -199 525 -178 525 -152 ct 
525 -152 525 -152 525 0 ct 525 0 525 0 475 0 ct p ef
pom
gr
gr
0 lw 1 lj 8389 1500 m  7999 1500 l  7999 400 l  8779 400 l  8779 1500 l 
8389 1500 l  pc
0.601 0.800 1.000 c 8389 1490 m  8009 1490 l  8009 410 l  8769 410 l  8769 1490 l 
8389 1490 l  p ef
0.003 0.003 0.003 c 8389 1490 m  8009 1490 l  8009 410 l  8769 410 l  8769 1490 l 
8389 1490 l  pc
9144 1500 m  8754 1500 l  8754 400 l  9534 400 l  9534 1500 l  9144 1500 l 
pc
0.601 0.800 1.000 c 9144 1490 m  8764 1490 l  8764 410 l  9524 410 l  9524 1490 l 
9144 1490 l  p ef
0.003 0.003 0.003 c 9144 1490 m  8764 1490 l  8764 410 l  9524 410 l  9524 1490 l 
9144 1490 l  pc
9899 1500 m  9509 1500 l  9509 400 l  10289 400 l  10289 1500 l  9899 1500 l 
pc
0.601 0.800 1.000 c 9899 1490 m  9519 1490 l  9519 410 l  10279 410 l  10279 1490 l 
9899 1490 l  p ef
0.003 0.003 0.003 c 9899 1490 m  9519 1490 l  9519 410 l  10279 410 l  10279 1490 l 
9899 1490 l  pc
10654 1500 m  10264 1500 l  10264 400 l  11044 400 l  11044 1500 l  10654 1500 l 
pc
0.601 0.800 1.000 c 10654 1490 m  10274 1490 l  10274 410 l  11034 410 l 
11034 1490 l  10654 1490 l  p ef
0.003 0.003 0.003 c 10654 1490 m  10274 1490 l  10274 410 l  11034 410 l  11034 1490 l 
10654 1490 l  pc
11409 1500 m  11019 1500 l  11019 400 l  11799 400 l  11799 1500 l  11409 1500 l 
pc
0.601 0.800 1.000 c 11409 1490 m  11029 1490 l  11029 410 l  11789 410 l 
11789 1490 l  11409 1490 l  p ef
0.003 0.003 0.003 c 11409 1490 m  11029 1490 l  11029 410 l  11789 410 l  11789 1490 l 
11409 1490 l  pc
12164 1500 m  11774 1500 l  11774 400 l  12554 400 l  12554 1500 l  12164 1500 l 
pc
0.601 0.800 1.000 c 12164 1490 m  11784 1490 l  11784 410 l  12544 410 l 
12544 1490 l  12164 1490 l  p ef
0.003 0.003 0.003 c 12164 1490 m  11784 1490 l  11784 410 l  12544 410 l  12544 1490 l 
12164 1490 l  pc
12919 1500 m  12529 1500 l  12529 400 l  13309 400 l  13309 1500 l  12919 1500 l 
pc
0.601 0.800 1.000 c 12919 1490 m  12539 1490 l  12539 410 l  13299 410 l 
13299 1490 l  12919 1490 l  p ef
0.003 0.003 0.003 c 12919 1490 m  12539 1490 l  12539 410 l  13299 410 l  13299 1490 l 
12919 1490 l  pc
0.003 0.722 1.000 c 8389 0 m  8779 0 l  8779 400 l  7999 400 l  7999 0 l 
8389 0 l  p ef
gs
1 lw 0 lj 0.003 0.003 0.503 c 7999 72 m  8071 0 l  ps
7999 184 m  8183 0 l  ps
7999 296 m  8295 0 l  ps
8007 400 m  8407 0 l  ps
8119 400 m  8519 0 l  ps
8231 400 m  8631 0 l  ps
8343 400 m  8743 0 l  ps
8455 400 m  8779 76 l  ps
8567 400 m  8779 188 l  ps
8679 400 m  8779 300 l  ps
8671 0 m  8779 108 l  ps
8559 0 m  8779 220 l  ps
8447 0 m  8779 332 l  ps
8335 0 m  8735 400 l  ps
8223 0 m  8623 400 l  ps
8111 0 m  8511 400 l  ps
7999 0 m  8399 400 l  ps
7999 112 m  8287 400 l  ps
7999 224 m  8175 400 l  ps
7999 336 m  8063 400 l  ps
gr
0.003 0.003 0.003 c 8389 0 m  8779 0 l  8779 400 l  7999 400 l  7999 0 l  8389 0 l 
pc
0.003 0.722 1.000 c 9144 0 m  9534 0 l  9534 400 l  8754 400 l  8754 0 l 
9144 0 l  p ef
gs
1 lw 0 lj 0.003 0.003 0.503 c 8754 72 m  8826 0 l  ps
8754 184 m  8938 0 l  ps
8754 296 m  9050 0 l  ps
8762 400 m  9162 0 l  ps
8874 400 m  9274 0 l  ps
8986 400 m  9386 0 l  ps
9098 400 m  9498 0 l  ps
9210 400 m  9534 76 l  ps
9322 400 m  9534 188 l  ps
9434 400 m  9534 300 l  ps
9426 0 m  9534 108 l  ps
9314 0 m  9534 220 l  ps
9202 0 m  9534 332 l  ps
9090 0 m  9490 400 l  ps
8978 0 m  9378 400 l  ps
8866 0 m  9266 400 l  ps
8754 0 m  9154 400 l  ps
8754 112 m  9042 400 l  ps
8754 224 m  8930 400 l  ps
8754 336 m  8818 400 l  ps
gr
0.003 0.003 0.003 c 9144 0 m  9534 0 l  9534 400 l  8754 400 l  8754 0 l  9144 0 l 
pc
0.003 0.722 1.000 c 9899 0 m  10289 0 l  10289 400 l  9509 400 l  9509 0 l 
9899 0 l  p ef
gs
1 lw 0 lj 0.003 0.003 0.503 c 9509 72 m  9581 0 l  ps
9509 184 m  9693 0 l  ps
9509 296 m  9805 0 l  ps
9517 400 m  9917 0 l  ps
9629 400 m  10029 0 l  ps
9741 400 m  10141 0 l  ps
9853 400 m  10253 0 l  ps
9965 400 m  10289 76 l  ps
10077 400 m  10289 188 l  ps
10189 400 m  10289 300 l  ps
10181 0 m  10289 108 l  ps
10069 0 m  10289 220 l  ps
9957 0 m  10289 332 l  ps
9845 0 m  10245 400 l  ps
9733 0 m  10133 400 l  ps
9621 0 m  10021 400 l  ps
9509 0 m  9909 400 l  ps
9509 112 m  9797 400 l  ps
9509 224 m  9685 400 l  ps
9509 336 m  9573 400 l  ps
gr
0.003 0.003 0.003 c 9899 0 m  10289 0 l  10289 400 l  9509 400 l  9509 0 l 
9899 0 l  pc
0.003 0.722 1.000 c 10654 0 m  11044 0 l  11044 400 l  10264 400 l  10264 0 l 
10654 0 l  p ef
gs
1 lw 0 lj 0.003 0.003 0.503 c 10264 72 m  10336 0 l  ps
10264 184 m  10448 0 l  ps
10264 296 m  10560 0 l  ps
10272 400 m  10672 0 l  ps
10384 400 m  10784 0 l  ps
10496 400 m  10896 0 l  ps
10608 400 m  11008 0 l  ps
10720 400 m  11044 76 l  ps
10832 400 m  11044 188 l  ps
10944 400 m  11044 300 l  ps
10936 0 m  11044 108 l  ps
10824 0 m  11044 220 l  ps
10712 0 m  11044 332 l  ps
10600 0 m  11000 400 l  ps
10488 0 m  10888 400 l  ps
10376 0 m  10776 400 l  ps
10264 0 m  10664 400 l  ps
10264 112 m  10552 400 l  ps
10264 224 m  10440 400 l  ps
10264 336 m  10328 400 l  ps
gr
0.003 0.003 0.003 c 10654 0 m  11044 0 l  11044 400 l  10264 400 l  10264 0 l 
10654 0 l  pc
0.003 0.722 1.000 c 11409 0 m  11799 0 l  11799 400 l  11019 400 l  11019 0 l 
11409 0 l  p ef
gs
1 lw 0 lj 0.003 0.003 0.503 c 11019 72 m  11091 0 l  ps
11019 184 m  11203 0 l  ps
11019 296 m  11315 0 l  ps
11027 400 m  11427 0 l  ps
11139 400 m  11539 0 l  ps
11251 400 m  11651 0 l  ps
11363 400 m  11763 0 l  ps
11475 400 m  11799 76 l  ps
11587 400 m  11799 188 l  ps
11699 400 m  11799 300 l  ps
11691 0 m  11799 108 l  ps
11579 0 m  11799 220 l  ps
11467 0 m  11799 332 l  ps
11355 0 m  11755 400 l  ps
11243 0 m  11643 400 l  ps
11131 0 m  11531 400 l  ps
11019 0 m  11419 400 l  ps
11019 112 m  11307 400 l  ps
11019 224 m  11195 400 l  ps
11019 336 m  11083 400 l  ps
gr
0.003 0.003 0.003 c 11409 0 m  11799 0 l  11799 400 l  11019 400 l  11019 0 l 
11409 0 l  pc
0.003 0.722 1.000 c 12164 0 m  12554 0 l  12554 400 l  11774 400 l  11774 0 l 
12164 0 l  p ef
gs
1 lw 0 lj 0.003 0.003 0.503 c 11774 72 m  11846 0 l  ps
11774 184 m  11958 0 l  ps
11774 296 m  12070 0 l  ps
11782 400 m  12182 0 l  ps
11894 400 m  12294 0 l  ps
12006 400 m  12406 0 l  ps
12118 400 m  12518 0 l  ps
12230 400 m  12554 76 l  ps
12342 400 m  12554 188 l  ps
12454 400 m  12554 300 l  ps
12446 0 m  12554 108 l  ps
12334 0 m  12554 220 l  ps
12222 0 m  12554 332 l  ps
12110 0 m  12510 400 l  ps
11998 0 m  12398 400 l  ps
11886 0 m  12286 400 l  ps
11774 0 m  12174 400 l  ps
11774 112 m  12062 400 l  ps
11774 224 m  11950 400 l  ps
11774 336 m  11838 400 l  ps
gr
0.003 0.003 0.003 c 12164 0 m  12554 0 l  12554 400 l  11774 400 l  11774 0 l 
12164 0 l  pc
0.003 0.722 1.000 c 12919 0 m  13309 0 l  13309 400 l  12529 400 l  12529 0 l 
12919 0 l  p ef
gs
1 lw 0 lj 0.003 0.003 0.503 c 12529 72 m  12601 0 l  ps
12529 184 m  12713 0 l  ps
12529 296 m  12825 0 l  ps
12537 400 m  12937 0 l  ps
12649 400 m  13049 0 l  ps
12761 400 m  13161 0 l  ps
12873 400 m  13273 0 l  ps
12985 400 m  13309 76 l  ps
13097 400 m  13309 188 l  ps
13209 400 m  13309 300 l  ps
13201 0 m  13309 108 l  ps
13089 0 m  13309 220 l  ps
12977 0 m  13309 332 l  ps
12865 0 m  13265 400 l  ps
12753 0 m  13153 400 l  ps
12641 0 m  13041 400 l  ps
12529 0 m  12929 400 l  ps
12529 112 m  12817 400 l  ps
12529 224 m  12705 400 l  ps
12529 336 m  12593 400 l  ps
gr
0.003 0.003 0.003 c 12919 0 m  13309 0 l  13309 400 l  12529 400 l  12529 0 l 
12919 0 l  pc
8390 4560 m  8000 4560 l  8000 3460 l  8780 3460 l  8780 4560 l  8390 4560 l 
pc
0.601 0.800 1.000 c 8390 4550 m  8010 4550 l  8010 3470 l  8770 3470 l 
8770 4550 l  8390 4550 l  p ef
0.003 0.003 0.003 c 8390 4550 m  8010 4550 l  8010 3470 l  8770 3470 l  8770 4550 l 
8390 4550 l  pc
9145 4560 m  8755 4560 l  8755 3460 l  9535 3460 l  9535 4560 l  9145 4560 l 
pc
0.601 0.800 1.000 c 9145 4550 m  8765 4550 l  8765 3470 l  9525 3470 l 
9525 4550 l  9145 4550 l  p ef
0.003 0.003 0.003 c 9145 4550 m  8765 4550 l  8765 3470 l  9525 3470 l  9525 4550 l 
9145 4550 l  pc
9900 4560 m  9510 4560 l  9510 3460 l  10290 3460 l  10290 4560 l  9900 4560 l 
pc
0.601 0.800 1.000 c 9900 4550 m  9520 4550 l  9520 3470 l  10280 3470 l 
10280 4550 l  9900 4550 l  p ef
0.003 0.003 0.003 c 9900 4550 m  9520 4550 l  9520 3470 l  10280 3470 l  10280 4550 l 
9900 4550 l  pc
10655 4560 m  10265 4560 l  10265 3460 l  11045 3460 l  11045 4560 l  10655 4560 l 
pc
0.601 0.800 1.000 c 10655 4550 m  10275 4550 l  10275 3470 l  11035 3470 l 
11035 4550 l  10655 4550 l  p ef
0.003 0.003 0.003 c 10655 4550 m  10275 4550 l  10275 3470 l  11035 3470 l 
11035 4550 l  10655 4550 l  pc
11410 4560 m  11020 4560 l  11020 3460 l  11800 3460 l  11800 4560 l  11410 4560 l 
pc
0.601 0.800 1.000 c 11410 4550 m  11030 4550 l  11030 3470 l  11790 3470 l 
11790 4550 l  11410 4550 l  p ef
0.003 0.003 0.003 c 11410 4550 m  11030 4550 l  11030 3470 l  11790 3470 l 
11790 4550 l  11410 4550 l  pc
12165 4560 m  11775 4560 l  11775 3460 l  12555 3460 l  12555 4560 l  12165 4560 l 
pc
0.601 0.800 1.000 c 12165 4550 m  11785 4550 l  11785 3470 l  12545 3470 l 
12545 4550 l  12165 4550 l  p ef
0.003 0.003 0.003 c 12165 4550 m  11785 4550 l  11785 3470 l  12545 3470 l 
12545 4550 l  12165 4550 l  pc
12920 4560 m  12530 4560 l  12530 3460 l  13310 3460 l  13310 4560 l  12920 4560 l 
pc
0.601 0.800 1.000 c 12920 4550 m  12540 4550 l  12540 3470 l  13300 3470 l 
13300 4550 l  12920 4550 l  p ef
0.003 0.003 0.003 c 12920 4550 m  12540 4550 l  12540 3470 l  13300 3470 l 
13300 4550 l  12920 4550 l  pc
0.003 0.722 1.000 c 12920 4560 m  13310 4560 l  13310 4960 l  12530 4960 l 
12530 4560 l  12920 4560 l  p ef
gs
1 lw 0 lj 0.003 0.003 0.503 c 12530 4632 m  12602 4560 l  ps
12530 4744 m  12714 4560 l  ps
12530 4856 m  12826 4560 l  ps
12538 4960 m  12938 4560 l  ps
12650 4960 m  13050 4560 l  ps
12762 4960 m  13162 4560 l  ps
12874 4960 m  13274 4560 l  ps
12986 4960 m  13310 4636 l  ps
13098 4960 m  13310 4748 l  ps
13210 4960 m  13310 4860 l  ps
13202 4560 m  13310 4668 l  ps
13090 4560 m  13310 4780 l  ps
12978 4560 m  13310 4892 l  ps
12866 4560 m  13266 4960 l  ps
12754 4560 m  13154 4960 l  ps
12642 4560 m  13042 4960 l  ps
12530 4560 m  12930 4960 l  ps
12530 4672 m  12818 4960 l  ps
12530 4784 m  12706 4960 l  ps
12530 4896 m  12594 4960 l  ps
gr
0.003 0.003 0.003 c 12920 4560 m  13310 4560 l  13310 4960 l  12530 4960 l 
12530 4560 l  12920 4560 l  pc
0.003 0.722 1.000 c 12165 4560 m  12555 4560 l  12555 4960 l  11775 4960 l 
11775 4560 l  12165 4560 l  p ef
gs
1 lw 0 lj 0.003 0.003 0.503 c 11775 4632 m  11847 4560 l  ps
11775 4744 m  11959 4560 l  ps
11775 4856 m  12071 4560 l  ps
11783 4960 m  12183 4560 l  ps
11895 4960 m  12295 4560 l  ps
12007 4960 m  12407 4560 l  ps
12119 4960 m  12519 4560 l  ps
12231 4960 m  12555 4636 l  ps
12343 4960 m  12555 4748 l  ps
12455 4960 m  12555 4860 l  ps
12447 4560 m  12555 4668 l  ps
12335 4560 m  12555 4780 l  ps
12223 4560 m  12555 4892 l  ps
12111 4560 m  12511 4960 l  ps
11999 4560 m  12399 4960 l  ps
11887 4560 m  12287 4960 l  ps
11775 4560 m  12175 4960 l  ps
11775 4672 m  12063 4960 l  ps
11775 4784 m  11951 4960 l  ps
11775 4896 m  11839 4960 l  ps
gr
0.003 0.003 0.003 c 12165 4560 m  12555 4560 l  12555 4960 l  11775 4960 l 
11775 4560 l  12165 4560 l  pc
0.003 0.722 1.000 c 11410 4560 m  11800 4560 l  11800 4960 l  11020 4960 l 
11020 4560 l  11410 4560 l  p ef
gs
1 lw 0 lj 0.003 0.003 0.503 c 11020 4632 m  11092 4560 l  ps
11020 4744 m  11204 4560 l  ps
11020 4856 m  11316 4560 l  ps
11028 4960 m  11428 4560 l  ps
11140 4960 m  11540 4560 l  ps
11252 4960 m  11652 4560 l  ps
11364 4960 m  11764 4560 l  ps
11476 4960 m  11800 4636 l  ps
11588 4960 m  11800 4748 l  ps
11700 4960 m  11800 4860 l  ps
11692 4560 m  11800 4668 l  ps
11580 4560 m  11800 4780 l  ps
11468 4560 m  11800 4892 l  ps
11356 4560 m  11756 4960 l  ps
11244 4560 m  11644 4960 l  ps
11132 4560 m  11532 4960 l  ps
11020 4560 m  11420 4960 l  ps
11020 4672 m  11308 4960 l  ps
11020 4784 m  11196 4960 l  ps
11020 4896 m  11084 4960 l  ps
gr
0.003 0.003 0.003 c 11410 4560 m  11800 4560 l  11800 4960 l  11020 4960 l 
11020 4560 l  11410 4560 l  pc
0.003 0.722 1.000 c 10655 4560 m  11045 4560 l  11045 4960 l  10265 4960 l 
10265 4560 l  10655 4560 l  p ef
gs
1 lw 0 lj 0.003 0.003 0.503 c 10265 4632 m  10337 4560 l  ps
10265 4744 m  10449 4560 l  ps
10265 4856 m  10561 4560 l  ps
10273 4960 m  10673 4560 l  ps
10385 4960 m  10785 4560 l  ps
10497 4960 m  10897 4560 l  ps
10609 4960 m  11009 4560 l  ps
10721 4960 m  11045 4636 l  ps
10833 4960 m  11045 4748 l  ps
10945 4960 m  11045 4860 l  ps
10937 4560 m  11045 4668 l  ps
10825 4560 m  11045 4780 l  ps
10713 4560 m  11045 4892 l  ps
10601 4560 m  11001 4960 l  ps
10489 4560 m  10889 4960 l  ps
10377 4560 m  10777 4960 l  ps
10265 4560 m  10665 4960 l  ps
10265 4672 m  10553 4960 l  ps
10265 4784 m  10441 4960 l  ps
10265 4896 m  10329 4960 l  ps
gr
0.003 0.003 0.003 c 10655 4560 m  11045 4560 l  11045 4960 l  10265 4960 l 
10265 4560 l  10655 4560 l  pc
0.003 0.722 1.000 c 9900 4560 m  10290 4560 l  10290 4960 l  9510 4960 l 
9510 4560 l  9900 4560 l  p ef
gs
1 lw 0 lj 0.003 0.003 0.503 c 9510 4632 m  9582 4560 l  ps
9510 4744 m  9694 4560 l  ps
9510 4856 m  9806 4560 l  ps
9518 4960 m  9918 4560 l  ps
9630 4960 m  10030 4560 l  ps
9742 4960 m  10142 4560 l  ps
9854 4960 m  10254 4560 l  ps
9966 4960 m  10290 4636 l  ps
10078 4960 m  10290 4748 l  ps
10190 4960 m  10290 4860 l  ps
10182 4560 m  10290 4668 l  ps
10070 4560 m  10290 4780 l  ps
9958 4560 m  10290 4892 l  ps
9846 4560 m  10246 4960 l  ps
9734 4560 m  10134 4960 l  ps
9622 4560 m  10022 4960 l  ps
9510 4560 m  9910 4960 l  ps
9510 4672 m  9798 4960 l  ps
9510 4784 m  9686 4960 l  ps
9510 4896 m  9574 4960 l  ps
gr
0.003 0.003 0.003 c 9900 4560 m  10290 4560 l  10290 4960 l  9510 4960 l  9510 4560 l 
9900 4560 l  pc
0.003 0.722 1.000 c 9145 4560 m  9535 4560 l  9535 4960 l  8755 4960 l  8755 4560 l 
9145 4560 l  p ef
gs
1 lw 0 lj 0.003 0.003 0.503 c 8755 4632 m  8827 4560 l  ps
8755 4744 m  8939 4560 l  ps
8755 4856 m  9051 4560 l  ps
8763 4960 m  9163 4560 l  ps
8875 4960 m  9275 4560 l  ps
8987 4960 m  9387 4560 l  ps
9099 4960 m  9499 4560 l  ps
9211 4960 m  9535 4636 l  ps
9323 4960 m  9535 4748 l  ps
9435 4960 m  9535 4860 l  ps
9427 4560 m  9535 4668 l  ps
9315 4560 m  9535 4780 l  ps
9203 4560 m  9535 4892 l  ps
9091 4560 m  9491 4960 l  ps
8979 4560 m  9379 4960 l  ps
8867 4560 m  9267 4960 l  ps
8755 4560 m  9155 4960 l  ps
8755 4672 m  9043 4960 l  ps
8755 4784 m  8931 4960 l  ps
8755 4896 m  8819 4960 l  ps
gr
0.003 0.003 0.003 c 9145 4560 m  9535 4560 l  9535 4960 l  8755 4960 l  8755 4560 l 
9145 4560 l  pc
0.003 0.722 1.000 c 8390 4560 m  8780 4560 l  8780 4960 l  8000 4960 l  8000 4560 l 
8390 4560 l  p ef
gs
1 lw 0 lj 0.003 0.003 0.503 c 8000 4632 m  8072 4560 l  ps
8000 4744 m  8184 4560 l  ps
8000 4856 m  8296 4560 l  ps
8008 4960 m  8408 4560 l  ps
8120 4960 m  8520 4560 l  ps
8232 4960 m  8632 4560 l  ps
8344 4960 m  8744 4560 l  ps
8456 4960 m  8780 4636 l  ps
8568 4960 m  8780 4748 l  ps
8680 4960 m  8780 4860 l  ps
8672 4560 m  8780 4668 l  ps
8560 4560 m  8780 4780 l  ps
8448 4560 m  8780 4892 l  ps
8336 4560 m  8736 4960 l  ps
8224 4560 m  8624 4960 l  ps
8112 4560 m  8512 4960 l  ps
8000 4560 m  8400 4960 l  ps
8000 4672 m  8288 4960 l  ps
8000 4784 m  8176 4960 l  ps
8000 4896 m  8064 4960 l  ps
gr
0.003 0.003 0.003 c 8390 4560 m  8780 4560 l  8780 4960 l  8000 4960 l  8000 4560 l 
8390 4560 l  pc
gs
gs
pum
21 703 t
0.003 0.003 0.503 c 50 0 m  50 0 50 0 50 -403 ct 50 -403 50 -403 111 -403 ct 111 -403 111 -403 111 -342 ct 
127 -371 141 -389 155 -398 ct 168 -407 183 -412 199 -412 ct 222 -412 245 -405 269 -390 ct 
269 -390 269 -390 245 -327 ct 228 -337 211 -342 195 -342 ct 180 -342 167 -338 155 -329 ct 
143 -320 134 -307 129 -291 ct 122 -267 118 -240 118 -211 ct 118 -211 118 -211 118 0 ct 
118 0 118 0 50 0 ct p ef
585 -130 m  585 -130 585 -130 656 -121 ct 645 -80 624 -48 594 -25 ct 564 -2 525 9 478 9 ct 
419 9 372 -9 338 -45 ct 303 -82 286 -133 286 -198 ct 286 -266 303 -318 338 -356 ct 
373 -393 419 -412 474 -412 ct 528 -412 573 -394 607 -357 ct 641 -320 658 -269 658 -202 ct 
658 -198 658 -192 658 -184 ct 658 -184 658 -184 356 -184 ct 359 -140 371 -106 394 -82 ct 
416 -59 445 -47 478 -47 ct 504 -47 525 -54 543 -67 ct 561 -80 575 -101 585 -130 ct 
p
360 -240 m  360 -240 360 -240 586 -240 ct 583 -274 574 -299 560 -316 ct 538 -343 510 -356 475 -356 ct 
444 -356 417 -345 396 -324 ct 374 -303 362 -275 360 -240 ct p ef
1005 -50 m  980 -28 956 -13 933 -4 ct 909 5 884 9 857 9 ct 812 9 778 -2 754 -23 ct 
730 -45 718 -73 718 -106 ct 718 -126 723 -144 732 -161 ct 741 -177 752 -190 767 -200 ct 
782 -210 798 -217 817 -222 ct 830 -226 851 -229 878 -232 ct 933 -239 974 -247 1001 -256 ct 
1001 -265 1001 -271 1001 -274 ct 1001 -302 995 -321 981 -333 ct 964 -348 938 -356 903 -356 ct 
871 -356 847 -350 831 -339 ct 816 -328 804 -308 797 -279 ct 797 -279 797 -279 730 -288 ct 
736 -317 746 -340 760 -357 ct 774 -375 794 -388 820 -398 ct 847 -407 877 -412 912 -412 ct 
946 -412 974 -408 996 -400 ct 1017 -392 1033 -382 1043 -369 ct 1053 -357 1061 -342 1065 -323 ct 
1067 -311 1068 -290 1068 -260 ct 1068 -260 1068 -260 1068 -169 ct 1068 -105 1069 -65 1072 -48 ct 
1075 -31 1081 -15 1089 0 ct 1089 0 1089 0 1019 0 ct 1012 -14 1007 -31 1005 -50 ct 
p
999 -203 m  974 -193 937 -184 887 -177 ct 859 -173 839 -168 827 -163 ct 816 -158 807 -151 801 -141 ct 
794 -131 791 -120 791 -108 ct 791 -90 798 -75 812 -62 ct 826 -50 846 -44 873 -44 ct 
900 -44 923 -50 944 -61 ct 965 -73 980 -89 990 -109 ct 997 -124 1001 -147 1001 -178 ct 
1001 -178 1001 -178 999 -203 ct p ef
1434 0 m  1434 0 1434 0 1434 -51 ct 1408 -11 1371 9 1321 9 ct 1289 9 1260 0 1233 -18 ct 
1206 -35 1185 -60 1170 -92 ct 1155 -123 1148 -160 1148 -201 ct 1148 -241 1155 -278 1168 -311 ct 
1181 -343 1202 -368 1228 -386 ct 1255 -403 1285 -412 1318 -412 ct 1342 -412 1364 -407 1383 -397 ct 
1402 -387 1417 -373 1429 -357 ct 1429 -357 1429 -357 1429 -556 ct 1429 -556 1429 -556 1497 -556 ct 
1497 -556 1497 -556 1497 0 ct 1497 0 1497 0 1434 0 ct p
1218 -201 m  1218 -150 1229 -111 1251 -85 ct 1273 -60 1298 -47 1328 -47 ct 1358 -47 1384 -59 1405 -84 ct 
1426 -108 1436 -145 1436 -196 ct 1436 -251 1425 -291 1404 -317 ct 1383 -343 1356 -356 1325 -356 ct 
1295 -356 1269 -344 1249 -319 ct 1228 -294 1218 -255 1218 -201 ct p ef
1580 -202 m  1580 -276 1601 -331 1642 -367 ct 1677 -397 1719 -412 1769 -412 ct 
1824 -412 1869 -394 1904 -358 ct 1939 -321 1957 -271 1957 -207 ct 1957 -155 1949 -115 1934 -85 ct 
1918 -55 1896 -32 1866 -16 ct 1836 1 1804 9 1769 9 ct 1712 9 1667 -9 1632 -45 ct 
1597 -81 1580 -133 1580 -202 ct p
1650 -202 m  1650 -150 1661 -111 1684 -86 ct 1706 -60 1735 -47 1769 -47 ct 1803 -47 1831 -60 1853 -86 ct 
1876 -112 1887 -151 1887 -204 ct 1887 -254 1876 -292 1853 -317 ct 1830 -343 1802 -356 1769 -356 ct 
1735 -356 1706 -343 1684 -318 ct 1661 -292 1650 -253 1650 -202 ct p ef
2300 0 m  2300 0 2300 0 2300 -59 ct 2269 -14 2226 9 2172 9 ct 2149 9 2127 4 2106 -5 ct 
2085 -14 2070 -25 2060 -39 ct 2050 -53 2043 -70 2039 -90 ct 2036 -103 2035 -124 2035 -153 ct 
2035 -153 2035 -153 2035 -403 ct 2035 -403 2035 -403 2103 -403 ct 2103 -403 2103 -403 2103 -180 ct 
2103 -144 2104 -120 2107 -108 ct 2111 -90 2121 -76 2134 -65 ct 2148 -55 2166 -50 2186 -50 ct 
2207 -50 2226 -55 2244 -66 ct 2262 -76 2274 -91 2282 -109 ct 2289 -127 2293 -153 2293 -187 ct 
2293 -187 2293 -187 2293 -403 ct 2293 -403 2293 -403 2361 -403 ct 2361 -403 2361 -403 2361 0 ct 
2361 0 2361 0 2300 0 ct p ef
2617 -61 m  2617 -61 2617 -61 2626 -1 ct 2607 3 2590 5 2575 5 ct 2550 5 2531 1 2517 -7 ct 
2503 -15 2494 -25 2488 -38 ct 2483 -50 2480 -77 2480 -118 ct 2480 -118 2480 -118 2480 -350 ct 
2480 -350 2480 -350 2430 -350 ct 2430 -350 2430 -350 2430 -403 ct 2430 -403 2430 -403 2480 -403 ct 
2480 -403 2480 -403 2480 -503 ct 2480 -503 2480 -503 2548 -544 ct 2548 -544 2548 -544 2548 -403 ct 
2548 -403 2548 -403 2617 -403 ct 2617 -403 2617 -403 2617 -350 ct 2617 -350 2617 -350 2548 -350 ct 
2548 -350 2548 -350 2548 -115 ct 2548 -95 2549 -83 2552 -77 ct 2554 -72 2558 -67 2563 -64 ct 
2569 -61 2577 -59 2587 -59 ct 2595 -59 2605 -60 2617 -61 ct p ef
2900 0 m  2900 0 2900 0 2900 -556 ct 2900 -556 2900 -556 2968 -556 ct 2968 -556 2968 -556 2968 -356 ct 
3000 -393 3040 -412 3089 -412 ct 3119 -412 3144 -406 3167 -394 ct 3189 -383 3204 -366 3214 -346 ct 
3223 -325 3228 -295 3228 -255 ct 3228 -255 3228 -255 3228 0 ct 3228 0 3228 0 3160 0 ct 
3160 0 3160 0 3160 -255 ct 3160 -289 3153 -314 3138 -330 ct 3123 -345 3102 -353 3075 -353 ct 
3055 -353 3035 -348 3018 -337 ct 3000 -327 2987 -313 2979 -295 ct 2972 -277 2968 -252 2968 -220 ct 
2968 -220 2968 -220 2968 0 ct 2968 0 2968 0 2900 0 ct p ef
3329 155 m  3329 155 3329 155 3321 91 ct 3336 95 3349 97 3360 97 ct 3375 97 3388 94 3397 89 ct 
3406 84 3413 77 3419 68 ct 3423 61 3430 44 3440 17 ct 3441 14 3443 8 3446 1 ct 
3446 1 3446 1 3293 -403 ct 3293 -403 3293 -403 3366 -403 ct 3366 -403 3366 -403 3450 -170 ct 
3461 -140 3471 -109 3480 -77 ct 3488 -108 3497 -138 3508 -168 ct 3508 -168 3508 -168 3594 -403 ct 
3594 -403 3594 -403 3662 -403 ct 3662 -403 3662 -403 3510 7 ct 3493 51 3480 81 3471 98 ct 
3459 120 3445 137 3429 147 ct 3414 158 3395 163 3373 163 ct 3360 163 3345 160 3329 155 ct 
p ef
3784 0 m  3784 0 3784 0 3721 0 ct 3721 0 3721 0 3721 -556 ct 3721 -556 3721 -556 3789 -556 ct 
3789 -556 3789 -556 3789 -358 ct 3818 -394 3855 -412 3899 -412 ct 3924 -412 3948 -407 3970 -397 ct 
3992 -387 4010 -373 4024 -355 ct 4039 -337 4050 -315 4058 -289 ct 4066 -264 4070 -237 4070 -208 ct 
4070 -139 4053 -85 4019 -48 ct 3985 -10 3944 9 3896 9 ct 3848 9 3811 -11 3784 -50 ct 
3784 -50 3784 -50 3784 0 ct p
3782 -205 m  3782 -156 3789 -121 3802 -100 ct 3823 -65 3853 -47 3889 -47 ct 
3919 -47 3945 -60 3967 -86 ct 3989 -112 4000 -151 4000 -202 ct 4000 -255 3990 -293 3969 -318 ct 
3948 -343 3922 -356 3893 -356 ct 3863 -356 3837 -343 3815 -317 ct 3793 -291 3782 -254 3782 -205 ct 
p ef
4152 0 m  4152 0 4152 0 4152 -403 ct 4152 -403 4152 -403 4213 -403 ct 4213 -403 4213 -403 4213 -342 ct 
4229 -371 4243 -389 4257 -398 ct 4270 -407 4285 -412 4301 -412 ct 4324 -412 4347 -405 4371 -390 ct 
4371 -390 4371 -390 4347 -327 ct 4330 -337 4313 -342 4297 -342 ct 4282 -342 4269 -338 4257 -329 ct 
4245 -320 4236 -307 4231 -291 ct 4224 -267 4220 -240 4220 -211 ct 4220 -211 4220 -211 4220 0 ct 
4220 0 4220 0 4152 0 ct p ef
4412 -478 m  4412 -556 l  4480 -556 l  4480 -478 l  4412 -478 l  p
4412 0 m  4412 -403 l  4480 -403 l  4480 0 l  4412 0 l  p ef
4846 0 m  4846 0 4846 0 4846 -51 ct 4820 -11 4783 9 4733 9 ct 4701 9 4672 0 4645 -18 ct 
4618 -35 4597 -60 4582 -92 ct 4567 -123 4560 -160 4560 -201 ct 4560 -241 4567 -278 4580 -311 ct 
4593 -343 4614 -368 4640 -386 ct 4667 -403 4697 -412 4730 -412 ct 4754 -412 4776 -407 4795 -397 ct 
4814 -387 4829 -373 4841 -357 ct 4841 -357 4841 -357 4841 -556 ct 4841 -556 4841 -556 4909 -556 ct 
4909 -556 4909 -556 4909 0 ct 4909 0 4909 0 4846 0 ct p
4630 -201 m  4630 -150 4641 -111 4663 -85 ct 4685 -60 4710 -47 4740 -47 ct 4770 -47 4796 -59 4817 -84 ct 
4838 -108 4848 -145 4848 -196 ct 4848 -251 4837 -291 4816 -317 ct 4795 -343 4768 -356 4737 -356 ct 
4707 -356 4681 -344 4661 -319 ct 4640 -294 4630 -255 4630 -201 ct p ef
4990 -120 m  4990 -120 4990 -120 5057 -131 ct 5061 -104 5071 -83 5089 -69 ct 
5106 -54 5130 -47 5161 -47 ct 5193 -47 5216 -53 5231 -66 ct 5246 -79 5254 -94 5254 -111 ct 
5254 -127 5247 -139 5234 -148 ct 5224 -154 5201 -161 5164 -171 ct 5114 -183 5079 -194 5060 -204 ct 
5041 -213 5026 -226 5016 -242 ct 5006 -258 5001 -276 5001 -296 ct 5001 -314 5005 -331 5013 -346 ct 
5022 -361 5033 -374 5047 -384 ct 5058 -392 5072 -398 5090 -404 ct 5109 -409 5128 -412 5149 -412 ct 
5181 -412 5209 -407 5233 -398 ct 5256 -389 5274 -377 5285 -361 ct 5297 -346 5305 -325 5309 -299 ct 
5309 -299 5309 -299 5242 -290 ct 5239 -311 5230 -327 5216 -339 ct 5201 -350 5181 -356 5154 -356 ct 
5123 -356 5100 -351 5087 -340 ct 5074 -330 5067 -318 5067 -304 ct 5067 -295 5070 -287 5075 -280 ct 
5081 -273 5090 -267 5101 -262 ct 5108 -259 5128 -253 5162 -244 ct 5210 -231 5244 -221 5263 -213 ct 
5282 -204 5297 -192 5308 -177 ct 5319 -161 5324 -142 5324 -118 ct 5324 -96 5317 -74 5304 -54 ct 
5291 -34 5272 -19 5247 -8 ct 5222 3 5193 9 5162 9 ct 5110 9 5070 -2 5042 -24 ct 
5015 -45 4998 -77 4990 -120 ct p ef
pom
gr
gr
0.003 0.003 0.503 c 7955 269 m  7394 483 l  7377 104 l  7955 269 l  p ef
5556 347 m  7498 264 l  7500 314 l  5558 397 l  5556 347 l  p ef
gs
gs
pum
1 2608 t
0.140 0.140 0.863 c 312 0 m  312 0 312 0 312 -51 ct 286 -11 249 9 199 9 ct 167 9 138 0 111 -18 ct 
84 -35 63 -60 48 -92 ct 33 -123 26 -160 26 -201 ct 26 -241 33 -278 46 -311 ct 59 -343 80 -368 106 -386 ct 
133 -403 163 -412 196 -412 ct 220 -412 242 -407 261 -397 ct 280 -387 295 -373 307 -357 ct 
307 -357 307 -357 307 -556 ct 307 -556 307 -556 375 -556 ct 375 -556 375 -556 375 0 ct 
375 0 375 0 312 0 ct p
96 -201 m  96 -150 107 -111 129 -85 ct 151 -60 176 -47 206 -47 ct 236 -47 262 -59 283 -84 ct 
304 -108 314 -145 314 -196 ct 314 -251 303 -291 282 -317 ct 261 -343 234 -356 203 -356 ct 
173 -356 147 -344 127 -319 ct 106 -294 96 -255 96 -201 ct p ef
759 -130 m  759 -130 759 -130 830 -121 ct 819 -80 798 -48 768 -25 ct 738 -2 699 9 652 9 ct 
593 9 546 -9 512 -45 ct 477 -82 460 -133 460 -198 ct 460 -266 477 -318 512 -356 ct 
547 -393 593 -412 648 -412 ct 702 -412 747 -394 781 -357 ct 815 -320 832 -269 832 -202 ct 
832 -198 832 -192 832 -184 ct 832 -184 832 -184 530 -184 ct 533 -140 545 -106 568 -82 ct 
590 -59 619 -47 652 -47 ct 678 -47 699 -54 717 -67 ct 735 -80 749 -101 759 -130 ct 
p
534 -240 m  534 -240 534 -240 760 -240 ct 757 -274 748 -299 734 -316 ct 712 -343 684 -356 649 -356 ct 
618 -356 591 -345 570 -324 ct 548 -303 536 -275 534 -240 ct p ef
1064 -61 m  1064 -61 1064 -61 1073 -1 ct 1054 3 1037 5 1022 5 ct 997 5 978 1 964 -7 ct 
950 -15 941 -25 935 -38 ct 930 -50 927 -77 927 -118 ct 927 -118 927 -118 927 -350 ct 
927 -350 927 -350 877 -350 ct 877 -350 877 -350 877 -403 ct 877 -403 877 -403 927 -403 ct 
927 -403 927 -403 927 -503 ct 927 -503 927 -503 995 -544 ct 995 -544 995 -544 995 -403 ct 
995 -403 995 -403 1064 -403 ct 1064 -403 1064 -403 1064 -350 ct 1064 -350 1064 -350 995 -350 ct 
995 -350 995 -350 995 -115 ct 995 -95 996 -83 999 -77 ct 1001 -72 1005 -67 1010 -64 ct 
1016 -61 1024 -59 1034 -59 ct 1042 -59 1052 -60 1064 -61 ct p ef
1407 -130 m  1407 -130 1407 -130 1478 -121 ct 1467 -80 1446 -48 1416 -25 ct 
1386 -2 1347 9 1300 9 ct 1241 9 1194 -9 1160 -45 ct 1125 -82 1108 -133 1108 -198 ct 
1108 -266 1125 -318 1160 -356 ct 1195 -393 1241 -412 1296 -412 ct 1350 -412 1395 -394 1429 -357 ct 
1463 -320 1480 -269 1480 -202 ct 1480 -198 1480 -192 1480 -184 ct 1480 -184 1480 -184 1178 -184 ct 
1181 -140 1193 -106 1216 -82 ct 1238 -59 1267 -47 1300 -47 ct 1326 -47 1347 -54 1365 -67 ct 
1383 -80 1397 -101 1407 -130 ct p
1182 -240 m  1182 -240 1182 -240 1408 -240 ct 1405 -274 1396 -299 1382 -316 ct 
1360 -343 1332 -356 1297 -356 ct 1266 -356 1239 -345 1218 -324 ct 1196 -303 1184 -275 1182 -240 ct 
p ef
1825 -148 m  1825 -148 1825 -148 1892 -139 ct 1885 -93 1866 -56 1836 -30 ct 
1806 -4 1769 9 1725 9 ct 1670 9 1626 -9 1592 -45 ct 1559 -81 1542 -133 1542 -200 ct 
1542 -243 1549 -282 1564 -314 ct 1578 -347 1600 -371 1629 -388 ct 1659 -404 1691 -412 1725 -412 ct 
1769 -412 1805 -401 1833 -378 ct 1860 -356 1878 -324 1886 -283 ct 1886 -283 1886 -283 1820 -274 ct 
1814 -301 1802 -322 1786 -335 ct 1770 -349 1751 -356 1728 -356 ct 1694 -356 1666 -344 1644 -319 ct 
1623 -294 1612 -255 1612 -202 ct 1612 -148 1622 -108 1643 -84 ct 1664 -59 1691 -47 1724 -47 ct 
1751 -47 1773 -55 1791 -72 ct 1809 -88 1820 -114 1825 -148 ct p ef
2101 -61 m  2101 -61 2101 -61 2110 -1 ct 2091 3 2074 5 2059 5 ct 2034 5 2015 1 2001 -7 ct 
1987 -15 1978 -25 1972 -38 ct 1967 -50 1964 -77 1964 -118 ct 1964 -118 1964 -118 1964 -350 ct 
1964 -350 1964 -350 1914 -350 ct 1914 -350 1914 -350 1914 -403 ct 1914 -403 1914 -403 1964 -403 ct 
1964 -403 1964 -403 1964 -503 ct 1964 -503 1964 -503 2032 -544 ct 2032 -544 2032 -544 2032 -403 ct 
2032 -403 2032 -403 2101 -403 ct 2101 -403 2101 -403 2101 -350 ct 2101 -350 2101 -350 2032 -350 ct 
2032 -350 2032 -350 2032 -115 ct 2032 -95 2033 -83 2036 -77 ct 2038 -72 2042 -67 2047 -64 ct 
2053 -61 2061 -59 2071 -59 ct 2079 -59 2089 -60 2101 -61 ct p ef
2143 -202 m  2143 -276 2164 -331 2205 -367 ct 2240 -397 2282 -412 2332 -412 ct 
2387 -412 2432 -394 2467 -358 ct 2502 -321 2520 -271 2520 -207 ct 2520 -155 2512 -115 2497 -85 ct 
2481 -55 2459 -32 2429 -16 ct 2399 1 2367 9 2332 9 ct 2275 9 2230 -9 2195 -45 ct 
2160 -81 2143 -133 2143 -202 ct p
2213 -202 m  2213 -150 2224 -111 2247 -86 ct 2269 -60 2298 -47 2332 -47 ct 2366 -47 2394 -60 2416 -86 ct 
2439 -112 2450 -151 2450 -204 ct 2450 -254 2439 -292 2416 -317 ct 2393 -343 2365 -356 2332 -356 ct 
2298 -356 2269 -343 2247 -318 ct 2224 -292 2213 -253 2213 -202 ct p ef
2598 0 m  2598 0 2598 0 2598 -403 ct 2598 -403 2598 -403 2659 -403 ct 2659 -403 2659 -403 2659 -342 ct 
2675 -371 2689 -389 2703 -398 ct 2716 -407 2731 -412 2747 -412 ct 2770 -412 2793 -405 2817 -390 ct 
2817 -390 2817 -390 2793 -327 ct 2776 -337 2759 -342 2743 -342 ct 2728 -342 2715 -338 2703 -329 ct 
2691 -320 2682 -307 2677 -291 ct 2670 -267 2666 -240 2666 -211 ct 2666 -211 2666 -211 2666 0 ct 
2666 0 2666 0 2598 0 ct p ef
pom
gr
gs
pum
131 3300 t
0.140 0.140 0.863 c 51 0 m  51 0 51 0 51 -403 ct 51 -403 51 -403 112 -403 ct 
112 -403 112 -403 112 -347 ct 125 -366 142 -382 163 -394 ct 183 -406 207 -412 234 -412 ct 
264 -412 288 -406 307 -393 ct 326 -381 340 -364 348 -342 ct 380 -389 421 -412 472 -412 ct 
512 -412 543 -401 565 -379 ct 586 -357 597 -323 597 -277 ct 597 -277 597 -277 597 0 ct 
597 0 597 0 529 0 ct 529 0 529 0 529 -254 ct 529 -281 527 -301 522 -313 ct 518 -325 510 -335 498 -342 ct 
487 -349 473 -353 457 -353 ct 429 -353 405 -344 386 -325 ct 368 -306 358 -276 358 -234 ct 
358 -234 358 -234 358 0 ct 358 0 358 0 290 0 ct 290 0 290 0 290 -262 ct 290 -292 285 -315 273 -330 ct 
262 -345 244 -353 219 -353 ct 200 -353 182 -348 166 -338 ct 149 -328 137 -313 130 -293 ct 
123 -274 119 -246 119 -209 ct 119 -209 119 -209 119 0 ct 119 0 119 0 51 0 ct p ef
674 -202 m  674 -276 695 -331 736 -367 ct 771 -397 813 -412 863 -412 ct 918 -412 963 -394 998 -358 ct 
1033 -321 1051 -271 1051 -207 ct 1051 -155 1043 -115 1028 -85 ct 1012 -55 990 -32 960 -16 ct 
930 1 898 9 863 9 ct 806 9 761 -9 726 -45 ct 691 -81 674 -133 674 -202 ct p
744 -202 m  744 -150 755 -111 778 -86 ct 800 -60 829 -47 863 -47 ct 897 -47 925 -60 947 -86 ct 
970 -112 981 -151 981 -204 ct 981 -254 970 -292 947 -317 ct 924 -343 896 -356 863 -356 ct 
829 -356 800 -343 778 -318 ct 755 -292 744 -253 744 -202 ct p ef
1392 0 m  1392 0 1392 0 1392 -51 ct 1366 -11 1329 9 1279 9 ct 1247 9 1218 0 1191 -18 ct 
1164 -35 1143 -60 1128 -92 ct 1113 -123 1106 -160 1106 -201 ct 1106 -241 1113 -278 1126 -311 ct 
1139 -343 1160 -368 1186 -386 ct 1213 -403 1243 -412 1276 -412 ct 1300 -412 1322 -407 1341 -397 ct 
1360 -387 1375 -373 1387 -357 ct 1387 -357 1387 -357 1387 -556 ct 1387 -556 1387 -556 1455 -556 ct 
1455 -556 1455 -556 1455 0 ct 1455 0 1455 0 1392 0 ct p
1176 -201 m  1176 -150 1187 -111 1209 -85 ct 1231 -60 1256 -47 1286 -47 ct 1316 -47 1342 -59 1363 -84 ct 
1384 -108 1394 -145 1394 -196 ct 1394 -251 1383 -291 1362 -317 ct 1341 -343 1314 -356 1283 -356 ct 
1253 -356 1227 -344 1207 -319 ct 1186 -294 1176 -255 1176 -201 ct p ef
1826 0 m  1826 0 1826 0 1826 -59 ct 1795 -14 1752 9 1698 9 ct 1675 9 1653 4 1632 -5 ct 
1611 -14 1596 -25 1586 -39 ct 1576 -53 1569 -70 1565 -90 ct 1562 -103 1561 -124 1561 -153 ct 
1561 -153 1561 -153 1561 -403 ct 1561 -403 1561 -403 1629 -403 ct 1629 -403 1629 -403 1629 -180 ct 
1629 -144 1630 -120 1633 -108 ct 1637 -90 1647 -76 1660 -65 ct 1674 -55 1692 -50 1712 -50 ct 
1733 -50 1752 -55 1770 -66 ct 1788 -76 1800 -91 1808 -109 ct 1815 -127 1819 -153 1819 -187 ct 
1819 -187 1819 -187 1819 -403 ct 1819 -403 1819 -403 1887 -403 ct 1887 -403 1887 -403 1887 0 ct 
1887 0 1887 0 1826 0 ct p ef
1993 0 m  1993 -556 l  2061 -556 l  2061 0 l  1993 0 l  p ef
2444 -130 m  2444 -130 2444 -130 2515 -121 ct 2504 -80 2483 -48 2453 -25 ct 
2423 -2 2384 9 2337 9 ct 2278 9 2231 -9 2197 -45 ct 2162 -82 2145 -133 2145 -198 ct 
2145 -266 2162 -318 2197 -356 ct 2232 -393 2278 -412 2333 -412 ct 2387 -412 2432 -394 2466 -357 ct 
2500 -320 2517 -269 2517 -202 ct 2517 -198 2517 -192 2517 -184 ct 2517 -184 2517 -184 2215 -184 ct 
2218 -140 2230 -106 2253 -82 ct 2275 -59 2304 -47 2337 -47 ct 2363 -47 2384 -54 2402 -67 ct 
2420 -80 2434 -101 2444 -130 ct p
2219 -240 m  2219 -240 2219 -240 2445 -240 ct 2442 -274 2433 -299 2419 -316 ct 
2397 -343 2369 -356 2334 -356 ct 2303 -356 2276 -345 2255 -324 ct 2233 -303 2221 -275 2219 -240 ct 
p ef
pom
gr
gr
gs
gs
pum
21 4910 t
50 0 m  50 0 50 0 50 -403 ct 50 -403 50 -403 111 -403 ct 111 -403 111 -403 111 -342 ct 
127 -371 141 -389 155 -398 ct 168 -407 183 -412 199 -412 ct 222 -412 245 -405 269 -390 ct 
269 -390 269 -390 245 -327 ct 228 -337 211 -342 195 -342 ct 180 -342 167 -338 155 -329 ct 
143 -320 134 -307 129 -291 ct 122 -267 118 -240 118 -211 ct 118 -211 118 -211 118 0 ct 
118 0 118 0 50 0 ct p ef
585 -130 m  585 -130 585 -130 656 -121 ct 645 -80 624 -48 594 -25 ct 564 -2 525 9 478 9 ct 
419 9 372 -9 338 -45 ct 303 -82 286 -133 286 -198 ct 286 -266 303 -318 338 -356 ct 
373 -393 419 -412 474 -412 ct 528 -412 573 -394 607 -357 ct 641 -320 658 -269 658 -202 ct 
658 -198 658 -192 658 -184 ct 658 -184 658 -184 356 -184 ct 359 -140 371 -106 394 -82 ct 
416 -59 445 -47 478 -47 ct 504 -47 525 -54 543 -67 ct 561 -80 575 -101 585 -130 ct 
p
360 -240 m  360 -240 360 -240 586 -240 ct 583 -274 574 -299 560 -316 ct 538 -343 510 -356 475 -356 ct 
444 -356 417 -345 396 -324 ct 374 -303 362 -275 360 -240 ct p ef
1005 -50 m  980 -28 956 -13 933 -4 ct 909 5 884 9 857 9 ct 812 9 778 -2 754 -23 ct 
730 -45 718 -73 718 -106 ct 718 -126 723 -144 732 -161 ct 741 -177 752 -190 767 -200 ct 
782 -210 798 -217 817 -222 ct 830 -226 851 -229 878 -232 ct 933 -239 974 -247 1001 -256 ct 
1001 -265 1001 -271 1001 -274 ct 1001 -302 995 -321 981 -333 ct 964 -348 938 -356 903 -356 ct 
871 -356 847 -350 831 -339 ct 816 -328 804 -308 797 -279 ct 797 -279 797 -279 730 -288 ct 
736 -317 746 -340 760 -357 ct 774 -375 794 -388 820 -398 ct 847 -407 877 -412 912 -412 ct 
946 -412 974 -408 996 -400 ct 1017 -392 1033 -382 1043 -369 ct 1053 -357 1061 -342 1065 -323 ct 
1067 -311 1068 -290 1068 -260 ct 1068 -260 1068 -260 1068 -169 ct 1068 -105 1069 -65 1072 -48 ct 
1075 -31 1081 -15 1089 0 ct 1089 0 1089 0 1019 0 ct 1012 -14 1007 -31 1005 -50 ct 
p
999 -203 m  974 -193 937 -184 887 -177 ct 859 -173 839 -168 827 -163 ct 816 -158 807 -151 801 -141 ct 
794 -131 791 -120 791 -108 ct 791 -90 798 -75 812 -62 ct 826 -50 846 -44 873 -44 ct 
900 -44 923 -50 944 -61 ct 965 -73 980 -89 990 -109 ct 997 -124 1001 -147 1001 -178 ct 
1001 -178 1001 -178 999 -203 ct p ef
1434 0 m  1434 0 1434 0 1434 -51 ct 1408 -11 1371 9 1321 9 ct 1289 9 1260 0 1233 -18 ct 
1206 -35 1185 -60 1170 -92 ct 1155 -123 1148 -160 1148 -201 ct 1148 -241 1155 -278 1168 -311 ct 
1181 -343 1202 -368 1228 -386 ct 1255 -403 1285 -412 1318 -412 ct 1342 -412 1364 -407 1383 -397 ct 
1402 -387 1417 -373 1429 -357 ct 1429 -357 1429 -357 1429 -556 ct 1429 -556 1429 -556 1497 -556 ct 
1497 -556 1497 -556 1497 0 ct 1497 0 1497 0 1434 0 ct p
1218 -201 m  1218 -150 1229 -111 1251 -85 ct 1273 -60 1298 -47 1328 -47 ct 1358 -47 1384 -59 1405 -84 ct 
1426 -108 1436 -145 1436 -196 ct 1436 -251 1425 -291 1404 -317 ct 1383 -343 1356 -356 1325 -356 ct 
1295 -356 1269 -344 1249 -319 ct 1228 -294 1218 -255 1218 -201 ct p ef
1580 -202 m  1580 -276 1601 -331 1642 -367 ct 1677 -397 1719 -412 1769 -412 ct 
1824 -412 1869 -394 1904 -358 ct 1939 -321 1957 -271 1957 -207 ct 1957 -155 1949 -115 1934 -85 ct 
1918 -55 1896 -32 1866 -16 ct 1836 1 1804 9 1769 9 ct 1712 9 1667 -9 1632 -45 ct 
1597 -81 1580 -133 1580 -202 ct p
1650 -202 m  1650 -150 1661 -111 1684 -86 ct 1706 -60 1735 -47 1769 -47 ct 1803 -47 1831 -60 1853 -86 ct 
1876 -112 1887 -151 1887 -204 ct 1887 -254 1876 -292 1853 -317 ct 1830 -343 1802 -356 1769 -356 ct 
1735 -356 1706 -343 1684 -318 ct 1661 -292 1650 -253 1650 -202 ct p ef
2300 0 m  2300 0 2300 0 2300 -59 ct 2269 -14 2226 9 2172 9 ct 2149 9 2127 4 2106 -5 ct 
2085 -14 2070 -25 2060 -39 ct 2050 -53 2043 -70 2039 -90 ct 2036 -103 2035 -124 2035 -153 ct 
2035 -153 2035 -153 2035 -403 ct 2035 -403 2035 -403 2103 -403 ct 2103 -403 2103 -403 2103 -180 ct 
2103 -144 2104 -120 2107 -108 ct 2111 -90 2121 -76 2134 -65 ct 2148 -55 2166 -50 2186 -50 ct 
2207 -50 2226 -55 2244 -66 ct 2262 -76 2274 -91 2282 -109 ct 2289 -127 2293 -153 2293 -187 ct 
2293 -187 2293 -187 2293 -403 ct 2293 -403 2293 -403 2361 -403 ct 2361 -403 2361 -403 2361 0 ct 
2361 0 2361 0 2300 0 ct p ef
2617 -61 m  2617 -61 2617 -61 2626 -1 ct 2607 3 2590 5 2575 5 ct 2550 5 2531 1 2517 -7 ct 
2503 -15 2494 -25 2488 -38 ct 2483 -50 2480 -77 2480 -118 ct 2480 -118 2480 -118 2480 -350 ct 
2480 -350 2480 -350 2430 -350 ct 2430 -350 2430 -350 2430 -403 ct 2430 -403 2430 -403 2480 -403 ct 
2480 -403 2480 -403 2480 -503 ct 2480 -503 2480 -503 2548 -544 ct 2548 -544 2548 -544 2548 -403 ct 
2548 -403 2548 -403 2617 -403 ct 2617 -403 2617 -403 2617 -350 ct 2617 -350 2617 -350 2548 -350 ct 
2548 -350 2548 -350 2548 -115 ct 2548 -95 2549 -83 2552 -77 ct 2554 -72 2558 -67 2563 -64 ct 
2569 -61 2577 -59 2587 -59 ct 2595 -59 2605 -60 2617 -61 ct p ef
2900 0 m  2900 0 2900 0 2900 -556 ct 2900 -556 2900 -556 2968 -556 ct 2968 -556 2968 -556 2968 -356 ct 
3000 -393 3040 -412 3089 -412 ct 3119 -412 3144 -406 3167 -394 ct 3189 -383 3204 -366 3214 -346 ct 
3223 -325 3228 -295 3228 -255 ct 3228 -255 3228 -255 3228 0 ct 3228 0 3228 0 3160 0 ct 
3160 0 3160 0 3160 -255 ct 3160 -289 3153 -314 3138 -330 ct 3123 -345 3102 -353 3075 -353 ct 
3055 -353 3035 -348 3018 -337 ct 3000 -327 2987 -313 2979 -295 ct 2972 -277 2968 -252 2968 -220 ct 
2968 -220 2968 -220 2968 0 ct 2968 0 2968 0 2900 0 ct p ef
3329 155 m  3329 155 3329 155 3321 91 ct 3336 95 3349 97 3360 97 ct 3375 97 3388 94 3397 89 ct 
3406 84 3413 77 3419 68 ct 3423 61 3430 44 3440 17 ct 3441 14 3443 8 3446 1 ct 
3446 1 3446 1 3293 -403 ct 3293 -403 3293 -403 3366 -403 ct 3366 -403 3366 -403 3450 -170 ct 
3461 -140 3471 -109 3480 -77 ct 3488 -108 3497 -138 3508 -168 ct 3508 -168 3508 -168 3594 -403 ct 
3594 -403 3594 -403 3662 -403 ct 3662 -403 3662 -403 3510 7 ct 3493 51 3480 81 3471 98 ct 
3459 120 3445 137 3429 147 ct 3414 158 3395 163 3373 163 ct 3360 163 3345 160 3329 155 ct 
p ef
3784 0 m  3784 0 3784 0 3721 0 ct 3721 0 3721 0 3721 -556 ct 3721 -556 3721 -556 3789 -556 ct 
3789 -556 3789 -556 3789 -358 ct 3818 -394 3855 -412 3899 -412 ct 3924 -412 3948 -407 3970 -397 ct 
3992 -387 4010 -373 4024 -355 ct 4039 -337 4050 -315 4058 -289 ct 4066 -264 4070 -237 4070 -208 ct 
4070 -139 4053 -85 4019 -48 ct 3985 -10 3944 9 3896 9 ct 3848 9 3811 -11 3784 -50 ct 
3784 -50 3784 -50 3784 0 ct p
3782 -205 m  3782 -156 3789 -121 3802 -100 ct 3823 -65 3853 -47 3889 -47 ct 
3919 -47 3945 -60 3967 -86 ct 3989 -112 4000 -151 4000 -202 ct 4000 -255 3990 -293 3969 -318 ct 
3948 -343 3922 -356 3893 -356 ct 3863 -356 3837 -343 3815 -317 ct 3793 -291 3782 -254 3782 -205 ct 
p ef
4152 0 m  4152 0 4152 0 4152 -403 ct 4152 -403 4152 -403 4213 -403 ct 4213 -403 4213 -403 4213 -342 ct 
4229 -371 4243 -389 4257 -398 ct 4270 -407 4285 -412 4301 -412 ct 4324 -412 4347 -405 4371 -390 ct 
4371 -390 4371 -390 4347 -327 ct 4330 -337 4313 -342 4297 -342 ct 4282 -342 4269 -338 4257 -329 ct 
4245 -320 4236 -307 4231 -291 ct 4224 -267 4220 -240 4220 -211 ct 4220 -211 4220 -211 4220 0 ct 
4220 0 4220 0 4152 0 ct p ef
4412 -478 m  4412 -556 l  4480 -556 l  4480 -478 l  4412 -478 l  p
4412 0 m  4412 -403 l  4480 -403 l  4480 0 l  4412 0 l  p ef
4846 0 m  4846 0 4846 0 4846 -51 ct 4820 -11 4783 9 4733 9 ct 4701 9 4672 0 4645 -18 ct 
4618 -35 4597 -60 4582 -92 ct 4567 -123 4560 -160 4560 -201 ct 4560 -241 4567 -278 4580 -311 ct 
4593 -343 4614 -368 4640 -386 ct 4667 -403 4697 -412 4730 -412 ct 4754 -412 4776 -407 4795 -397 ct 
4814 -387 4829 -373 4841 -357 ct 4841 -357 4841 -357 4841 -556 ct 4841 -556 4841 -556 4909 -556 ct 
4909 -556 4909 -556 4909 0 ct 4909 0 4909 0 4846 0 ct p
4630 -201 m  4630 -150 4641 -111 4663 -85 ct 4685 -60 4710 -47 4740 -47 ct 4770 -47 4796 -59 4817 -84 ct 
4838 -108 4848 -145 4848 -196 ct 4848 -251 4837 -291 4816 -317 ct 4795 -343 4768 -356 4737 -356 ct 
4707 -356 4681 -344 4661 -319 ct 4640 -294 4630 -255 4630 -201 ct p ef
4990 -120 m  4990 -120 4990 -120 5057 -131 ct 5061 -104 5071 -83 5089 -69 ct 
5106 -54 5130 -47 5161 -47 ct 5193 -47 5216 -53 5231 -66 ct 5246 -79 5254 -94 5254 -111 ct 
5254 -127 5247 -139 5234 -148 ct 5224 -154 5201 -161 5164 -171 ct 5114 -183 5079 -194 5060 -204 ct 
5041 -213 5026 -226 5016 -242 ct 5006 -258 5001 -276 5001 -296 ct 5001 -314 5005 -331 5013 -346 ct 
5022 -361 5033 -374 5047 -384 ct 5058 -392 5072 -398 5090 -404 ct 5109 -409 5128 -412 5149 -412 ct 
5181 -412 5209 -407 5233 -398 ct 5256 -389 5274 -377 5285 -361 ct 5297 -346 5305 -325 5309 -299 ct 
5309 -299 5309 -299 5242 -290 ct 5239 -311 5230 -327 5216 -339 ct 5201 -350 5181 -356 5154 -356 ct 
5123 -356 5100 -351 5087 -340 ct 5074 -330 5067 -318 5067 -304 ct 5067 -295 5070 -287 5075 -280 ct 
5081 -273 5090 -267 5101 -262 ct 5108 -259 5128 -253 5162 -244 ct 5210 -231 5244 -221 5263 -213 ct 
5282 -204 5297 -192 5308 -177 ct 5319 -161 5324 -142 5324 -118 ct 5324 -96 5317 -74 5304 -54 ct 
5291 -34 5272 -19 5247 -8 ct 5222 3 5193 9 5162 9 ct 5110 9 5070 -2 5042 -24 ct 
5015 -45 4998 -77 4990 -120 ct p ef
pom
gr
gr
7955 4772 m  7377 4937 l  7394 4558 l  7955 4772 l  p ef
5558 4644 m  7500 4727 l  7498 4777 l  5556 4694 l  5558 4644 l  p ef
0.003 0.003 0.003 c 12025 2480 m  11635 2480 l  11635 1380 l  12415 1380 l 
12415 2480 l  12025 2480 l  pc
0.601 0.800 1.000 c 12025 2470 m  11645 2470 l  11645 1390 l  12405 1390 l 
12405 2470 l  12025 2470 l  p ef
0.003 0.003 0.003 c 12025 2470 m  11645 2470 l  11645 1390 l  12405 1390 l 
12405 2470 l  12025 2470 l  pc
12025 3580 m  11635 3580 l  11635 2480 l  12415 2480 l  12415 3580 l  12025 3580 l 
pc
0.601 0.800 1.000 c 12025 3570 m  11645 3570 l  11645 2490 l  12405 2490 l 
12405 3570 l  12025 3570 l  p ef
0.003 0.003 0.003 c 12025 3570 m  11645 3570 l  11645 2490 l  12405 2490 l 
12405 3570 l  12025 3570 l  pc
12785 2480 m  12395 2480 l  12395 1380 l  13175 1380 l  13175 2480 l  12785 2480 l 
pc
0.601 0.800 1.000 c 12785 2470 m  12405 2470 l  12405 1390 l  13165 1390 l 
13165 2470 l  12785 2470 l  p ef
0.003 0.003 0.003 c 12785 2470 m  12405 2470 l  12405 1390 l  13165 1390 l 
13165 2470 l  12785 2470 l  pc
12785 3580 m  12395 3580 l  12395 2480 l  13175 2480 l  13175 3580 l  12785 3580 l 
pc
0.601 0.800 1.000 c 12785 3570 m  12405 3570 l  12405 2490 l  13165 2490 l 
13165 3570 l  12785 3570 l  p ef
0.003 0.003 0.003 c 12785 3570 m  12405 3570 l  12405 2490 l  13165 2490 l 
13165 3570 l  12785 3570 l  pc
13540 2480 m  13150 2480 l  13150 1380 l  13930 1380 l  13930 2480 l  13540 2480 l 
pc
0.601 0.800 1.000 c 13540 2470 m  13160 2470 l  13160 1390 l  13920 1390 l 
13920 2470 l  13540 2470 l  p ef
0.003 0.003 0.003 c 13540 2470 m  13160 2470 l  13160 1390 l  13920 1390 l 
13920 2470 l  13540 2470 l  pc
13540 3580 m  13150 3580 l  13150 2480 l  13930 2480 l  13930 3580 l  13540 3580 l 
pc
0.601 0.800 1.000 c 13540 3570 m  13160 3570 l  13160 2490 l  13920 2490 l 
13920 3570 l  13540 3570 l  p ef
0.003 0.003 0.003 c 13540 3570 m  13160 3570 l  13160 2490 l  13920 2490 l 
13920 3570 l  13540 3570 l  pc
14295 2480 m  13905 2480 l  13905 1380 l  14685 1380 l  14685 2480 l  14295 2480 l 
pc
0.601 0.800 1.000 c 14295 2470 m  13915 2470 l  13915 1390 l  14675 1390 l 
14675 2470 l  14295 2470 l  p ef
0.003 0.003 0.003 c 14295 2470 m  13915 2470 l  13915 1390 l  14675 1390 l 
14675 2470 l  14295 2470 l  pc
14295 3580 m  13905 3580 l  13905 2480 l  14685 2480 l  14685 3580 l  14295 3580 l 
pc
0.601 0.800 1.000 c 14295 3570 m  13915 3570 l  13915 2490 l  14675 2490 l 
14675 3570 l  14295 3570 l  p ef
0.003 0.003 0.003 c 14295 3570 m  13915 3570 l  13915 2490 l  14675 2490 l 
14675 3570 l  14295 3570 l  pc
15050 2480 m  14660 2480 l  14660 1380 l  15440 1380 l  15440 2480 l  15050 2480 l 
pc
0.601 0.800 1.000 c 15050 2470 m  14670 2470 l  14670 1390 l  15430 1390 l 
15430 2470 l  15050 2470 l  p ef
0.003 0.003 0.003 c 15050 2470 m  14670 2470 l  14670 1390 l  15430 1390 l 
15430 2470 l  15050 2470 l  pc
15050 3580 m  14660 3580 l  14660 2480 l  15440 2480 l  15440 3580 l  15050 3580 l 
pc
0.601 0.800 1.000 c 15050 3570 m  14670 3570 l  14670 2490 l  15430 2490 l 
15430 3570 l  15050 3570 l  p ef
0.003 0.003 0.003 c 15050 3570 m  14670 3570 l  14670 2490 l  15430 2490 l 
15430 3570 l  15050 3570 l  pc
15805 2480 m  15415 2480 l  15415 1380 l  16195 1380 l  16195 2480 l  15805 2480 l 
pc
0.601 0.800 1.000 c 15805 2470 m  15425 2470 l  15425 1390 l  16185 1390 l 
16185 2470 l  15805 2470 l  p ef
0.003 0.003 0.003 c 15805 2470 m  15425 2470 l  15425 1390 l  16185 1390 l 
16185 2470 l  15805 2470 l  pc
15805 3580 m  15415 3580 l  15415 2480 l  16195 2480 l  16195 3580 l  15805 3580 l 
pc
0.601 0.800 1.000 c 15805 3570 m  15425 3570 l  15425 2490 l  16185 2490 l 
16185 3570 l  15805 3570 l  p ef
0.003 0.003 0.003 c 15805 3570 m  15425 3570 l  15425 2490 l  16185 2490 l 
16185 3570 l  15805 3570 l  pc
16560 2480 m  16170 2480 l  16170 1380 l  16950 1380 l  16950 2480 l  16560 2480 l 
pc
0.601 0.800 1.000 c 16560 2470 m  16180 2470 l  16180 1390 l  16940 1390 l 
16940 2470 l  16560 2470 l  p ef
0.003 0.003 0.003 c 16560 2470 m  16180 2470 l  16180 1390 l  16940 1390 l 
16940 2470 l  16560 2470 l  pc
16560 3580 m  16170 3580 l  16170 2480 l  16950 2480 l  16950 3580 l  16560 3580 l 
pc
0.601 0.800 1.000 c 16560 3570 m  16180 3570 l  16180 2490 l  16940 2490 l 
16940 3570 l  16560 3570 l  p ef
0.003 0.003 0.003 c 16560 3570 m  16180 3570 l  16180 2490 l  16940 2490 l 
16940 3570 l  16560 3570 l  pc
0.003 0.722 1.000 c 12035 3580 m  12425 3580 l  12425 3980 l  11645 3980 l 
11645 3580 l  12035 3580 l  p ef
gs
1 lw 0 lj 0.003 0.003 0.503 c 11645 3652 m  11717 3580 l  ps
11645 3764 m  11829 3580 l  ps
11645 3876 m  11941 3580 l  ps
11653 3980 m  12053 3580 l  ps
11765 3980 m  12165 3580 l  ps
11877 3980 m  12277 3580 l  ps
11989 3980 m  12389 3580 l  ps
12101 3980 m  12425 3656 l  ps
12213 3980 m  12425 3768 l  ps
12325 3980 m  12425 3880 l  ps
12317 3580 m  12425 3688 l  ps
12205 3580 m  12425 3800 l  ps
12093 3580 m  12425 3912 l  ps
11981 3580 m  12381 3980 l  ps
11869 3580 m  12269 3980 l  ps
11757 3580 m  12157 3980 l  ps
11645 3580 m  12045 3980 l  ps
11645 3692 m  11933 3980 l  ps
11645 3804 m  11821 3980 l  ps
11645 3916 m  11709 3980 l  ps
gr
0.003 0.003 0.003 c 12035 3580 m  12425 3580 l  12425 3980 l  11645 3980 l 
11645 3580 l  12035 3580 l  pc
0.003 0.722 1.000 c 12785 3580 m  13175 3580 l  13175 3980 l  12395 3980 l 
12395 3580 l  12785 3580 l  p ef
gs
1 lw 0 lj 0.003 0.003 0.503 c 12395 3652 m  12467 3580 l  ps
12395 3764 m  12579 3580 l  ps
12395 3876 m  12691 3580 l  ps
12403 3980 m  12803 3580 l  ps
12515 3980 m  12915 3580 l  ps
12627 3980 m  13027 3580 l  ps
12739 3980 m  13139 3580 l  ps
12851 3980 m  13175 3656 l  ps
12963 3980 m  13175 3768 l  ps
13075 3980 m  13175 3880 l  ps
13067 3580 m  13175 3688 l  ps
12955 3580 m  13175 3800 l  ps
12843 3580 m  13175 3912 l  ps
12731 3580 m  13131 3980 l  ps
12619 3580 m  13019 3980 l  ps
12507 3580 m  12907 3980 l  ps
12395 3580 m  12795 3980 l  ps
12395 3692 m  12683 3980 l  ps
12395 3804 m  12571 3980 l  ps
12395 3916 m  12459 3980 l  ps
gr
0.003 0.003 0.003 c 12785 3580 m  13175 3580 l  13175 3980 l  12395 3980 l 
12395 3580 l  12785 3580 l  pc
0.003 0.722 1.000 c 13540 3580 m  13930 3580 l  13930 3980 l  13150 3980 l 
13150 3580 l  13540 3580 l  p ef
gs
1 lw 0 lj 0.003 0.003 0.503 c 13150 3652 m  13222 3580 l  ps
13150 3764 m  13334 3580 l  ps
13150 3876 m  13446 3580 l  ps
13158 3980 m  13558 3580 l  ps
13270 3980 m  13670 3580 l  ps
13382 3980 m  13782 3580 l  ps
13494 3980 m  13894 3580 l  ps
13606 3980 m  13930 3656 l  ps
13718 3980 m  13930 3768 l  ps
13830 3980 m  13930 3880 l  ps
13822 3580 m  13930 3688 l  ps
13710 3580 m  13930 3800 l  ps
13598 3580 m  13930 3912 l  ps
13486 3580 m  13886 3980 l  ps
13374 3580 m  13774 3980 l  ps
13262 3580 m  13662 3980 l  ps
13150 3580 m  13550 3980 l  ps
13150 3692 m  13438 3980 l  ps
13150 3804 m  13326 3980 l  ps
13150 3916 m  13214 3980 l  ps
gr
0.003 0.003 0.003 c 13540 3580 m  13930 3580 l  13930 3980 l  13150 3980 l 
13150 3580 l  13540 3580 l  pc
0.003 0.722 1.000 c 14295 3580 m  14685 3580 l  14685 3980 l  13905 3980 l 
13905 3580 l  14295 3580 l  p ef
gs
1 lw 0 lj 0.003 0.003 0.503 c 13905 3652 m  13977 3580 l  ps
13905 3764 m  14089 3580 l  ps
13905 3876 m  14201 3580 l  ps
13913 3980 m  14313 3580 l  ps
14025 3980 m  14425 3580 l  ps
14137 3980 m  14537 3580 l  ps
14249 3980 m  14649 3580 l  ps
14361 3980 m  14685 3656 l  ps
14473 3980 m  14685 3768 l  ps
14585 3980 m  14685 3880 l  ps
14577 3580 m  14685 3688 l  ps
14465 3580 m  14685 3800 l  ps
14353 3580 m  14685 3912 l  ps
14241 3580 m  14641 3980 l  ps
14129 3580 m  14529 3980 l  ps
14017 3580 m  14417 3980 l  ps
13905 3580 m  14305 3980 l  ps
13905 3692 m  14193 3980 l  ps
13905 3804 m  14081 3980 l  ps
13905 3916 m  13969 3980 l  ps
gr
0.003 0.003 0.003 c 14295 3580 m  14685 3580 l  14685 3980 l  13905 3980 l 
13905 3580 l  14295 3580 l  pc
0.003 0.722 1.000 c 15050 3580 m  15440 3580 l  15440 3980 l  14660 3980 l 
14660 3580 l  15050 3580 l  p ef
gs
1 lw 0 lj 0.003 0.003 0.503 c 14660 3652 m  14732 3580 l  ps
14660 3764 m  14844 3580 l  ps
14660 3876 m  14956 3580 l  ps
14668 3980 m  15068 3580 l  ps
14780 3980 m  15180 3580 l  ps
14892 3980 m  15292 3580 l  ps
15004 3980 m  15404 3580 l  ps
15116 3980 m  15440 3656 l  ps
15228 3980 m  15440 3768 l  ps
15340 3980 m  15440 3880 l  ps
15332 3580 m  15440 3688 l  ps
15220 3580 m  15440 3800 l  ps
15108 3580 m  15440 3912 l  ps
14996 3580 m  15396 3980 l  ps
14884 3580 m  15284 3980 l  ps
14772 3580 m  15172 3980 l  ps
14660 3580 m  15060 3980 l  ps
14660 3692 m  14948 3980 l  ps
14660 3804 m  14836 3980 l  ps
14660 3916 m  14724 3980 l  ps
gr
0.003 0.003 0.003 c 15050 3580 m  15440 3580 l  15440 3980 l  14660 3980 l 
14660 3580 l  15050 3580 l  pc
0.003 0.722 1.000 c 15805 3580 m  16195 3580 l  16195 3980 l  15415 3980 l 
15415 3580 l  15805 3580 l  p ef
gs
1 lw 0 lj 0.003 0.003 0.503 c 15415 3652 m  15487 3580 l  ps
15415 3764 m  15599 3580 l  ps
15415 3876 m  15711 3580 l  ps
15423 3980 m  15823 3580 l  ps
15535 3980 m  15935 3580 l  ps
15647 3980 m  16047 3580 l  ps
15759 3980 m  16159 3580 l  ps
15871 3980 m  16195 3656 l  ps
15983 3980 m  16195 3768 l  ps
16095 3980 m  16195 3880 l  ps
16087 3580 m  16195 3688 l  ps
15975 3580 m  16195 3800 l  ps
15863 3580 m  16195 3912 l  ps
15751 3580 m  16151 3980 l  ps
15639 3580 m  16039 3980 l  ps
15527 3580 m  15927 3980 l  ps
15415 3580 m  15815 3980 l  ps
15415 3692 m  15703 3980 l  ps
15415 3804 m  15591 3980 l  ps
15415 3916 m  15479 3980 l  ps
gr
0.003 0.003 0.003 c 15805 3580 m  16195 3580 l  16195 3980 l  15415 3980 l 
15415 3580 l  15805 3580 l  pc
0.003 0.722 1.000 c 16560 3580 m  16950 3580 l  16950 3980 l  16170 3980 l 
16170 3580 l  16560 3580 l  p ef
gs
1 lw 0 lj 0.003 0.003 0.503 c 16170 3652 m  16242 3580 l  ps
16170 3764 m  16354 3580 l  ps
16170 3876 m  16466 3580 l  ps
16178 3980 m  16578 3580 l  ps
16290 3980 m  16690 3580 l  ps
16402 3980 m  16802 3580 l  ps
16514 3980 m  16914 3580 l  ps
16626 3980 m  16950 3656 l  ps
16738 3980 m  16950 3768 l  ps
16850 3980 m  16950 3880 l  ps
16842 3580 m  16950 3688 l  ps
16730 3580 m  16950 3800 l  ps
16618 3580 m  16950 3912 l  ps
16506 3580 m  16906 3980 l  ps
16394 3580 m  16794 3980 l  ps
16282 3580 m  16682 3980 l  ps
16170 3580 m  16570 3980 l  ps
16170 3692 m  16458 3980 l  ps
16170 3804 m  16346 3980 l  ps
16170 3916 m  16234 3980 l  ps
gr
0.003 0.003 0.003 c 16560 3580 m  16950 3580 l  16950 3980 l  16170 3980 l 
16170 3580 l  16560 3580 l  pc
4750 2480 m  4360 2480 l  4360 1380 l  5140 1380 l  5140 2480 l  4750 2480 l 
pc
0.601 0.800 1.000 c 4750 2470 m  4370 2470 l  4370 1390 l  5130 1390 l 
5130 2470 l  4750 2470 l  p ef
0.003 0.003 0.003 c 4750 2470 m  4370 2470 l  4370 1390 l  5130 1390 l  5130 2470 l 
4750 2470 l  pc
4750 3580 m  4360 3580 l  4360 2480 l  5140 2480 l  5140 3580 l  4750 3580 l 
pc
0.601 0.800 1.000 c 4750 3570 m  4370 3570 l  4370 2490 l  5130 2490 l 
5130 3570 l  4750 3570 l  p ef
0.003 0.003 0.003 c 4750 3570 m  4370 3570 l  4370 2490 l  5130 2490 l  5130 3570 l 
4750 3570 l  pc
5505 2480 m  5115 2480 l  5115 1380 l  5895 1380 l  5895 2480 l  5505 2480 l 
pc
0.601 0.800 1.000 c 5505 2470 m  5125 2470 l  5125 1390 l  5885 1390 l 
5885 2470 l  5505 2470 l  p ef
0.003 0.003 0.003 c 5505 2470 m  5125 2470 l  5125 1390 l  5885 1390 l  5885 2470 l 
5505 2470 l  pc
5505 3580 m  5115 3580 l  5115 2480 l  5895 2480 l  5895 3580 l  5505 3580 l 
pc
0.601 0.800 1.000 c 5505 3570 m  5125 3570 l  5125 2490 l  5885 2490 l 
5885 3570 l  5505 3570 l  p ef
0.003 0.003 0.003 c 5505 3570 m  5125 3570 l  5125 2490 l  5885 2490 l  5885 3570 l 
5505 3570 l  pc
6260 2480 m  5870 2480 l  5870 1380 l  6650 1380 l  6650 2480 l  6260 2480 l 
pc
0.601 0.800 1.000 c 6260 2470 m  5880 2470 l  5880 1390 l  6640 1390 l 
6640 2470 l  6260 2470 l  p ef
0.003 0.003 0.003 c 6260 2470 m  5880 2470 l  5880 1390 l  6640 1390 l  6640 2470 l 
6260 2470 l  pc
6260 3580 m  5870 3580 l  5870 2480 l  6650 2480 l  6650 3580 l  6260 3580 l 
pc
0.601 0.800 1.000 c 6260 3570 m  5880 3570 l  5880 2490 l  6640 2490 l 
6640 3570 l  6260 3570 l  p ef
0.003 0.003 0.003 c 6260 3570 m  5880 3570 l  5880 2490 l  6640 2490 l  6640 3570 l 
6260 3570 l  pc
7007 2480 m  6617 2480 l  6617 1380 l  7397 1380 l  7397 2480 l  7007 2480 l 
pc
0.601 0.800 1.000 c 7007 2470 m  6627 2470 l  6627 1390 l  7387 1390 l 
7387 2470 l  7007 2470 l  p ef
0.003 0.003 0.003 c 7007 2470 m  6627 2470 l  6627 1390 l  7387 1390 l  7387 2470 l 
7007 2470 l  pc
7007 3580 m  6617 3580 l  6617 2480 l  7397 2480 l  7397 3580 l  7007 3580 l 
pc
0.601 0.800 1.000 c 7007 3570 m  6627 3570 l  6627 2490 l  7387 2490 l 
7387 3570 l  7007 3570 l  p ef
0.003 0.003 0.003 c 7007 3570 m  6627 3570 l  6627 2490 l  7387 2490 l  7387 3570 l 
7007 3570 l  pc
7770 2480 m  7380 2480 l  7380 1380 l  8160 1380 l  8160 2480 l  7770 2480 l 
pc
0.601 0.800 1.000 c 7770 2470 m  7390 2470 l  7390 1390 l  8150 1390 l 
8150 2470 l  7770 2470 l  p ef
0.003 0.003 0.003 c 7770 2470 m  7390 2470 l  7390 1390 l  8150 1390 l  8150 2470 l 
7770 2470 l  pc
7770 3580 m  7380 3580 l  7380 2480 l  8160 2480 l  8160 3580 l  7770 3580 l 
pc
0.601 0.800 1.000 c 7770 3570 m  7390 3570 l  7390 2490 l  8150 2490 l 
8150 3570 l  7770 3570 l  p ef
0.003 0.003 0.003 c 7770 3570 m  7390 3570 l  7390 2490 l  8150 2490 l  8150 3570 l 
7770 3570 l  pc
8525 2480 m  8135 2480 l  8135 1380 l  8915 1380 l  8915 2480 l  8525 2480 l 
pc
0.601 0.800 1.000 c 8525 2470 m  8145 2470 l  8145 1390 l  8905 1390 l 
8905 2470 l  8525 2470 l  p ef
0.003 0.003 0.003 c 8525 2470 m  8145 2470 l  8145 1390 l  8905 1390 l  8905 2470 l 
8525 2470 l  pc
8525 3580 m  8135 3580 l  8135 2480 l  8915 2480 l  8915 3580 l  8525 3580 l 
pc
0.601 0.800 1.000 c 8525 3570 m  8145 3570 l  8145 2490 l  8905 2490 l 
8905 3570 l  8525 3570 l  p ef
0.003 0.003 0.003 c 8525 3570 m  8145 3570 l  8145 2490 l  8905 2490 l  8905 3570 l 
8525 3570 l  pc
9285 2480 m  8895 2480 l  8895 1380 l  9675 1380 l  9675 2480 l  9285 2480 l 
pc
0.601 0.800 1.000 c 9285 2470 m  8905 2470 l  8905 1390 l  9665 1390 l 
9665 2470 l  9285 2470 l  p ef
0.003 0.003 0.003 c 9285 2470 m  8905 2470 l  8905 1390 l  9665 1390 l  9665 2470 l 
9285 2470 l  pc
9285 3580 m  8895 3580 l  8895 2480 l  9675 2480 l  9675 3580 l  9285 3580 l 
pc
0.601 0.800 1.000 c 9285 3570 m  8905 3570 l  8905 2490 l  9665 2490 l 
9665 3570 l  9285 3570 l  p ef
0.003 0.003 0.003 c 9285 3570 m  8905 3570 l  8905 2490 l  9665 2490 l  9665 3570 l 
9285 3570 l  pc
0.003 0.722 1.000 c 4750 3580 m  5140 3580 l  5140 3980 l  4360 3980 l  4360 3580 l 
4750 3580 l  p ef
gs
1 lw 0 lj 0.003 0.003 0.503 c 4360 3652 m  4432 3580 l  ps
4360 3764 m  4544 3580 l  ps
4360 3876 m  4656 3580 l  ps
4368 3980 m  4768 3580 l  ps
4480 3980 m  4880 3580 l  ps
4592 3980 m  4992 3580 l  ps
4704 3980 m  5104 3580 l  ps
4816 3980 m  5140 3656 l  ps
4928 3980 m  5140 3768 l  ps
5040 3980 m  5140 3880 l  ps
5032 3580 m  5140 3688 l  ps
4920 3580 m  5140 3800 l  ps
4808 3580 m  5140 3912 l  ps
4696 3580 m  5096 3980 l  ps
4584 3580 m  4984 3980 l  ps
4472 3580 m  4872 3980 l  ps
4360 3580 m  4760 3980 l  ps
4360 3692 m  4648 3980 l  ps
4360 3804 m  4536 3980 l  ps
4360 3916 m  4424 3980 l  ps
gr
0.003 0.003 0.003 c 4750 3580 m  5140 3580 l  5140 3980 l  4360 3980 l  4360 3580 l 
4750 3580 l  pc
0.003 0.722 1.000 c 5505 3580 m  5895 3580 l  5895 3980 l  5115 3980 l  5115 3580 l 
5505 3580 l  p ef
gs
1 lw 0 lj 0.003 0.003 0.503 c 5115 3652 m  5187 3580 l  ps
5115 3764 m  5299 3580 l  ps
5115 3876 m  5411 3580 l  ps
5123 3980 m  5523 3580 l  ps
5235 3980 m  5635 3580 l  ps
5347 3980 m  5747 3580 l  ps
5459 3980 m  5859 3580 l  ps
5571 3980 m  5895 3656 l  ps
5683 3980 m  5895 3768 l  ps
5795 3980 m  5895 3880 l  ps
5787 3580 m  5895 3688 l  ps
5675 3580 m  5895 3800 l  ps
5563 3580 m  5895 3912 l  ps
5451 3580 m  5851 3980 l  ps
5339 3580 m  5739 3980 l  ps
5227 3580 m  5627 3980 l  ps
5115 3580 m  5515 3980 l  ps
5115 3692 m  5403 3980 l  ps
5115 3804 m  5291 3980 l  ps
5115 3916 m  5179 3980 l  ps
gr
0.003 0.003 0.003 c 5505 3580 m  5895 3580 l  5895 3980 l  5115 3980 l  5115 3580 l 
5505 3580 l  pc
0.003 0.722 1.000 c 6260 3580 m  6650 3580 l  6650 3980 l  5870 3980 l  5870 3580 l 
6260 3580 l  p ef
gs
1 lw 0 lj 0.003 0.003 0.503 c 5870 3652 m  5942 3580 l  ps
5870 3764 m  6054 3580 l  ps
5870 3876 m  6166 3580 l  ps
5878 3980 m  6278 3580 l  ps
5990 3980 m  6390 3580 l  ps
6102 3980 m  6502 3580 l  ps
6214 3980 m  6614 3580 l  ps
6326 3980 m  6650 3656 l  ps
6438 3980 m  6650 3768 l  ps
6550 3980 m  6650 3880 l  ps
6542 3580 m  6650 3688 l  ps
6430 3580 m  6650 3800 l  ps
6318 3580 m  6650 3912 l  ps
6206 3580 m  6606 3980 l  ps
6094 3580 m  6494 3980 l  ps
5982 3580 m  6382 3980 l  ps
5870 3580 m  6270 3980 l  ps
5870 3692 m  6158 3980 l  ps
5870 3804 m  6046 3980 l  ps
5870 3916 m  5934 3980 l  ps
gr
0.003 0.003 0.003 c 6260 3580 m  6650 3580 l  6650 3980 l  5870 3980 l  5870 3580 l 
6260 3580 l  pc
0.003 0.722 1.000 c 7007 3580 m  7397 3580 l  7397 3980 l  6617 3980 l  6617 3580 l 
7007 3580 l  p ef
gs
1 lw 0 lj 0.003 0.003 0.503 c 6617 3652 m  6689 3580 l  ps
6617 3764 m  6801 3580 l  ps
6617 3876 m  6913 3580 l  ps
6625 3980 m  7025 3580 l  ps
6737 3980 m  7137 3580 l  ps
6849 3980 m  7249 3580 l  ps
6961 3980 m  7361 3580 l  ps
7073 3980 m  7397 3656 l  ps
7185 3980 m  7397 3768 l  ps
7297 3980 m  7397 3880 l  ps
7289 3580 m  7397 3688 l  ps
7177 3580 m  7397 3800 l  ps
7065 3580 m  7397 3912 l  ps
6953 3580 m  7353 3980 l  ps
6841 3580 m  7241 3980 l  ps
6729 3580 m  7129 3980 l  ps
6617 3580 m  7017 3980 l  ps
6617 3692 m  6905 3980 l  ps
6617 3804 m  6793 3980 l  ps
6617 3916 m  6681 3980 l  ps
gr
0.003 0.003 0.003 c 7007 3580 m  7397 3580 l  7397 3980 l  6617 3980 l  6617 3580 l 
7007 3580 l  pc
0.003 0.722 1.000 c 7770 3580 m  8160 3580 l  8160 3980 l  7380 3980 l  7380 3580 l 
7770 3580 l  p ef
gs
1 lw 0 lj 0.003 0.003 0.503 c 7380 3652 m  7452 3580 l  ps
7380 3764 m  7564 3580 l  ps
7380 3876 m  7676 3580 l  ps
7388 3980 m  7788 3580 l  ps
7500 3980 m  7900 3580 l  ps
7612 3980 m  8012 3580 l  ps
7724 3980 m  8124 3580 l  ps
7836 3980 m  8160 3656 l  ps
7948 3980 m  8160 3768 l  ps
8060 3980 m  8160 3880 l  ps
8052 3580 m  8160 3688 l  ps
7940 3580 m  8160 3800 l  ps
7828 3580 m  8160 3912 l  ps
7716 3580 m  8116 3980 l  ps
7604 3580 m  8004 3980 l  ps
7492 3580 m  7892 3980 l  ps
7380 3580 m  7780 3980 l  ps
7380 3692 m  7668 3980 l  ps
7380 3804 m  7556 3980 l  ps
7380 3916 m  7444 3980 l  ps
gr
0.003 0.003 0.003 c 7770 3580 m  8160 3580 l  8160 3980 l  7380 3980 l  7380 3580 l 
7770 3580 l  pc
0.003 0.722 1.000 c 8525 3580 m  8915 3580 l  8915 3980 l  8135 3980 l  8135 3580 l 
8525 3580 l  p ef
gs
1 lw 0 lj 0.003 0.003 0.503 c 8135 3652 m  8207 3580 l  ps
8135 3764 m  8319 3580 l  ps
8135 3876 m  8431 3580 l  ps
8143 3980 m  8543 3580 l  ps
8255 3980 m  8655 3580 l  ps
8367 3980 m  8767 3580 l  ps
8479 3980 m  8879 3580 l  ps
8591 3980 m  8915 3656 l  ps
8703 3980 m  8915 3768 l  ps
8815 3980 m  8915 3880 l  ps
8807 3580 m  8915 3688 l  ps
8695 3580 m  8915 3800 l  ps
8583 3580 m  8915 3912 l  ps
8471 3580 m  8871 3980 l  ps
8359 3580 m  8759 3980 l  ps
8247 3580 m  8647 3980 l  ps
8135 3580 m  8535 3980 l  ps
8135 3692 m  8423 3980 l  ps
8135 3804 m  8311 3980 l  ps
8135 3916 m  8199 3980 l  ps
gr
0.003 0.003 0.003 c 8525 3580 m  8915 3580 l  8915 3980 l  8135 3980 l  8135 3580 l 
8525 3580 l  pc
0.003 0.722 1.000 c 9275 3580 m  9665 3580 l  9665 3980 l  8885 3980 l  8885 3580 l 
9275 3580 l  p ef
gs
1 lw 0 lj 0.003 0.003 0.503 c 8885 3652 m  8957 3580 l  ps
8885 3764 m  9069 3580 l  ps
8885 3876 m  9181 3580 l  ps
8893 3980 m  9293 3580 l  ps
9005 3980 m  9405 3580 l  ps
9117 3980 m  9517 3580 l  ps
9229 3980 m  9629 3580 l  ps
9341 3980 m  9665 3656 l  ps
9453 3980 m  9665 3768 l  ps
9565 3980 m  9665 3880 l  ps
9557 3580 m  9665 3688 l  ps
9445 3580 m  9665 3800 l  ps
9333 3580 m  9665 3912 l  ps
9221 3580 m  9621 3980 l  ps
9109 3580 m  9509 3980 l  ps
8997 3580 m  9397 3980 l  ps
8885 3580 m  9285 3980 l  ps
8885 3692 m  9173 3980 l  ps
8885 3804 m  9061 3980 l  ps
8885 3916 m  8949 3980 l  ps
gr
0.003 0.003 0.003 c 9275 3580 m  9665 3580 l  9665 3980 l  8885 3980 l  8885 3580 l 
9275 3580 l  pc
100 lw 0.140 0.140 0.863 c 5145 1181 m  5055 1181 4965 1271 4965 1361 ct 4965 1361 4965 1361 4965 3998 ct 
4965 4088 5055 4179 5145 4179 ct 5145 4179 5145 4179 5867 4179 ct 5957 4179 6048 4088 6048 3998 ct 
6048 3998 6048 3998 6048 1361 ct 6048 1271 5957 1181 5867 1181 ct 5867 1181 5867 1181 5145 1181 ct 
pc
4892 2681 m  4323 2873 l  4321 2493 l  4892 2681 l  p ef
3201 2662 m  4436 2658 l  4436 2708 l  3201 2712 l  3201 2662 l  p ef
gr
gs
0 0 m 19999 0 l 19999 7499 l 0 7499 l 0 0 l eoclip newpath
gr
gr
0 7500 t 
pom
count op_count sub {pop} repeat countdictstack dict_count sub {end} repeat b4_inc_state restore
%%PageTrailer
%%Trailer
%%EOF
