<?xml version="1.0" encoding="UTF-8" standalone="no"?>
<!-- Created with Inkscape (http://www.inkscape.org/) -->

<svg
   xmlns:dc="http://purl.org/dc/elements/1.1/"
   xmlns:cc="http://creativecommons.org/ns#"
   xmlns:rdf="http://www.w3.org/1999/02/22-rdf-syntax-ns#"
   xmlns:svg="http://www.w3.org/2000/svg"
   xmlns="http://www.w3.org/2000/svg"
   xmlns:xlink="http://www.w3.org/1999/xlink"
   xmlns:sodipodi="http://sodipodi.sourceforge.net/DTD/sodipodi-0.dtd"
   xmlns:inkscape="http://www.inkscape.org/namespaces/inkscape"
   id="svg2"
   version="1.1"
   inkscape:version="0.48.2 r9819"
   width="761.09998"
   height="528"
   xml:space="preserve"
   sodipodi:docname="trigger-schematic-dave.pdf"><metadata
     id="metadata8"><rdf:RDF><cc:Work
         rdf:about=""><dc:format>image/svg+xml</dc:format><dc:type
           rdf:resource="http://purl.org/dc/dcmitype/StillImage" /><dc:title></dc:title></cc:Work></rdf:RDF></metadata><defs
     id="defs6"><clipPath
       clipPathUnits="userSpaceOnUse"
       id="clipPath16"><path
         d="m 0,-0.2 793.6,0 0,595.2 L 0,595 0,-0.2 z"
         clip-rule="evenodd"
         id="path18"
         inkscape:connector-curvature="0" /></clipPath><clipPath
       clipPathUnits="userSpaceOnUse"
       id="clipPath26"><path
         d="m 0,-0.2 793.7,0 0,595.2 L 0,595 0,-0.2 z"
         clip-rule="evenodd"
         id="path28"
         inkscape:connector-curvature="0" /></clipPath><mask
       maskUnits="userSpaceOnUse"
       x="0"
       y="0"
       width="1"
       height="1"
       id="mask56"
       maskTransform="scale(135,93)"><image
         width="1"
         height="1"
         xlink:href="data:image/png;base64,iVBORw0KGgoAAAANSUhEUgAAAIcAAABdCAAAAACqKSqfAAAAAXNCSVQI5gpbmQAAAGZJREFUaIHtzrEBABAAwDD8/zOLpRcwJBdk7vGF9TpweZRHeZRHeZRHeZRHeZRHeZRHeZRHeZRHeZRHeZRHeZRHeZRHeZRHeZRHeZRHeZRHeZRHeZRHeZRHeZRHeZRHeZRHedQvjwNdtgG5NInvPwAAAABJRU5ErkJggg=="
         id="image58" /></mask><clipPath
       clipPathUnits="userSpaceOnUse"
       id="clipPath70"><path
         d="m 0,-0.2 793.6,0 0,595.2 L 0,595 0,-0.2 z"
         clip-rule="evenodd"
         id="path72"
         inkscape:connector-curvature="0" /></clipPath></defs><sodipodi:namedview
     pagecolor="#ffffff"
     bordercolor="#666666"
     borderopacity="1"
     objecttolerance="10"
     gridtolerance="10"
     guidetolerance="10"
     inkscape:pageopacity="0"
     inkscape:pageshadow="2"
     inkscape:window-width="1920"
     inkscape:window-height="1144"
     id="namedview4"
     showgrid="false"
     fit-margin-top="0"
     fit-margin-left="0"
     fit-margin-right="0"
     fit-margin-bottom="0"
     inkscape:zoom="1.2692437"
     inkscape:cx="370.71536"
     inkscape:cy="240.6138"
     inkscape:window-x="-4"
     inkscape:window-y="-3"
     inkscape:window-maximized="1"
     inkscape:current-layer="g10" /><g
     id="g10"
     inkscape:groupmode="layer"
     inkscape:label="LHCb-TALK-2012-089"
     transform="matrix(1.25,0,0,-1.25,-202.40027,665.0188)"><path
       d="m 378.37881,289.41504 c -3.4,0 -6.8,-3.4 -6.8,-6.8 l 0,-27.2 c 0,-3.4 3.4,-6.9 6.8,-6.9 l 184.9,0 c 3.4,0 6.8,3.5 6.8,6.9 l 0,27.2 c 0,3.4 -3.4,6.8 -6.8,6.8 l -184.9,0 z"
       style="fill:#999999;fill-opacity:1;fill-rule:evenodd;stroke:none"
       id="path80"
       inkscape:connector-curvature="0" /><g
       id="g82"
       transform="translate(-2.5211866,10.715043)"><path
         d="m 405.3,467.4 0,-18.7"
         style="fill:none;stroke:#000080;stroke-width:5.69999981;stroke-linecap:butt;stroke-linejoin:miter;stroke-miterlimit:10;stroke-opacity:1;stroke-dasharray:none"
         id="path84"
         inkscape:connector-curvature="0" /></g><path
       d="m 402.87881,447.01504 8.4,13.5 -17,0 8.6,-13.5 z"
       style="fill:#000080;fill-opacity:1;fill-rule:evenodd;stroke:none"
       id="path86"
       inkscape:connector-curvature="0" /><path
       d="m 380.07881,438.51504 c -4.2,0 -8.5,-4.3 -8.5,-8.5 l 0,-34.1 c 0,-4.2 4.3,-8.5 8.5,-8.5 l 45.4,0 c 4.3,0 8.5,4.3 8.5,8.5 l 0,34.1 c 0,4.2 -4.2,8.5 -8.5,8.5 l -45.4,0 z"
       style="fill:#6ea19b;fill-opacity:1;fill-rule:evenodd;stroke:none"
       id="path88"
       inkscape:connector-curvature="0" /><path
       d="m 379.67881,238.41504 c -3.4,0 -6.8,-3.4 -6.8,-6.8 l 0,-27.3 c 0,-3.4 3.4,-6.8 6.8,-6.8 l 184.8,0 c 3.4,0 6.8,3.4 6.8,6.8 l 0,27.3 c 0,3.4 -3.4,6.8 -6.8,6.8 l -184.8,0 z"
       style="fill:#ff8080;fill-opacity:1;fill-rule:evenodd;stroke:none"
       id="path90"
       inkscape:connector-curvature="0" /><path
       d="m 379.67881,340.41504 c -3.4,0 -6.8,-3.4 -6.8,-6.8 l 0,-27.2 c 0,-3.4 3.4,-6.8 6.8,-6.8 l 184.8,0 c 3.4,0 6.8,3.4 6.8,6.8 l 0,27.2 c 0,3.4 -3.4,6.8 -6.8,6.8 l -184.8,0 z"
       style="fill:#ffcc99;fill-opacity:1;fill-rule:evenodd;stroke:none"
       id="path92"
       inkscape:connector-curvature="0" /><g
       id="g94"
       transform="translate(-2.5211866,10.715043)"><text
         transform="matrix(1,0,0,-1,444.4,300.9)"
         id="text96"><tspan
           style="font-size:24px;font-variant:normal;font-weight:bold;writing-mode:lr-tb;fill:#ffffff;fill-opacity:1;fill-rule:nonzero;stroke:none;font-family:Albany AMT;-inkscape-font-specification:AlbanyAMT-Bold"
           x="0 17.304001 30.096001 44.688"
           y="0"
           sodipodi:role="line"
           id="tspan98">HLT1</tspan></text>
</g><path
       d="m 379.07881,532.01504 c -3.7,0 -7.5,-3.7 -7.5,-7.5 l 0,-29.8 c 0,-3.8 3.8,-7.5 7.5,-7.5 l 183.5,0 c 3.7,0 7.5,3.7 7.5,7.5 l 0,29.8 c 0,3.8 -3.8,7.5 -7.5,7.5 l -183.5,0 z"
       style="fill:#99ccff;fill-opacity:1;fill-rule:evenodd;stroke:none"
       id="path100"
       inkscape:connector-curvature="0" /><g
       id="g102"
       transform="translate(-2.5211866,10.715043)"><text
         transform="matrix(1,0,0,-1,424.7,490.8)"
         id="text104"><tspan
           style="font-size:24px;font-variant:normal;font-weight:bold;writing-mode:lr-tb;fill:#ffffff;fill-opacity:1;fill-rule:nonzero;stroke:none;font-family:Albany AMT;-inkscape-font-specification:AlbanyAMT-Bold"
           x="0 17.304001 30.6 38.591999 51.888 65.255997 73.248001 87.839996"
           y="0"
           sodipodi:role="line"
           id="tspan106">Detector</tspan></text>
</g><g
       id="g108"
       transform="translate(-2.5211866,10.715043)"><text
         transform="matrix(1,0,0,-1,387.9,253.9)"
         id="text110"><tspan
           style="font-size:16px;font-variant:normal;font-weight:bold;writing-mode:lr-tb;fill:#ffffff;fill-opacity:1;fill-rule:nonzero;stroke:none;font-family:Albany AMT;-inkscape-font-specification:AlbanyAMT-Bold"
           x="0 12.4 16.799999 26.496 36.192001 45.088001 49.487999 53.967999 65.472 74.367996 83.264 92.959999 102.656 111.552 116.848 123.04 132.73599 141.632 146.92799 151.328 161.024"
           y="0"
           sodipodi:role="line"
           id="tspan112">Global Reconstruction</tspan></text>
</g><g
       id="g114"
       transform="translate(-2.5211866,10.715043)"><text
         transform="matrix(1,0,0,-1,444.4,198.4)"
         id="text116"><tspan
           style="font-size:24px;font-variant:normal;font-weight:bold;writing-mode:lr-tb;fill:#ffffff;fill-opacity:1;fill-rule:nonzero;stroke:none;font-family:Albany AMT;-inkscape-font-specification:AlbanyAMT-Bold"
           x="0 17.304001 30.096001 44.591999"
           y="0"
           sodipodi:role="line"
           id="tspan118">HLT2</tspan></text>
</g><path
       d="m 379.67881,150.51504 c -3.4,0 -6.8,-3.4 -6.8,-6.8 l 0,-27.2 c 0,-3.4 3.4,-6.9 6.8,-6.9 l 184.8,0 c 3.4,0 6.8,3.5 6.8,6.9 l 0,27.2 c 0,3.4 -3.4,6.8 -6.8,6.8 l -184.8,0 z"
       style="fill:#993366;fill-opacity:1;fill-rule:evenodd;stroke:none"
       id="path120"
       inkscape:connector-curvature="0" /><g
       id="g122"
       transform="translate(-2.5211866,10.715043)"><path
         d="m 473.4,467.4 0,-18.7"
         style="fill:none;stroke:#000080;stroke-width:5.69999981;stroke-linecap:butt;stroke-linejoin:miter;stroke-miterlimit:10;stroke-opacity:1;stroke-dasharray:none"
         id="path124"
         inkscape:connector-curvature="0" /></g><path
       d="m 470.87881,447.01504 8.5,13.5 -17,0 8.5,-13.5 z"
       style="fill:#000080;fill-opacity:1;fill-rule:evenodd;stroke:none"
       id="path126"
       inkscape:connector-curvature="0" /><g
       id="g128"
       transform="translate(-2.5211866,10.715043)"><path
         d="m 541.4,467.4 0,-18.7"
         style="fill:none;stroke:#000080;stroke-width:5.69999981;stroke-linecap:butt;stroke-linejoin:miter;stroke-miterlimit:10;stroke-opacity:1;stroke-dasharray:none"
         id="path130"
         inkscape:connector-curvature="0" /></g><path
       d="m 538.87881,447.01504 8.5,13.5 -17,0 8.5,-13.5 z"
       style="fill:#000080;fill-opacity:1;fill-rule:evenodd;stroke:none"
       id="path132"
       inkscape:connector-curvature="0" /><g
       id="g134"
       transform="translate(-2.5211866,10.715043)"><path
         d="m 405.3,368.2 0,-18.7"
         style="fill:none;stroke:#000080;stroke-width:5.69999981;stroke-linecap:butt;stroke-linejoin:miter;stroke-miterlimit:10;stroke-opacity:1;stroke-dasharray:none"
         id="path136"
         inkscape:connector-curvature="0" /></g><path
       d="m 402.87881,347.71504 8.4,13.6 -17,0 8.6,-13.6 z"
       style="fill:#000080;fill-opacity:1;fill-rule:evenodd;stroke:none"
       id="path138"
       inkscape:connector-curvature="0" /><g
       id="g140"
       transform="translate(-2.5211866,10.715043)"><path
         d="m 473.4,368.2 0,-18.7"
         style="fill:none;stroke:#000080;stroke-width:5.69999981;stroke-linecap:butt;stroke-linejoin:miter;stroke-miterlimit:10;stroke-opacity:1;stroke-dasharray:none"
         id="path142"
         inkscape:connector-curvature="0" /></g><path
       d="m 470.87881,347.71504 8.5,13.6 -17,0 8.5,-13.6 z"
       style="fill:#000080;fill-opacity:1;fill-rule:evenodd;stroke:none"
       id="path144"
       inkscape:connector-curvature="0" /><g
       id="g146"
       transform="translate(-2.5211866,10.715043)"><path
         d="m 541.4,368.2 0,-18.7"
         style="fill:none;stroke:#000080;stroke-width:5.69999981;stroke-linecap:butt;stroke-linejoin:miter;stroke-miterlimit:10;stroke-opacity:1;stroke-dasharray:none"
         id="path148"
         inkscape:connector-curvature="0" /></g><path
       d="m 538.87881,347.71504 8.5,13.6 -17,0 8.5,-13.6 z"
       style="fill:#000080;fill-opacity:1;fill-rule:evenodd;stroke:none"
       id="path150"
       inkscape:connector-curvature="0" /><g
       id="g152"
       transform="translate(-2.5211866,10.715043)"><path
         d="m 473.4,178.3 0,-18.7"
         style="fill:none;stroke:#000080;stroke-width:5.69999981;stroke-linecap:butt;stroke-linejoin:miter;stroke-miterlimit:10;stroke-opacity:1;stroke-dasharray:none"
         id="path154"
         inkscape:connector-curvature="0" /></g><path
       d="m 470.87881,157.81504 8.5,13.6 -17,0 8.5,-13.6 z"
       style="fill:#000080;fill-opacity:1;fill-rule:evenodd;stroke:none"
       id="path156"
       inkscape:connector-curvature="0" /><path
       d="m 448.17881,438.51504 c -4.3,0 -8.6,-4.3 -8.6,-8.5 l 0,-34.1 c 0,-4.2 4.3,-8.5 8.6,-8.5 l 45.3,0 c 4.3,0 8.5,4.3 8.5,8.5 l 0,34.1 c 0,4.2 -4.2,8.5 -8.5,8.5 l -45.3,0 z"
       style="fill:#6ea19b;fill-opacity:1;fill-rule:evenodd;stroke:none"
       id="path158"
       inkscape:connector-curvature="0" /><path
       d="m 516.17881,438.51504 c -4.3,0 -8.5,-4.3 -8.5,-8.5 l 0,-34.1 c 0,-4.2 4.2,-8.5 8.5,-8.5 l 45.3,0 c 4.3,0 8.6,4.3 8.6,8.5 l 0,34.1 c 0,4.2 -4.3,8.5 -8.6,8.5 l -45.3,0 z"
       style="fill:#6ea19b;fill-opacity:1;fill-rule:evenodd;stroke:none"
       id="path160"
       inkscape:connector-curvature="0" /><g
       id="g162"
       transform="translate(-2.5211866,10.715043)"><text
         transform="matrix(1,0,0,-1,419.9,115)"
         id="text164"><tspan
           style="font-size:16px;font-variant:normal;font-weight:bold;writing-mode:lr-tb;fill:#ffffff;fill-opacity:1;fill-rule:nonzero;stroke:none;font-family:Albany AMT;-inkscape-font-specification:AlbanyAMT-Bold"
           x="0 10.688 19.184 28.08 37.776001 43.071999 47.472 58.16 63.360001 73.152 79.344002 88.239998 97.935997"
           y="0"
           sodipodi:role="line"
           id="tspan166">Event Storage</tspan></text>
</g><g
       id="g168"
       transform="translate(-2.5211866,10.715043)"><text
         transform="matrix(1,0,0,-1,465.2,405.2)"
         id="text170"><tspan
           style="font-size:14px;font-variant:normal;font-weight:bold;writing-mode:lr-tb;fill:#ffffff;fill-opacity:1;fill-rule:nonzero;stroke:none;font-family:Albany AMT;-inkscape-font-specification:AlbanyAMT-Bold"
           x="0 8.4980001"
           y="0"
           sodipodi:role="line"
           id="tspan172">L0</tspan></text>
</g><g
       id="g174"
       transform="translate(-2.5211866,10.715043)"><text
         transform="matrix(1,0,0,-1,448.8,389.5)"
         id="text176"><tspan
           style="font-size:14px;font-variant:normal;font-weight:bold;writing-mode:lr-tb;fill:#ffffff;fill-opacity:1;fill-rule:nonzero;stroke:none;font-family:Albany AMT;-inkscape-font-specification:AlbanyAMT-Bold"
           x="0 10.192 17.976 26.474001 31.962 40.543999"
           y="0"
           sodipodi:role="line"
           id="tspan178">Hadron</tspan></text>
</g><g
       id="g180"
       transform="translate(-2.5211866,10.715043)"><text
         transform="matrix(1,0,0,-1,533.2,407.1)"
         id="text182"><tspan
           style="font-size:14px;font-variant:normal;font-weight:bold;writing-mode:lr-tb;fill:#ffffff;fill-opacity:1;fill-rule:nonzero;stroke:none;font-family:Albany AMT;-inkscape-font-specification:AlbanyAMT-Bold"
           x="0 8.5819998"
           y="0"
           sodipodi:role="line"
           id="tspan184">L0</tspan></text>
</g><g
       id="g186"
       transform="translate(-2.5211866,10.715043)"><text
         transform="matrix(1,0,0,-1,528.2,388)"
         id="text188"><tspan
           style="font-size:14px;font-variant:normal;font-weight:bold;writing-mode:lr-tb;fill:#ffffff;fill-opacity:1;fill-rule:nonzero;stroke:none;font-family:Albany AMT;-inkscape-font-specification:AlbanyAMT-Bold"
           x="0 7.7839999 11.774"
           y="0"
           sodipodi:role="line"
           id="tspan190">e, </tspan></text>
</g><g
       id="g192"
       transform="translate(-2.5211866,10.715043)"><text
         transform="matrix(1,0,0,-1,544,388)"
         id="text194"><tspan
           style="font-size:16px;font-variant:normal;font-weight:normal;writing-mode:lr-tb;fill:#ffffff;fill-opacity:1;fill-rule:nonzero;stroke:none;font-family:Symbol;-inkscape-font-specification:Symbol"
           x="0"
           y="0"
           id="tspan196">γ</tspan></text>
</g><g
       id="g198"
       transform="translate(-2.5211866,10.715043)" /><g
       id="g200"
       transform="translate(-2.5211866,10.715043)"><text
         transform="matrix(1,0,0,-1,397.2,405.2)"
         id="text202"><tspan
           style="font-size:14px;font-variant:normal;font-weight:bold;writing-mode:lr-tb;fill:#ffffff;fill-opacity:1;fill-rule:nonzero;stroke:none;font-family:Albany AMT;-inkscape-font-specification:AlbanyAMT-Bold"
           x="0 8.5819998"
           y="0"
           sodipodi:role="line"
           id="tspan204">L0</tspan></text>
</g><g
       id="g206"
       transform="translate(-2.5211866,10.715043)" /><g
       id="g208"
       transform="translate(-2.5211866,10.715043)"><text
         transform="matrix(1,0,0,-1,401,389.4)"
         id="text210"><tspan
           style="font-size:14px;font-variant:normal;font-weight:bold;writing-mode:lr-tb;fill:#ffffff;fill-opacity:1;fill-rule:nonzero;stroke:none;font-family:Albany AMT;-inkscape-font-specification:AlbanyAMT-Bold"
           x="0"
           y="0"
           id="tspan212">μ</tspan></text>
</g><g
       id="g214"
       transform="translate(-2.5211866,10.715043)" /><g
       id="g216"
       transform="translate(-2.5211866,10.715043)"><path
         d="m 352.9,188.2 -28.3,0"
         style="fill:none;stroke:#6b2394;stroke-width:2.82999992;stroke-linecap:butt;stroke-linejoin:round;stroke-miterlimit:10;stroke-opacity:1;stroke-dasharray:none"
         id="path218"
         inkscape:connector-curvature="0" /></g><g
       id="g220"
       transform="translate(-2.5211866,10.715043)"><path
         d="m 326,330 0,-141.8"
         style="fill:none;stroke:#6b2394;stroke-width:2.82999992;stroke-linecap:butt;stroke-linejoin:round;stroke-miterlimit:10;stroke-opacity:1;stroke-dasharray:none"
         id="path222"
         inkscape:connector-curvature="0" /></g><g
       id="g224"
       transform="translate(-2.5211866,10.715043)"><path
         d="m 352.9,330 -28.3,0"
         style="fill:none;stroke:#6b2394;stroke-width:2.82999992;stroke-linecap:butt;stroke-linejoin:round;stroke-miterlimit:10;stroke-opacity:1;stroke-dasharray:none"
         id="path226"
         inkscape:connector-curvature="0" /></g><g
       id="g228"
       transform="translate(-2.5211866,10.715043)"><path
         d="m 326,260.5 -11.4,0"
         style="fill:none;stroke:#6b2394;stroke-width:2.82999992;stroke-linecap:butt;stroke-linejoin:round;stroke-miterlimit:10;stroke-opacity:1;stroke-dasharray:none"
         id="path230"
         inkscape:connector-curvature="0" /></g><g
       id="g232"
       transform="translate(-2.5211866,10.715043)"><text
         transform="matrix(1,0,0,-1,163,279.5)"
         id="text234"><tspan
           style="font-size:18px;font-variant:normal;font-weight:normal;writing-mode:lr-tb;fill:#4c4c4c;fill-opacity:1;fill-rule:nonzero;stroke:none;font-family:Albany AMT;-inkscape-font-specification:AlbanyAMT"
           x="0 12.906 16.902 26.91 36.810001 41.886002 51.785999 61.793999 70.793999 80.802002 84.708 89.405998 99.809998 105.804 109.8 119.808 129.70799 139.716"
           y="0"
           sodipodi:role="line"
           id="tspan236">High Level Trigger</tspan></text>
</g><g
       id="g238"
       transform="translate(-2.5211866,10.715043)"><text
         transform="matrix(1,0,0,-1,196,259.4)"
         id="text240"><tspan
           style="font-size:18px;font-variant:normal;font-weight:normal;writing-mode:lr-tb;fill:#4c4c4c;fill-opacity:1;fill-rule:nonzero;stroke:none;font-family:Albany AMT;-inkscape-font-specification:AlbanyAMT"
           x="0 6.0840001 14.976 24.983999 29.969999 35.046001 47.646 57.546001 63.630001 73.529999"
           y="0"
           sodipodi:role="line"
           id="tspan242">(software)</tspan></text>
</g><g
       id="g244"
       transform="translate(-2.5211866,10.715043)"><text
         transform="matrix(1,0,0,-1,176,404.2)"
         id="text246"><tspan
           style="font-size:18px;font-variant:normal;font-weight:normal;writing-mode:lr-tb;fill:#4c4c4c;fill-opacity:1;fill-rule:nonzero;stroke:none;font-family:Albany AMT;-inkscape-font-specification:AlbanyAMT"
           x="0 10.008 20.016001 28.908001 38.916 42.911999 48.905998 58.806 63.504002 73.998001 79.902 83.898003 93.905998 103.806 113.814"
           y="0"
           sodipodi:role="line"
           id="tspan248">Level-0 Trigger</tspan></text>
</g><g
       id="g250"
       transform="translate(-2.5211866,10.715043)"><text
         transform="matrix(1,0,0,-1,192.7,384.1)"
         id="text252"><tspan
           style="font-size:18px;font-variant:normal;font-weight:normal;writing-mode:lr-tb;fill:#4c4c4c;fill-opacity:1;fill-rule:nonzero;stroke:none;font-family:Albany AMT;-inkscape-font-specification:AlbanyAMT"
           x="0 5.994 16.002001 25.902 31.896 41.903999 54.504002 64.512001 70.505997 80.405998"
           y="0"
           sodipodi:role="line"
           id="tspan254">(hardware)</tspan></text>
</g><g
       id="g256"
       transform="translate(-2.5211866,10.715043)"><text
         transform="matrix(1,0,0,-1,589.7,444.5)"
         id="text258"><tspan
           style="font-size:20px;font-variant:normal;font-weight:bold;writing-mode:lr-tb;fill:#b84700;fill-opacity:1;fill-rule:nonzero;stroke:none;font-family:Albany AMT;-inkscape-font-specification:AlbanyAMT-Bold"
           x="0 11.1 22.280001 27.780001 44.66 59.139999"
           y="0"
           sodipodi:role="line"
           id="tspan260">40 MHz</tspan></text>
</g><g
       id="g262"
       transform="translate(-2.5211866,10.715043)"><text
         transform="matrix(1,0,0,-1,591.3,345.2)"
         id="text264"><tspan
           style="font-size:20px;font-variant:normal;font-weight:bold;writing-mode:lr-tb;fill:#b84700;fill-opacity:1;fill-rule:nonzero;stroke:none;font-family:Albany AMT;-inkscape-font-specification:AlbanyAMT-Bold"
           x="0 11.18 16.68 33.560001 48.040001 58.119999 63.619999 70.300003 88.080002 99.260002 110.36"
           y="0"
           sodipodi:role="line"
           id="tspan266">1 MHz (max)</tspan></text>
</g><g
       id="g268"
       transform="translate(-2.5211866,10.715043)"><text
         transform="matrix(1,0,0,-1,589.7,251.2)"
         id="text270"><tspan
           style="font-size:20px;font-variant:normal;font-weight:bold;writing-mode:lr-tb;fill:#b84700;fill-opacity:1;fill-rule:nonzero;stroke:none;font-family:Albany AMT;-inkscape-font-specification:AlbanyAMT-Bold"
           x="0 11.18 22.360001 27.860001 39.040001 53.52"
           y="0"
           sodipodi:role="line"
           id="tspan272">30 kHz</tspan></text>
</g><g
       id="g274"
       transform="translate(-2.5211866,10.715043)"><text
         transform="matrix(1,0,0,-1,589.2,155.3)"
         id="text276"><tspan
           style="font-size:20px;font-variant:normal;font-weight:bold;writing-mode:lr-tb;fill:#b84700;fill-opacity:1;fill-rule:nonzero;stroke:none;font-family:Albany AMT;-inkscape-font-specification:AlbanyAMT-Bold"
           x="0 11.18 17.860001 29.040001 34.540001 45.720001 60.200001"
           y="0"
           sodipodi:role="line"
           id="tspan278">3-4 kHz</tspan></text>
</g><g
       id="g280"
       transform="translate(-2.5211866,10.715043)"><text
         transform="matrix(1,0,0,-1,590.9,109.5)"
         id="text282"><tspan
           style="font-size:20px;font-variant:normal;font-weight:bold;writing-mode:lr-tb;fill:#4c4c4c;fill-opacity:1;fill-rule:nonzero;stroke:none;font-family:Albany AMT;-inkscape-font-specification:AlbanyAMT-Bold"
           x="0 11.78 22.879999 34.060001 39.560001 50.740002 65.220001 70.720001 81.900002 92.800003 103.9 116.18"
           y="0"
           sodipodi:role="line"
           id="tspan284">~50 kB event</tspan></text>
</g><g
       id="g286"
       transform="translate(-2.5211866,10.715043)"><text
         transform="matrix(1,0,0,-1,713.9,116.1)"
         id="text288"><tspan
           style="font-size:11.60000038px;font-variant:normal;font-weight:bold;writing-mode:lr-tb;fill:#4c4c4c;fill-opacity:1;fill-rule:nonzero;stroke:none;font-family:Albany AMT;-inkscape-font-specification:AlbanyAMT-Bold"
           x="0 3.8048"
           y="0"
           sodipodi:role="line"
           id="tspan290">-1</tspan></text>
</g><g
       id="g292"
       transform="translate(-2.5211866,10.715043)"><text
         transform="matrix(1,0,0,-1,590.9,398.6)"
         id="text294"><tspan
           style="font-size:20px;font-variant:normal;font-weight:bold;writing-mode:lr-tb;fill:#4c4c4c;fill-opacity:1;fill-rule:nonzero;stroke:none;font-family:Albany AMT;-inkscape-font-specification:AlbanyAMT-Bold"
           x="0 14.48 19.98 32.259998 44.459999 49.959999"
           y="0"
           sodipodi:role="line"
           id="tspan296">High P</tspan></text>
</g><g
       id="g298"
       transform="translate(-2.5211866,10.715043)"><text
         transform="matrix(1,0,0,-1,654.2,392.1)"
         id="text300"><tspan
           style="font-size:11.60000038px;font-variant:normal;font-weight:bold;writing-mode:lr-tb;fill:#4c4c4c;fill-opacity:1;fill-rule:nonzero;stroke:none;font-family:Albany AMT;-inkscape-font-specification:AlbanyAMT-Bold"
           x="0"
           y="0"
           id="tspan302">T</tspan></text>
</g><g
       id="g304"
       transform="translate(-2.5211866,10.715043)"><text
         transform="matrix(1,0,0,-1,666.6,398.6)"
         id="text306"><tspan
           style="font-size:20px;font-variant:normal;font-weight:bold;writing-mode:lr-tb;fill:#4c4c4c;fill-opacity:1;fill-rule:nonzero;stroke:none;font-family:Albany AMT;-inkscape-font-specification:AlbanyAMT-Bold"
           x="0 11.1 22.280001 34.48 46.759998 52.259998 64.459999 75.639999 82.32 93.5"
           y="0"
           sodipodi:role="line"
           id="tspan308">candidates</tspan></text>
</g><g
       id="g310"
       transform="translate(-2.5211866,10.715043)"><text
         transform="matrix(1,0,0,-1,588.5,312.4)"
         id="text312"><tspan
           style="font-size:16px;font-variant:normal;font-weight:bold;writing-mode:lr-tb;fill:#4c4c4c;fill-opacity:1;fill-rule:nonzero;stroke:none;font-family:Albany AMT;-inkscape-font-specification:AlbanyAMT-Bold"
           x="0 11.504 15.984 25.68 35.375999 39.776001"
           y="0"
           sodipodi:role="line"
           id="tspan314">High P</tspan></text>
</g><g
       id="g316"
       transform="translate(-2.5211866,10.715043)"><text
         transform="matrix(1,0,0,-1,639,307.2)"
         id="text318"><tspan
           style="font-size:9.30000019px;font-variant:normal;font-weight:bold;writing-mode:lr-tb;fill:#4c4c4c;fill-opacity:1;fill-rule:nonzero;stroke:none;font-family:Albany AMT;-inkscape-font-specification:AlbanyAMT-Bold"
           x="0"
           y="0"
           id="tspan320">T</tspan></text>
</g><g
       id="g322"
       transform="translate(-2.5211866,10.715043)"><text
         transform="matrix(1,0,0,-1,649.1,312.4)"
         id="text324"><tspan
           style="font-size:16px;font-variant:normal;font-weight:bold;writing-mode:lr-tb;fill:#4c4c4c;fill-opacity:1;fill-rule:nonzero;stroke:none;font-family:Albany AMT;-inkscape-font-specification:AlbanyAMT-Bold"
           x="0 9.6960001 14.176 22.976 32.672001 37.152 46.048 54.944 63.743999 73.536003 77.935997 83.232002 89.424004 98.32 107.216 116.112"
           y="0"
           sodipodi:role="line"
           id="tspan326">displaced tracks</tspan></text>
</g><g
       id="g328"
       transform="translate(-2.5211866,10.715043)"><text
         transform="matrix(1,0,0,-1,588.5,290.8)"
         id="text330"><tspan
           style="font-size:16px;font-variant:normal;font-weight:bold;writing-mode:lr-tb;fill:#4c4c4c;fill-opacity:1;fill-rule:nonzero;stroke:none;font-family:Albany AMT;-inkscape-font-specification:AlbanyAMT-Bold"
           x="0 5.296 14.992 23.888 30.08 35.375999 39.776001 48.672001 53.152 57.551998 63.743999 72.639999 81.536003 91.232002 100.928 109.824 115.12 121.312 131.104 139.90401 145.2 149.67999 159.37601 169.07201"
           y="0"
           sodipodi:role="line"
           id="tspan332">(partial reconstruction)</tspan></text>
</g><g
       id="g334"
       transform="translate(-2.5211866,10.715043)"><text
         transform="matrix(1,0,0,-1,585.6,212.6)"
         id="text336"><tspan
           style="font-size:16px;font-variant:normal;font-weight:bold;writing-mode:lr-tb;fill:#4c4c4c;fill-opacity:1;fill-rule:nonzero;stroke:none;font-family:Albany AMT;-inkscape-font-specification:AlbanyAMT-Bold"
           x="0 11.504 21.200001 30.896 36.192001 40.591999 50.383999 60.080002 66.272003 75.167999 84.863998 89.344002 98.143997 102.624 107.024 116.72 125.616 130.01601 139.808 148.608 153.088 161.584"
           y="0"
           sodipodi:role="line"
           id="tspan338">Configurable inclusive</tspan></text>
</g><g
       id="g340"
       transform="translate(-2.5211866,10.715043)"><text
         transform="matrix(1,0,0,-1,585.6,194.8)"
         id="text342"><tspan
           style="font-size:16px;font-variant:normal;font-weight:bold;writing-mode:lr-tb;fill:#4c4c4c;fill-opacity:1;fill-rule:nonzero;stroke:none;font-family:Albany AMT;-inkscape-font-specification:AlbanyAMT-Bold"
           x="0 9.2959995 13.776 22.576 31.472 40.368 44.768002 54.464001 63.360001 67.839996 76.335999 85.232002 89.632004 98.528 107.424 111.824 120.72 129.616 134.912 139.312 149.008 158.70399"
           y="0"
           sodipodi:role="line"
           id="tspan344">+ exclusive selections</tspan></text>
</g><g
       id="g346"
       transform="translate(-2.5211866,10.715043)"><path
         d="m 327.4,427.8 0,-48.2"
         style="fill:none;stroke:#6b2394;stroke-width:2.82999992;stroke-linecap:butt;stroke-linejoin:round;stroke-miterlimit:10;stroke-opacity:1;stroke-dasharray:none"
         id="path348"
         inkscape:connector-curvature="0" /></g><g
       id="g350"
       transform="translate(-2.5211866,10.715043)"><path
         d="m 354.3,379.6 -28.3,0"
         style="fill:none;stroke:#6b2394;stroke-width:2.82999992;stroke-linecap:butt;stroke-linejoin:round;stroke-miterlimit:10;stroke-opacity:1;stroke-dasharray:none"
         id="path352"
         inkscape:connector-curvature="0" /></g><g
       id="g354"
       transform="translate(-2.5211866,10.715043)"><path
         d="m 354.3,426.3 -26.9,0"
         style="fill:none;stroke:#6b2394;stroke-width:2.82999992;stroke-linecap:butt;stroke-linejoin:round;stroke-miterlimit:10;stroke-opacity:1;stroke-dasharray:none"
         id="path356"
         inkscape:connector-curvature="0" /></g><g
       id="g358"
       transform="translate(-2.5211866,10.715043)"><path
         d="m 327.4,403 -11.3,0"
         style="fill:none;stroke:#6b2394;stroke-width:2.82999992;stroke-linecap:butt;stroke-linejoin:round;stroke-miterlimit:10;stroke-opacity:1;stroke-dasharray:none"
         id="path360"
         inkscape:connector-curvature="0" /></g></g></svg>