%!PS-Adobe-2.0 EPSF-2.0
%%BoundingBox:  0 0 248 737
%%Title: PullPlot_DsPi_Time_Signal_Bs2DsPi_deltaD.eps: pullcanvassignal_Bs2DsPi_deltaD
%%Creator: ROOT Version 5.34/09
%%CreationDate: Thu Aug 29 11:46:13 2013
%%EndComments
%%BeginProlog
80 dict begin
/s {stroke} def /l {lineto} def /m {moveto} def /t {translate} def
/r {rotate} def /rl {roll}  def /R {repeat} def
/d {rlineto} def /rm {rmoveto} def /gr {grestore} def /f {eofill} def
/c {setrgbcolor} def /black {0 setgray} def /sd {setdash} def
/cl {closepath} def /sf {scalefont setfont} def /lw {setlinewidth} def
/box {m dup 0 exch d exch 0 d 0 exch neg d cl} def
/NC{systemdict begin initclip end}def/C{NC box clip newpath}def
/bl {box s} def /bf {box f} def /Y { 0 exch d} def /X { 0 d} def 
/K {{pop pop 0 moveto} exch kshow} bind def
/ita {/ang 15 def gsave [1 0 ang dup sin exch cos div 1 0 0] concat} def 
/mp {newpath /y exch def /x exch def} def
/side {[w .77 mul w .23 mul] .385 w mul sd w 0 l currentpoint t -144 r} def
/mr {mp x y w2 0 360 arc} def /m24 {mr s} def /m20 {mr f} def
/mb {mp x y w2 add m w2 neg 0 d 0 w neg d w 0 d 0 w d cl} def
/mt {mp x y w2 add m w2 neg w neg d w 0 d cl} def
/m21 {mb f} def /m25 {mb s} def /m22 {mt f} def /m26{mt s} def
/m23 {mp x y w2 sub m w2 w d w neg 0 d cl f} def
/m27 {mp x y w2 add m w3 neg w2 neg d w3 w2 neg d w3 w2 d cl s} def
/m28 {mp x w2 sub y w2 sub w3 add m w3 0 d  0 w3 neg d w3 0 d 0 w3 d w3 0 d  0 w3 d w3 neg 0 d 0 w3 d w3 neg 0 d 0 w3 neg d w3 neg 0 d cl s } def
/m29 {mp gsave x w2 sub y w2 add w3 sub m currentpoint t 4 {side} repeat cl fill gr} def
/m30 {mp gsave x w2 sub y w2 add w3 sub m currentpoint t 4 {side} repeat cl s gr} def
/m31 {mp x y w2 sub m 0 w d x w2 sub y m w 0 d x w2 sub y w2 add m w w neg d x w2 sub y w2 sub m w w d s} def
/m32 {mp x y w2 sub m w2 w d w neg 0 d cl s} def
/m33 {mp x y w2 add m w3 neg w2 neg d w3 w2 neg d w3 w2 d cl f} def
/m34 {mp x w2 sub y w2 sub w3 add m w3 0 d  0 w3 neg d w3 0 d 0 w3 d w3 0 d  0 w3 d w3 neg 0 d 0 w3 d w3 neg 0 d 0 w3 neg d w3 neg 0 d cl f } def
/m2 {mp x y w2 sub m 0 w d x w2 sub y m w 0 d s} def
/m5 {mp x w2 sub y w2 sub m w w d x w2 sub y w2 add m w w neg d s} def
/reEncode {exch findfont dup length dict begin {1 index /FID eq  {pop pop} {def} ifelse } forall /Encoding exch def currentdict end dup /FontName get exch definefont pop } def [/Times-Bold /Times-Italic /Times-BoldItalic /Helvetica /Helvetica-Oblique
 /Helvetica-Bold /Helvetica-BoldOblique /Courier /Courier-Oblique /Courier-Bold /Courier-BoldOblique /Times-Roman /AvantGarde-Book /AvantGarde-BookOblique /AvantGarde-Demi /AvantGarde-DemiOblique /Bookman-Demi /Bookman-DemiItalic /Bookman-Light
 /Bookman-LightItalic /Helvetica-Narrow /Helvetica-Narrow-Bold /Helvetica-Narrow-BoldOblique /Helvetica-Narrow-Oblique /NewCenturySchlbk-Roman /NewCenturySchlbk-Bold /NewCenturySchlbk-BoldItalic /NewCenturySchlbk-Italic /Palatino-Bold
 /Palatino-BoldItalic /Palatino-Italic /Palatino-Roman ] {ISOLatin1Encoding reEncode } forall
%%EndProlog
%%BeginSetup
%%EndSetup
newpath  gsave  .25 .25 scale  gsave  0 0 t black[  ] 0 sd 9 lw 1 1 1 c 993 2948 0 0 bf black 1 1 1 c 973 924 10 1995 bf black 1 1 1 c 789 729 146 2143 bf black 789 729 146 2143 bl 1 1 1 c black 148 2145 m 251 X 2 Y 15 X 10 Y 16 X 9 Y 16 X 62 Y 16 X
 104 Y 15 X 90 Y 16 X 160 Y 16 X 71 Y 16 X 185 Y 15 X -29 Y 16 X -151 Y 16 X -104 Y 16 X -161 Y 16 X -132 Y 15 X -24 Y 16 X -61 Y 16 X -10 Y 16 X -21 Y 15 X 2 Y 16 X -2 Y 237 X s 146 2143 m 789 X s
 gsave  973 924 10 1995 C 592.811 2034.78 t 0 r /Helvetica-Bold findfont 52.0968 sf 0 0 m (D Fitted value) show NC gr 
 gsave  973 924 10 1995 C 560.767 2034.78 t 0 r /Symbol findfont 52.0968 sf 0 0 m (D) show NC gr  146 2165 m -22 Y s 196 2154 m -11 Y s 245 2154 m -11 Y s 294 2154 m -11 Y s 343 2165 m -22 Y s 393 2154 m -11 Y s 442 2154 m -11 Y s 491 2154 m -11 Y s
 540 2165 m -22 Y s 590 2154 m -11 Y s 639 2154 m -11 Y s 688 2154 m -11 Y s 738 2165 m -22 Y s 787 2154 m -11 Y s 836 2154 m -11 Y s 885 2154 m -11 Y s 935 2165 m -22 Y s 146 2165 m -22 Y s
 gsave  973 924 10 1995 C 108.148 2092.86 t 0 r /Helvetica-Bold findfont 44.0819 sf 0 0 m (\2550.4) show NC gr 
 gsave  973 924 10 1995 C 304.416 2092.86 t 0 r /Helvetica-Bold findfont 44.0819 sf 0 0 m (\2550.2) show NC gr 
 gsave  973 924 10 1995 C 526.72 2092.86 t 0 r /Helvetica-Bold findfont 44.0819 sf 0 0 m (0) show NC gr 
 gsave  973 924 10 1995 C 706.967 2092.86 t 0 r /Helvetica-Bold findfont 44.0819 sf 0 0 m (0.2) show NC gr 
 gsave  973 924 10 1995 C 903.235 2092.86 t 0 r /Helvetica-Bold findfont 44.0819 sf 0 0 m (0.4) show NC gr  146 2872 m 789 X s 146 2850 m 22 Y s 196 2861 m 11 Y s 245 2861 m 11 Y s 294 2861 m 11 Y s 343 2850 m 22 Y s 393 2861 m 11 Y s 442 2861 m 11 Y
 s 491 2861 m 11 Y s 540 2850 m 22 Y s 590 2861 m 11 Y s 639 2861 m 11 Y s 688 2861 m 11 Y s 738 2850 m 22 Y s 787 2861 m 11 Y s 836 2861 m 11 Y s 885 2861 m 11 Y s 935 2850 m 22 Y s 146 2850 m 22 Y s 146 2143 m 729 Y s
 gsave  973 924 10 1995 C 66.0904 2561.5 t 90 r /Helvetica-Bold findfont 52.0968 sf 0 0 m (Experiments) show NC gr  169 2143 m -23 X s 158 2166 m -12 X s 158 2190 m -12 X s 158 2214 m -12 X s 169 2237 m -23 X s 158 2261 m -12 X s 158 2284 m -12 X s
 158 2308 m -12 X s 169 2332 m -23 X s 158 2355 m -12 X s 158 2379 m -12 X s 158 2403 m -12 X s 169 2426 m -23 X s 158 2450 m -12 X s 158 2474 m -12 X s 158 2497 m -12 X s 169 2521 m -23 X s 158 2544 m -12 X s 158 2568 m -12 X s 158 2592 m -12 X s
 169 2615 m -23 X s 158 2639 m -12 X s 158 2663 m -12 X s 158 2686 m -12 X s 169 2710 m -23 X s 158 2734 m -12 X s 158 2757 m -12 X s 158 2781 m -12 X s 169 2805 m -23 X s 169 2805 m -23 X s 158 2828 m -12 X s 158 2852 m -12 X s
 gsave  973 924 10 1995 C 116.159 2126.91 t 0 r /Helvetica-Bold findfont 44.0819 sf 0 0 m (0) show NC gr 
 gsave  973 924 10 1995 C 92.126 2223.04 t 0 r /Helvetica-Bold findfont 44.0819 sf 0 0 m (20) show NC gr 
 gsave  973 924 10 1995 C 92.126 2317.17 t 0 r /Helvetica-Bold findfont 44.0819 sf 0 0 m (40) show NC gr 
 gsave  973 924 10 1995 C 92.126 2411.3 t 0 r /Helvetica-Bold findfont 44.0819 sf 0 0 m (60) show NC gr 
 gsave  973 924 10 1995 C 92.126 2505.43 t 0 r /Helvetica-Bold findfont 44.0819 sf 0 0 m (80) show NC gr 
 gsave  973 924 10 1995 C 68.0931 2599.56 t 0 r /Helvetica-Bold findfont 44.0819 sf 0 0 m (100) show NC gr 
 gsave  973 924 10 1995 C 68.0931 2695.69 t 0 r /Helvetica-Bold findfont 44.0819 sf 0 0 m (120) show NC gr 
 gsave  973 924 10 1995 C 68.0931 2789.82 t 0 r /Helvetica-Bold findfont 44.0819 sf 0 0 m (140) show NC gr  935 2143 m 729 Y s 912 2143 m 23 X s 923 2166 m 12 X s 923 2190 m 12 X s 923 2214 m 12 X s 912 2237 m 23 X s 923 2261 m 12 X s 923 2284 m 12 X
 s 923 2308 m 12 X s 912 2332 m 23 X s 923 2355 m 12 X s 923 2379 m 12 X s 923 2403 m 12 X s 912 2426 m 23 X s 923 2450 m 12 X s 923 2474 m 12 X s 923 2497 m 12 X s 912 2521 m 23 X s 923 2544 m 12 X s 923 2568 m 12 X s 923 2592 m 12 X s 912 2615 m 23
 X s 923 2639 m 12 X s 923 2663 m 12 X s 923 2686 m 12 X s 912 2710 m 23 X s 923 2734 m 12 X s 923 2757 m 12 X s 923 2781 m 12 X s 912 2805 m 23 X s 912 2805 m 23 X s 923 2828 m 12 X s 923 2852 m 12 X s 1 1 1 c 973 924 10 1012 bf black 1 1 1 c 789
 730 146 1160 bf black 789 730 146 1160 bl 1 1 1 c black 148 1162 m 140 X 5 Y 32 X 15 Y 15 X 58 Y 16 X -22 Y 16 X 88 Y 16 X 95 Y 16 X 59 Y 15 X 66 Y 16 X 80 Y 16 X 132 Y 16 X -59 Y 15 X 8 Y 16 X 80 Y 16 X 88 Y 16 X -132 Y 15 X -139 Y 16 X -66 Y 16 X
 -58 Y 16 X -66 Y 16 X -154 Y 15 X -22 Y 32 X -43 Y 16 X 7 Y 31 X -15 Y 16 X -5 Y 221 X s 146 1160 m 789 X s
 gsave  973 924 10 1012 C 280.383 1057.45 t 0 r /Helvetica-Bold findfont 52.0968 sf 0 0 m (Uncertainty on fitted value) show NC gr  146 1182 m -22 Y s 203 1171 m -11 Y s 259 1171 m -11 Y s 315 1171 m -11 Y s 372 1182 m -22 Y s 428 1171 m -11 Y s 484
 1171 m -11 Y s 540 1171 m -11 Y s 597 1182 m -22 Y s 653 1171 m -11 Y s 709 1171 m -11 Y s 766 1171 m -11 Y s 822 1182 m -22 Y s 822 1182 m -22 Y s 878 1171 m -11 Y s 935 1171 m -11 Y s
 gsave  973 924 10 1012 C 102.14 1109.52 t 0 r /Helvetica-Bold findfont 44.0819 sf 0 0 m (0.04) show NC gr 
 gsave  973 924 10 1012 C 314.43 1109.52 t 0 r /Helvetica-Bold findfont 44.0819 sf 0 0 m (0.042) show NC gr 
 gsave  973 924 10 1012 C 538.737 1109.52 t 0 r /Helvetica-Bold findfont 44.0819 sf 0 0 m (0.044) show NC gr 
 gsave  973 924 10 1012 C 765.046 1109.52 t 0 r /Helvetica-Bold findfont 44.0819 sf 0 0 m (0.046) show NC gr  146 1890 m 789 X s 146 1867 m 23 Y s 203 1878 m 12 Y s 259 1878 m 12 Y s 315 1878 m 12 Y s 372 1867 m 23 Y s 428 1878 m 12 Y s 484 1878 m 12
 Y s 540 1878 m 12 Y s 597 1867 m 23 Y s 653 1878 m 12 Y s 709 1878 m 12 Y s 766 1878 m 12 Y s 822 1867 m 23 Y s 822 1867 m 23 Y s 878 1878 m 12 Y s 935 1878 m 12 Y s 146 1160 m 730 Y s
 gsave  973 924 10 1012 C 66.0904 1578.16 t 90 r /Helvetica-Bold findfont 52.0968 sf 0 0 m (Experiments) show NC gr  169 1160 m -23 X s 158 1175 m -12 X s 158 1189 m -12 X s 158 1204 m -12 X s 158 1218 m -12 X s 169 1233 m -23 X s 158 1248 m -12 X s
 158 1262 m -12 X s 158 1277 m -12 X s 158 1292 m -12 X s 169 1306 m -23 X s 158 1321 m -12 X s 158 1336 m -12 X s 158 1350 m -12 X s 158 1365 m -12 X s 169 1379 m -23 X s 158 1394 m -12 X s 158 1409 m -12 X s 158 1423 m -12 X s 158 1438 m -12 X s
 169 1453 m -23 X s 158 1467 m -12 X s 158 1482 m -12 X s 158 1496 m -12 X s 158 1511 m -12 X s 169 1526 m -23 X s 158 1540 m -12 X s 158 1555 m -12 X s 158 1570 m -12 X s 158 1584 m -12 X s 169 1599 m -23 X s 158 1614 m -12 X s 158 1628 m -12 X s
 158 1643 m -12 X s 158 1657 m -12 X s 169 1672 m -23 X s 158 1687 m -12 X s 158 1701 m -12 X s 158 1716 m -12 X s 158 1731 m -12 X s 169 1745 m -23 X s 158 1760 m -12 X s 158 1774 m -12 X s 158 1789 m -12 X s 158 1804 m -12 X s 169 1818 m -23 X s
 169 1818 m -23 X s 158 1833 m -12 X s 158 1848 m -12 X s 158 1862 m -12 X s 158 1877 m -12 X s
 gsave  973 924 10 1012 C 116.159 1145.57 t 0 r /Helvetica-Bold findfont 44.0819 sf 0 0 m (0) show NC gr 
 gsave  973 924 10 1012 C 92.126 1217.67 t 0 r /Helvetica-Bold findfont 44.0819 sf 0 0 m (10) show NC gr 
 gsave  973 924 10 1012 C 92.126 1291.77 t 0 r /Helvetica-Bold findfont 44.0819 sf 0 0 m (20) show NC gr 
 gsave  973 924 10 1012 C 92.126 1363.87 t 0 r /Helvetica-Bold findfont 44.0819 sf 0 0 m (30) show NC gr 
 gsave  973 924 10 1012 C 92.126 1437.97 t 0 r /Helvetica-Bold findfont 44.0819 sf 0 0 m (40) show NC gr 
 gsave  973 924 10 1012 C 92.126 1510.07 t 0 r /Helvetica-Bold findfont 44.0819 sf 0 0 m (50) show NC gr 
 gsave  973 924 10 1012 C 92.126 1584.17 t 0 r /Helvetica-Bold findfont 44.0819 sf 0 0 m (60) show NC gr 
 gsave  973 924 10 1012 C 92.126 1656.27 t 0 r /Helvetica-Bold findfont 44.0819 sf 0 0 m (70) show NC gr 
 gsave  973 924 10 1012 C 92.126 1730.37 t 0 r /Helvetica-Bold findfont 44.0819 sf 0 0 m (80) show NC gr 
 gsave  973 924 10 1012 C 92.126 1802.47 t 0 r /Helvetica-Bold findfont 44.0819 sf 0 0 m (90) show NC gr  935 1160 m 730 Y s 912 1160 m 23 X s 923 1175 m 12 X s 923 1189 m 12 X s 923 1204 m 12 X s 923 1218 m 12 X s 912 1233 m 23 X s 923 1248 m 12 X s
 923 1262 m 12 X s 923 1277 m 12 X s 923 1292 m 12 X s 912 1306 m 23 X s 923 1321 m 12 X s 923 1336 m 12 X s 923 1350 m 12 X s 923 1365 m 12 X s 912 1379 m 23 X s 923 1394 m 12 X s 923 1409 m 12 X s 923 1423 m 12 X s 923 1438 m 12 X s 912 1453 m 23 X
 s 923 1467 m 12 X s 923 1482 m 12 X s 923 1496 m 12 X s 923 1511 m 12 X s 912 1526 m 23 X s 923 1540 m 12 X s 923 1555 m 12 X s 923 1570 m 12 X s 923 1584 m 12 X s 912 1599 m 23 X s 923 1614 m 12 X s 923 1628 m 12 X s 923 1643 m 12 X s 923 1657 m 12
 X s 912 1672 m 23 X s 923 1687 m 12 X s 923 1701 m 12 X s 923 1716 m 12 X s 923 1731 m 12 X s 912 1745 m 23 X s 923 1760 m 12 X s 923 1774 m 12 X s 923 1789 m 12 X s 923 1804 m 12 X s 912 1818 m 23 X s 912 1818 m 23 X s 923 1833 m 12 X s 923 1848 m
 12 X s 923 1862 m 12 X s 923 1877 m 12 X s 1 1 1 c 973 924 10 29 bf black 1 1 1 c 789 730 146 177 bf black 789 730 146 177 bl 1 1 1 c black 3 lw /w 24 def /w2 {w 2 div} def /w3 {w 3 div} def 170 189 m20 9 lw 186 200 m 11 Y s 186 235 m 11 Y s 3 lw
 186 223 m20 9 lw 217 184 m 4 Y s 217 212 m 5 Y s 3 lw 217 200 m20 9 lw 3 lw 233 189 m20 9 lw 249 218 m 16 Y s 249 258 m 17 Y s 3 lw 249 246 m20 9 lw 265 246 m 23 Y s 265 293 m 23 Y s 3 lw 265 281 m20 9 lw 280 218 m 16 Y s 280 258 m 17 Y s 3 lw 280
 246 m20 9 lw 296 227 m 19 Y s 296 270 m 18 Y s 3 lw 296 258 m20 9 lw 312 237 m 20 Y s 312 282 m 20 Y s 3 lw 312 270 m20 9 lw 328 218 m 16 Y s 328 258 m 17 Y s 3 lw 328 246 m20 9 lw 343 296 m 31 Y s 343 351 m 31 Y s 3 lw 343 339 m20 9 lw 359 296 m 31
 Y s 359 351 m 31 Y s 3 lw 359 339 m20 9 lw 375 326 m 35 Y s 375 385 m 36 Y s 3 lw 375 373 m20 9 lw 391 387 m 43 Y s 391 454 m 44 Y s 3 lw 391 442 m20 9 lw 406 418 m 47 Y s 406 489 m 47 Y s 3 lw 406 477 m20 9 lw 422 470 m 53 Y s 422 547 m 52 Y s 3 lw
 422 535 m20 9 lw 438 429 m 48 Y s 438 501 m 47 Y s 3 lw 438 489 m20 9 lw 454 502 m 55 Y s 454 581 m 55 Y s 3 lw 454 569 m20 9 lw 470 544 m 59 Y s 470 627 m 59 Y s 3 lw 470 615 m20 9 lw 485 492 m 54 Y s 485 570 m 54 Y s 3 lw 485 558 m20 9 lw 501 694
 m 71 Y s 501 789 m 71 Y s 3 lw 501 777 m20 9 lw 517 704 m 72 Y s 517 800 m 72 Y s 3 lw 517 788 m20 9 lw 533 513 m 56 Y s 533 593 m 56 Y s 3 lw 533 581 m20 9 lw 548 704 m 72 Y s 548 800 m 72 Y s 3 lw 548 788 m20 9 lw 564 576 m 62 Y s 564 662 m 62 Y s
 3 lw 564 650 m20 9 lw 580 619 m 65 Y s 580 708 m 65 Y s 3 lw 580 696 m20 9 lw 596 523 m 57 Y s 596 604 m 58 Y s 3 lw 596 592 m20 9 lw 611 534 m 58 Y s 611 616 m 58 Y s 3 lw 611 604 m20 9 lw 627 492 m 54 Y s 627 570 m 54 Y s 3 lw 627 558 m20 9 lw 643
 534 m 58 Y s 643 616 m 58 Y s 3 lw 643 604 m20 9 lw 659 450 m 50 Y s 659 524 m 50 Y s 3 lw 659 512 m20 9 lw 675 450 m 50 Y s 675 524 m 50 Y s 3 lw 675 512 m20 9 lw 690 408 m 45 Y s 690 478 m 45 Y s 3 lw 690 466 m20 9 lw 706 367 m 40 Y s 706 431 m 41
 Y s 3 lw 706 419 m20 9 lw 722 336 m 37 Y s 722 397 m 37 Y s 3 lw 722 385 m20 9 lw 738 266 m 26 Y s 738 316 m 26 Y s 3 lw 738 304 m20 9 lw 753 336 m 37 Y s 753 397 m 37 Y s 3 lw 753 385 m20 9 lw 769 237 m 20 Y s 769 282 m 20 Y s 3 lw 769 270 m20 9 lw
 785 237 m 20 Y s 785 282 m 20 Y s 3 lw 785 270 m20 9 lw 801 237 m 20 Y s 801 282 m 20 Y s 3 lw 801 270 m20 9 lw 816 227 m 19 Y s 816 270 m 18 Y s 3 lw 816 258 m20 9 lw 832 184 m 4 Y s 832 212 m 5 Y s 3 lw 832 200 m20 9 lw 848 184 m 4 Y s 848 212 m 5
 Y s 3 lw 848 200 m20 9 lw 3 lw 864 189 m20 9 lw 3 lw 880 189 m20 9 lw 3 lw 895 189 m20 9 lw 3 lw 927 189 m20 9 lw 0.95 0.95 0.95 c black 150 183 m 8 1 d 8 1 d 8 1 d 8 2 d 8 2 d 7 2 d 8 3 d 8 3 d 8 3 d 8 4 d 8 5 d 8 4 d 8 6 d 8 6 d 7 7 d 8 7 d 8 8 d
 8 9 d 8 10 d 8 10 d 8 12 d 8 12 d 8 13 d 7 14 d 8 14 d 8 16 d 8 16 d 8 17 d 8 17 d 8 18 d 8 18 d 7 19 d 8 18 d 8 19 d 8 19 d 8 18 d 8 19 d 8 17 d 8 17 d 8 16 d 7 15 d 8 14 d 8 12 d 8 11 d 8 10 d 8 8 d 8 6 d 8 4 d 8 3 d s 537 689 m 7 1 d 8 -1 d 8 -3
 d 8 -5 d 8 -7 d 8 -8 d 8 -10 d 8 -11 d 8 -13 d 7 -14 d 8 -16 d 8 -16 d 8 -17 d 8 -17 d 8 -19 d 8 -18 d 8 -19 d 7 -19 d 8 -18 d 8 -19 d 8 -18 d 8 -18 d 8 -17 d 8 -17 d 8 -16 d 8 -15 d 7 -14 d 8 -14 d 8 -13 d 8 -12 d 8 -11 d 8 -10 d 8 -10 d 8 -9 d 8
 -8 d 7 -7 d 8 -7 d 8 -5 d 8 -6 d 8 -4 d 8 -5 d 8 -3 d 8 -4 d 7 -3 d 8 -2 d 8 -2 d 8 -2 d 8 -2 d 8 -1 d s 923 185 m 8 -1 d s 146 177 m 789 X s
 gsave  973 924 10 29 C 841.15 70.0959 t 0 r /Helvetica-Bold findfont 52.0968 sf 0 0 m (Pull) show NC gr  278 200 m -23 Y s 343 188 m -11 Y s 409 188 m -11 Y s 475 188 m -11 Y s 540 200 m -23 Y s 606 188 m -11 Y s 672 188 m -11 Y s 738 188 m -11 Y s
 803 200 m -23 Y s 278 200 m -23 Y s 212 188 m -11 Y s 146 188 m -11 Y s 803 200 m -23 Y s 869 188 m -11 Y s 935 188 m -11 Y s
 gsave  973 924 10 29 C 256.351 128.175 t 0 r /Helvetica-Bold findfont 44.0819 sf 0 0 m (\2552) show NC gr 
 gsave  973 924 10 29 C 526.72 128.175 t 0 r /Helvetica-Bold findfont 44.0819 sf 0 0 m (0) show NC gr 
 gsave  973 924 10 29 C 791.082 128.175 t 0 r /Helvetica-Bold findfont 44.0819 sf 0 0 m (2) show NC gr  146 907 m 789 X s 278 885 m 22 Y s 343 896 m 11 Y s 409 896 m 11 Y s 475 896 m 11 Y s 540 885 m 22 Y s 606 896 m 11 Y s 672 896 m 11 Y s 738 896 m
 11 Y s 803 885 m 22 Y s 278 885 m 22 Y s 212 896 m 11 Y s 146 896 m 11 Y s 803 885 m 22 Y s 869 896 m 11 Y s 935 896 m 11 Y s 146 177 m 730 Y s
 gsave  973 924 10 29 C 66.0904 594.813 t 90 r /Helvetica-Bold findfont 52.0968 sf 0 0 m (Experiments) show NC gr  169 177 m -23 X s 158 200 m -12 X s 158 223 m -12 X s 158 246 m -12 X s 158 270 m -12 X s 169 293 m -23 X s 158 316 m -12 X s 158 339 m
 -12 X s 158 362 m -12 X s 158 385 m -12 X s 169 408 m -23 X s 158 431 m -12 X s 158 454 m -12 X s 158 477 m -12 X s 158 500 m -12 X s 169 523 m -23 X s 158 546 m -12 X s 158 569 m -12 X s 158 592 m -12 X s 158 615 m -12 X s 169 638 m -23 X s 158 662
 m -12 X s 158 685 m -12 X s 158 708 m -12 X s 158 731 m -12 X s 169 754 m -23 X s 158 777 m -12 X s 158 800 m -12 X s 158 823 m -12 X s 158 846 m -12 X s 169 869 m -23 X s 169 869 m -23 X s 158 892 m -12 X s
 gsave  973 924 10 29 C 116.159 162.222 t 0 r /Helvetica-Bold findfont 44.0819 sf 0 0 m (0) show NC gr 
 gsave  973 924 10 29 C 92.126 278.381 t 0 r /Helvetica-Bold findfont 44.0819 sf 0 0 m (10) show NC gr 
 gsave  973 924 10 29 C 92.126 392.537 t 0 r /Helvetica-Bold findfont 44.0819 sf 0 0 m (20) show NC gr 
 gsave  973 924 10 29 C 92.126 508.696 t 0 r /Helvetica-Bold findfont 44.0819 sf 0 0 m (30) show NC gr 
 gsave  973 924 10 29 C 92.126 622.852 t 0 r /Helvetica-Bold findfont 44.0819 sf 0 0 m (40) show NC gr 
 gsave  973 924 10 29 C 92.126 739.011 t 0 r /Helvetica-Bold findfont 44.0819 sf 0 0 m (50) show NC gr 
 gsave  973 924 10 29 C 92.126 853.167 t 0 r /Helvetica-Bold findfont 44.0819 sf 0 0 m (60) show NC gr  935 177 m 730 Y s 912 177 m 23 X s 923 200 m 12 X s 923 223 m 12 X s 923 246 m 12 X s 923 270 m 12 X s 912 293 m 23 X s 923 316 m 12 X s 923 339 m
 12 X s 923 362 m 12 X s 923 385 m 12 X s 912 408 m 23 X s 923 431 m 12 X s 923 454 m 12 X s 923 477 m 12 X s 923 500 m 12 X s 912 523 m 23 X s 923 546 m 12 X s 923 569 m 12 X s 923 592 m 12 X s 923 615 m 12 X s 912 638 m 23 X s 923 662 m 12 X s 923
 685 m 12 X s 923 708 m 12 X s 923 731 m 12 X s 912 754 m 23 X s 923 777 m 12 X s 923 800 m 12 X s 923 823 m 12 X s 923 846 m 12 X s 912 869 m 23 X s 912 869 m 23 X s 923 892 m 12 X s
 gr  gr showpage
end
%%EOF
