%!PS-Adobe-2.0 EPSF-2.0
%%BoundingBox:  0 0 248 737
%%Title: PullPlot_DsPi_Time_Signal_Bs2DsPi_deltaS.eps: pullcanvassignal_Bs2DsPi_deltaS
%%Creator: ROOT Version 5.34/09
%%CreationDate: Thu Aug 29 11:46:13 2013
%%EndComments
%%BeginProlog
80 dict begin
/s {stroke} def /l {lineto} def /m {moveto} def /t {translate} def
/r {rotate} def /rl {roll}  def /R {repeat} def
/d {rlineto} def /rm {rmoveto} def /gr {grestore} def /f {eofill} def
/c {setrgbcolor} def /black {0 setgray} def /sd {setdash} def
/cl {closepath} def /sf {scalefont setfont} def /lw {setlinewidth} def
/box {m dup 0 exch d exch 0 d 0 exch neg d cl} def
/NC{systemdict begin initclip end}def/C{NC box clip newpath}def
/bl {box s} def /bf {box f} def /Y { 0 exch d} def /X { 0 d} def 
/K {{pop pop 0 moveto} exch kshow} bind def
/ita {/ang 15 def gsave [1 0 ang dup sin exch cos div 1 0 0] concat} def 
/mp {newpath /y exch def /x exch def} def
/side {[w .77 mul w .23 mul] .385 w mul sd w 0 l currentpoint t -144 r} def
/mr {mp x y w2 0 360 arc} def /m24 {mr s} def /m20 {mr f} def
/mb {mp x y w2 add m w2 neg 0 d 0 w neg d w 0 d 0 w d cl} def
/mt {mp x y w2 add m w2 neg w neg d w 0 d cl} def
/m21 {mb f} def /m25 {mb s} def /m22 {mt f} def /m26{mt s} def
/m23 {mp x y w2 sub m w2 w d w neg 0 d cl f} def
/m27 {mp x y w2 add m w3 neg w2 neg d w3 w2 neg d w3 w2 d cl s} def
/m28 {mp x w2 sub y w2 sub w3 add m w3 0 d  0 w3 neg d w3 0 d 0 w3 d w3 0 d  0 w3 d w3 neg 0 d 0 w3 d w3 neg 0 d 0 w3 neg d w3 neg 0 d cl s } def
/m29 {mp gsave x w2 sub y w2 add w3 sub m currentpoint t 4 {side} repeat cl fill gr} def
/m30 {mp gsave x w2 sub y w2 add w3 sub m currentpoint t 4 {side} repeat cl s gr} def
/m31 {mp x y w2 sub m 0 w d x w2 sub y m w 0 d x w2 sub y w2 add m w w neg d x w2 sub y w2 sub m w w d s} def
/m32 {mp x y w2 sub m w2 w d w neg 0 d cl s} def
/m33 {mp x y w2 add m w3 neg w2 neg d w3 w2 neg d w3 w2 d cl f} def
/m34 {mp x w2 sub y w2 sub w3 add m w3 0 d  0 w3 neg d w3 0 d 0 w3 d w3 0 d  0 w3 d w3 neg 0 d 0 w3 d w3 neg 0 d 0 w3 neg d w3 neg 0 d cl f } def
/m2 {mp x y w2 sub m 0 w d x w2 sub y m w 0 d s} def
/m5 {mp x w2 sub y w2 sub m w w d x w2 sub y w2 add m w w neg d s} def
/reEncode {exch findfont dup length dict begin {1 index /FID eq  {pop pop} {def} ifelse } forall /Encoding exch def currentdict end dup /FontName get exch definefont pop } def [/Times-Bold /Times-Italic /Times-BoldItalic /Helvetica /Helvetica-Oblique
 /Helvetica-Bold /Helvetica-BoldOblique /Courier /Courier-Oblique /Courier-Bold /Courier-BoldOblique /Times-Roman /AvantGarde-Book /AvantGarde-BookOblique /AvantGarde-Demi /AvantGarde-DemiOblique /Bookman-Demi /Bookman-DemiItalic /Bookman-Light
 /Bookman-LightItalic /Helvetica-Narrow /Helvetica-Narrow-Bold /Helvetica-Narrow-BoldOblique /Helvetica-Narrow-Oblique /NewCenturySchlbk-Roman /NewCenturySchlbk-Bold /NewCenturySchlbk-BoldItalic /NewCenturySchlbk-Italic /Palatino-Bold
 /Palatino-BoldItalic /Palatino-Italic /Palatino-Roman ] {ISOLatin1Encoding reEncode } forall
%%EndProlog
%%BeginSetup
%%EndSetup
newpath  gsave  .25 .25 scale  gsave  0 0 t black[  ] 0 sd 9 lw 1 1 1 c 993 2948 0 0 bf black 1 1 1 c 973 924 10 1995 bf black 1 1 1 c 789 729 146 2143 bf black 789 729 146 2143 bl 1 1 1 c black 148 2145 m 156 X 5 Y 31 X -5 Y 16 X 29 Y 16 X 38 Y 32 X
 31 Y 15 X 70 Y 16 X 108 Y 16 X 46 Y 16 X -15 Y 15 X 100 Y 16 X 139 Y 16 X 39 Y 16 X 108 Y 15 X -47 Y 16 X -92 Y 16 X 61 Y 16 X -69 Y 16 X -155 Y 15 X -162 Y 16 X -69 Y 16 X -47 Y 16 X -15 Y 31 X -93 Y 32 X 16 Y 16 X -21 Y 189 X s 146 2143 m 789 X s
 gsave  973 924 10 1995 C 594.813 2034.78 t 0 r /Helvetica-Bold findfont 52.0968 sf 0 0 m (S Fitted value) show NC gr 
 gsave  973 924 10 1995 C 562.77 2034.78 t 0 r /Symbol findfont 52.0968 sf 0 0 m (D) show NC gr  146 2165 m -22 Y s 196 2154 m -11 Y s 245 2154 m -11 Y s 294 2154 m -11 Y s 343 2165 m -22 Y s 393 2154 m -11 Y s 442 2154 m -11 Y s 491 2154 m -11 Y s
 540 2165 m -22 Y s 590 2154 m -11 Y s 639 2154 m -11 Y s 688 2154 m -11 Y s 738 2165 m -22 Y s 787 2154 m -11 Y s 836 2154 m -11 Y s 885 2154 m -11 Y s 935 2165 m -22 Y s 146 2165 m -22 Y s
 gsave  973 924 10 1995 C 108.148 2092.86 t 0 r /Helvetica-Bold findfont 44.0819 sf 0 0 m (\2550.4) show NC gr 
 gsave  973 924 10 1995 C 304.416 2092.86 t 0 r /Helvetica-Bold findfont 44.0819 sf 0 0 m (\2550.2) show NC gr 
 gsave  973 924 10 1995 C 526.72 2092.86 t 0 r /Helvetica-Bold findfont 44.0819 sf 0 0 m (0) show NC gr 
 gsave  973 924 10 1995 C 706.967 2092.86 t 0 r /Helvetica-Bold findfont 44.0819 sf 0 0 m (0.2) show NC gr 
 gsave  973 924 10 1995 C 903.235 2092.86 t 0 r /Helvetica-Bold findfont 44.0819 sf 0 0 m (0.4) show NC gr  146 2872 m 789 X s 146 2850 m 22 Y s 196 2861 m 11 Y s 245 2861 m 11 Y s 294 2861 m 11 Y s 343 2850 m 22 Y s 393 2861 m 11 Y s 442 2861 m 11 Y
 s 491 2861 m 11 Y s 540 2850 m 22 Y s 590 2861 m 11 Y s 639 2861 m 11 Y s 688 2861 m 11 Y s 738 2850 m 22 Y s 787 2861 m 11 Y s 836 2861 m 11 Y s 885 2861 m 11 Y s 935 2850 m 22 Y s 146 2850 m 22 Y s 146 2143 m 729 Y s
 gsave  973 924 10 1995 C 66.0904 2561.5 t 90 r /Helvetica-Bold findfont 52.0968 sf 0 0 m (Experiments) show NC gr  169 2143 m -23 X s 158 2158 m -12 X s 158 2174 m -12 X s 158 2189 m -12 X s 158 2204 m -12 X s 169 2220 m -23 X s 158 2235 m -12 X s
 158 2251 m -12 X s 158 2266 m -12 X s 158 2282 m -12 X s 169 2297 m -23 X s 158 2313 m -12 X s 158 2328 m -12 X s 158 2343 m -12 X s 158 2359 m -12 X s 169 2374 m -23 X s 158 2390 m -12 X s 158 2405 m -12 X s 158 2421 m -12 X s 158 2436 m -12 X s
 169 2452 m -23 X s 158 2467 m -12 X s 158 2482 m -12 X s 158 2498 m -12 X s 158 2513 m -12 X s 169 2529 m -23 X s 158 2544 m -12 X s 158 2560 m -12 X s 158 2575 m -12 X s 158 2591 m -12 X s 169 2606 m -23 X s 158 2621 m -12 X s 158 2637 m -12 X s
 158 2652 m -12 X s 158 2668 m -12 X s 169 2683 m -23 X s 158 2699 m -12 X s 158 2714 m -12 X s 158 2730 m -12 X s 158 2745 m -12 X s 169 2760 m -23 X s 158 2776 m -12 X s 158 2791 m -12 X s 158 2807 m -12 X s 158 2822 m -12 X s 169 2838 m -23 X s
 169 2838 m -23 X s 158 2853 m -12 X s 158 2869 m -12 X s
 gsave  973 924 10 1995 C 116.159 2126.91 t 0 r /Helvetica-Bold findfont 44.0819 sf 0 0 m (0) show NC gr 
 gsave  973 924 10 1995 C 92.126 2205.02 t 0 r /Helvetica-Bold findfont 44.0819 sf 0 0 m (10) show NC gr 
 gsave  973 924 10 1995 C 92.126 2281.12 t 0 r /Helvetica-Bold findfont 44.0819 sf 0 0 m (20) show NC gr 
 gsave  973 924 10 1995 C 92.126 2359.23 t 0 r /Helvetica-Bold findfont 44.0819 sf 0 0 m (30) show NC gr 
 gsave  973 924 10 1995 C 92.126 2437.33 t 0 r /Helvetica-Bold findfont 44.0819 sf 0 0 m (40) show NC gr 
 gsave  973 924 10 1995 C 92.126 2513.44 t 0 r /Helvetica-Bold findfont 44.0819 sf 0 0 m (50) show NC gr 
 gsave  973 924 10 1995 C 92.126 2591.54 t 0 r /Helvetica-Bold findfont 44.0819 sf 0 0 m (60) show NC gr 
 gsave  973 924 10 1995 C 92.126 2667.65 t 0 r /Helvetica-Bold findfont 44.0819 sf 0 0 m (70) show NC gr 
 gsave  973 924 10 1995 C 92.126 2745.76 t 0 r /Helvetica-Bold findfont 44.0819 sf 0 0 m (80) show NC gr 
 gsave  973 924 10 1995 C 92.126 2821.86 t 0 r /Helvetica-Bold findfont 44.0819 sf 0 0 m (90) show NC gr  935 2143 m 729 Y s 912 2143 m 23 X s 923 2158 m 12 X s 923 2174 m 12 X s 923 2189 m 12 X s 923 2204 m 12 X s 912 2220 m 23 X s 923 2235 m 12 X s
 923 2251 m 12 X s 923 2266 m 12 X s 923 2282 m 12 X s 912 2297 m 23 X s 923 2313 m 12 X s 923 2328 m 12 X s 923 2343 m 12 X s 923 2359 m 12 X s 912 2374 m 23 X s 923 2390 m 12 X s 923 2405 m 12 X s 923 2421 m 12 X s 923 2436 m 12 X s 912 2452 m 23 X
 s 923 2467 m 12 X s 923 2482 m 12 X s 923 2498 m 12 X s 923 2513 m 12 X s 912 2529 m 23 X s 923 2544 m 12 X s 923 2560 m 12 X s 923 2575 m 12 X s 923 2591 m 12 X s 912 2606 m 23 X s 923 2621 m 12 X s 923 2637 m 12 X s 923 2652 m 12 X s 923 2668 m 12
 X s 912 2683 m 23 X s 923 2699 m 12 X s 923 2714 m 12 X s 923 2730 m 12 X s 923 2745 m 12 X s 912 2760 m 23 X s 923 2776 m 12 X s 923 2791 m 12 X s 923 2807 m 12 X s 923 2822 m 12 X s 912 2838 m 23 X s 912 2838 m 23 X s 923 2853 m 12 X s 923 2869 m
 12 X s 1 1 1 c 973 924 10 1012 bf black 1 1 1 c 789 730 146 1160 bf black 789 730 146 1160 bl 1 1 1 c black 148 1162 m 156 X 17 Y 16 X 29 Y 15 X 106 Y 16 X 39 Y 16 X 193 Y 16 X 217 Y 16 X 92 Y 15 X -97 Y 16 X 78 Y 16 X -309 Y 16 X -63 Y 15 X -111 Y
 16 X -92 Y 16 X -53 Y 16 X -24 Y 15 X -5 Y 16 X -9 Y 16 X -5 Y 32 X -3 Y 331 X s 146 1160 m 789 X s
 gsave  973 924 10 1012 C 280.383 1057.45 t 0 r /Helvetica-Bold findfont 52.0968 sf 0 0 m (Uncertainty on fitted value) show NC gr  146 1182 m -22 Y s 179 1171 m -11 Y s 212 1171 m -11 Y s 245 1171 m -11 Y s 278 1171 m -11 Y s 310 1182 m -22 Y s 343
 1171 m -11 Y s 376 1171 m -11 Y s 409 1171 m -11 Y s 442 1171 m -11 Y s 475 1182 m -22 Y s 508 1171 m -11 Y s 540 1171 m -11 Y s 573 1171 m -11 Y s 606 1171 m -11 Y s 639 1182 m -22 Y s 672 1171 m -11 Y s 705 1171 m -11 Y s 738 1171 m -11 Y s 770
 1171 m -11 Y s 803 1182 m -22 Y s 803 1182 m -22 Y s 836 1171 m -11 Y s 869 1171 m -11 Y s 902 1171 m -11 Y s 935 1171 m -11 Y s
 gsave  973 924 10 1012 C 104.142 1109.52 t 0 r /Helvetica-Bold findfont 44.0819 sf 0 0 m (0.06) show NC gr 
 gsave  973 924 10 1012 C 254.348 1109.52 t 0 r /Helvetica-Bold findfont 44.0819 sf 0 0 m (0.065) show NC gr 
 gsave  973 924 10 1012 C 430.589 1109.52 t 0 r /Helvetica-Bold findfont 44.0819 sf 0 0 m (0.07) show NC gr 
 gsave  973 924 10 1012 C 582.797 1109.52 t 0 r /Helvetica-Bold findfont 44.0819 sf 0 0 m (0.075) show NC gr 
 gsave  973 924 10 1012 C 759.038 1109.52 t 0 r /Helvetica-Bold findfont 44.0819 sf 0 0 m (0.08) show NC gr  146 1890 m 789 X s 146 1867 m 23 Y s 179 1878 m 12 Y s 212 1878 m 12 Y s 245 1878 m 12 Y s 278 1878 m 12 Y s 310 1867 m 23 Y s 343 1878 m 12
 Y s 376 1878 m 12 Y s 409 1878 m 12 Y s 442 1878 m 12 Y s 475 1867 m 23 Y s 508 1878 m 12 Y s 540 1878 m 12 Y s 573 1878 m 12 Y s 606 1878 m 12 Y s 639 1867 m 23 Y s 672 1878 m 12 Y s 705 1878 m 12 Y s 738 1878 m 12 Y s 770 1878 m 12 Y s 803 1867 m
 23 Y s 803 1867 m 23 Y s 836 1878 m 12 Y s 869 1878 m 12 Y s 902 1878 m 12 Y s 935 1878 m 12 Y s 146 1160 m 730 Y s
 gsave  973 924 10 1012 C 66.0904 1578.16 t 90 r /Helvetica-Bold findfont 52.0968 sf 0 0 m (Experiments) show NC gr  169 1160 m -23 X s 158 1184 m -12 X s 158 1208 m -12 X s 158 1232 m -12 X s 169 1256 m -23 X s 158 1281 m -12 X s 158 1305 m -12 X s
 158 1329 m -12 X s 169 1353 m -23 X s 158 1377 m -12 X s 158 1401 m -12 X s 158 1425 m -12 X s 169 1450 m -23 X s 158 1474 m -12 X s 158 1498 m -12 X s 158 1522 m -12 X s 169 1546 m -23 X s 158 1570 m -12 X s 158 1594 m -12 X s 158 1618 m -12 X s
 169 1643 m -23 X s 158 1667 m -12 X s 158 1691 m -12 X s 158 1715 m -12 X s 169 1739 m -23 X s 158 1763 m -12 X s 158 1787 m -12 X s 158 1812 m -12 X s 169 1836 m -23 X s 169 1836 m -23 X s 158 1860 m -12 X s 158 1884 m -12 X s
 gsave  973 924 10 1012 C 116.159 1145.57 t 0 r /Helvetica-Bold findfont 44.0819 sf 0 0 m (0) show NC gr 
 gsave  973 924 10 1012 C 92.126 1241.7 t 0 r /Helvetica-Bold findfont 44.0819 sf 0 0 m (20) show NC gr 
 gsave  973 924 10 1012 C 92.126 1337.83 t 0 r /Helvetica-Bold findfont 44.0819 sf 0 0 m (40) show NC gr 
 gsave  973 924 10 1012 C 92.126 1433.96 t 0 r /Helvetica-Bold findfont 44.0819 sf 0 0 m (60) show NC gr 
 gsave  973 924 10 1012 C 92.126 1530.09 t 0 r /Helvetica-Bold findfont 44.0819 sf 0 0 m (80) show NC gr 
 gsave  973 924 10 1012 C 68.0931 1628.23 t 0 r /Helvetica-Bold findfont 44.0819 sf 0 0 m (100) show NC gr 
 gsave  973 924 10 1012 C 68.0931 1724.36 t 0 r /Helvetica-Bold findfont 44.0819 sf 0 0 m (120) show NC gr 
 gsave  973 924 10 1012 C 68.0931 1820.49 t 0 r /Helvetica-Bold findfont 44.0819 sf 0 0 m (140) show NC gr  935 1160 m 730 Y s 912 1160 m 23 X s 923 1184 m 12 X s 923 1208 m 12 X s 923 1232 m 12 X s 912 1256 m 23 X s 923 1281 m 12 X s 923 1305 m 12 X
 s 923 1329 m 12 X s 912 1353 m 23 X s 923 1377 m 12 X s 923 1401 m 12 X s 923 1425 m 12 X s 912 1450 m 23 X s 923 1474 m 12 X s 923 1498 m 12 X s 923 1522 m 12 X s 912 1546 m 23 X s 923 1570 m 12 X s 923 1594 m 12 X s 923 1618 m 12 X s 912 1643 m 23
 X s 923 1667 m 12 X s 923 1691 m 12 X s 923 1715 m 12 X s 912 1739 m 23 X s 923 1763 m 12 X s 923 1787 m 12 X s 923 1812 m 12 X s 912 1836 m 23 X s 912 1836 m 23 X s 923 1860 m 12 X s 923 1884 m 12 X s 1 1 1 c 973 924 10 29 bf black 1 1 1 c 789 730
 146 177 bf black 789 730 146 177 bl 1 1 1 c black 3 lw /w 24 def /w2 {w 2 div} def /w3 {w 3 div} def 154 188 m20 9 lw 3 lw 170 188 m20 9 lw 3 lw 186 188 m20 9 lw 233 191 m 8 Y s 233 223 m 7 Y s 3 lw 233 211 m20 9 lw 249 244 m 21 Y s 249 290 m 21 Y s
 3 lw 249 277 m20 9 lw 265 208 m 13 Y s 265 245 m 13 Y s 3 lw 265 233 m20 9 lw 280 217 m 15 Y s 280 256 m 15 Y s 3 lw 280 244 m20 9 lw 296 263 m 25 Y s 296 312 m 25 Y s 3 lw 296 300 m20 9 lw 312 191 m 8 Y s 312 223 m 7 Y s 3 lw 312 211 m20 9 lw 328
 282 m 28 Y s 328 334 m 28 Y s 3 lw 328 322 m20 9 lw 343 263 m 25 Y s 343 312 m 25 Y s 3 lw 343 300 m20 9 lw 359 311 m 32 Y s 359 367 m 33 Y s 3 lw 359 355 m20 9 lw 375 263 m 25 Y s 375 312 m 25 Y s 3 lw 375 300 m20 9 lw 391 360 m 39 Y s 391 423 m 39
 Y s 3 lw 391 411 m20 9 lw 406 491 m 53 Y s 406 568 m 53 Y s 3 lw 406 556 m20 9 lw 422 400 m 44 Y s 422 468 m 43 Y s 3 lw 422 456 m20 9 lw 438 563 m 59 Y s 438 646 m 59 Y s 3 lw 438 634 m20 9 lw 454 501 m 54 Y s 454 579 m 54 Y s 3 lw 454 567 m20 9 lw
 470 635 m 65 Y s 470 724 m 65 Y s 3 lw 470 712 m20 9 lw 485 471 m 51 Y s 485 546 m 51 Y s 3 lw 485 534 m20 9 lw 501 542 m 58 Y s 501 624 m 57 Y s 3 lw 501 612 m20 9 lw 517 511 m 55 Y s 517 590 m 55 Y s 3 lw 517 578 m20 9 lw 533 676 m 68 Y s 533 768
 m 69 Y s 3 lw 533 756 m20 9 lw 548 563 m 59 Y s 548 646 m 59 Y s 3 lw 548 634 m20 9 lw 564 707 m 71 Y s 564 802 m 70 Y s 3 lw 564 790 m20 9 lw 580 511 m 55 Y s 580 590 m 55 Y s 3 lw 580 578 m20 9 lw 596 573 m 60 Y s 596 657 m 60 Y s 3 lw 596 645 m20
 9 lw 611 481 m 52 Y s 611 557 m 52 Y s 3 lw 611 545 m20 9 lw 627 522 m 55 Y s 627 601 m 56 Y s 3 lw 627 589 m20 9 lw 643 420 m 46 Y s 643 490 m 46 Y s 3 lw 643 478 m20 9 lw 659 360 m 39 Y s 659 423 m 39 Y s 3 lw 659 411 m20 9 lw 675 370 m 40 Y s 675
 434 m 40 Y s 3 lw 675 422 m20 9 lw 690 340 m 37 Y s 690 401 m 36 Y s 3 lw 690 389 m20 9 lw 706 430 m 47 Y s 706 501 m 47 Y s 3 lw 706 489 m20 9 lw 722 301 m 31 Y s 722 356 m 31 Y s 3 lw 722 344 m20 9 lw 738 330 m 36 Y s 738 390 m 35 Y s 3 lw 738 378
 m20 9 lw 753 360 m 39 Y s 753 423 m 39 Y s 3 lw 753 411 m20 9 lw 769 244 m 21 Y s 769 290 m 21 Y s 3 lw 769 277 m20 9 lw 785 235 m 19 Y s 785 278 m 20 Y s 3 lw 785 266 m20 9 lw 801 235 m 19 Y s 801 278 m 20 Y s 3 lw 801 266 m20 9 lw 816 226 m 17 Y s
 816 267 m 18 Y s 3 lw 816 255 m20 9 lw 832 200 m 10 Y s 832 234 m 10 Y s 3 lw 832 222 m20 9 lw 848 184 m 4 Y s 848 212 m 3 Y s 3 lw 848 200 m20 9 lw 864 217 m 15 Y s 864 256 m 15 Y s 3 lw 864 244 m20 9 lw 880 184 m 4 Y s 880 212 m 3 Y s 3 lw 880 200
 m20 9 lw 895 200 m 10 Y s 895 234 m 10 Y s 3 lw 895 222 m20 9 lw 0.95 0.95 0.95 c black 150 184 m 8 1 d 8 2 d 8 1 d 8 2 d 8 2 d 7 3 d 8 3 d 8 3 d 8 3 d 8 4 d 8 5 d 8 5 d 8 5 d 8 6 d 7 7 d 8 7 d 8 8 d 8 9 d 8 9 d 8 11 d 8 10 d 8 12 d 8 12 d 7 13 d 8
 14 d 8 14 d 8 15 d 8 15 d 8 16 d 8 16 d 8 16 d 7 17 d 8 17 d 8 17 d 8 16 d 8 17 d 8 16 d 8 15 d 8 15 d 8 14 d 7 14 d 8 12 d 8 11 d 8 10 d 8 9 d 8 7 d 8 6 d 8 4 d 8 3 d s 537 653 m 7 1 d 8 -1 d 8 -2 d 8 -4 d 8 -5 d 8 -7 d 8 -8 d 8 -9 d 8 -11 d 7 -12
 d 8 -13 d 8 -14 d 8 -15 d 8 -15 d 8 -16 d 8 -16 d 8 -17 d 7 -17 d 8 -16 d 8 -17 d 8 -17 d 8 -16 d 8 -16 d 8 -15 d 8 -15 d 8 -15 d 7 -14 d 8 -13 d 8 -12 d 8 -12 d 8 -11 d 8 -10 d 8 -10 d 8 -9 d 8 -8 d 7 -7 d 8 -7 d 8 -7 d 8 -5 d 8 -6 d 8 -4 d 8 -4 d
 8 -4 d 7 -3 d 8 -3 d 8 -3 d 8 -2 d 8 -2 d 8 -2 d s 923 187 m 8 -1 d s 146 177 m 789 X s
 gsave  973 924 10 29 C 841.15 70.0959 t 0 r /Helvetica-Bold findfont 52.0968 sf 0 0 m (Pull) show NC gr  278 200 m -23 Y s 343 188 m -11 Y s 409 188 m -11 Y s 475 188 m -11 Y s 540 200 m -23 Y s 606 188 m -11 Y s 672 188 m -11 Y s 738 188 m -11 Y s
 803 200 m -23 Y s 278 200 m -23 Y s 212 188 m -11 Y s 146 188 m -11 Y s 803 200 m -23 Y s 869 188 m -11 Y s 935 188 m -11 Y s
 gsave  973 924 10 29 C 256.351 128.175 t 0 r /Helvetica-Bold findfont 44.0819 sf 0 0 m (\2552) show NC gr 
 gsave  973 924 10 29 C 526.72 128.175 t 0 r /Helvetica-Bold findfont 44.0819 sf 0 0 m (0) show NC gr 
 gsave  973 924 10 29 C 791.082 128.175 t 0 r /Helvetica-Bold findfont 44.0819 sf 0 0 m (2) show NC gr  146 907 m 789 X s 278 885 m 22 Y s 343 896 m 11 Y s 409 896 m 11 Y s 475 896 m 11 Y s 540 885 m 22 Y s 606 896 m 11 Y s 672 896 m 11 Y s 738 896 m
 11 Y s 803 885 m 22 Y s 278 885 m 22 Y s 212 896 m 11 Y s 146 896 m 11 Y s 803 885 m 22 Y s 869 896 m 11 Y s 935 896 m 11 Y s 146 177 m 730 Y s
 gsave  973 924 10 29 C 66.0904 594.813 t 90 r /Helvetica-Bold findfont 52.0968 sf 0 0 m (Experiments) show NC gr  169 177 m -23 X s 158 200 m -12 X s 158 222 m -12 X s 158 244 m -12 X s 158 266 m -12 X s 169 289 m -23 X s 158 311 m -12 X s 158 333 m
 -12 X s 158 355 m -12 X s 158 378 m -12 X s 169 400 m -23 X s 158 422 m -12 X s 158 445 m -12 X s 158 467 m -12 X s 158 489 m -12 X s 169 511 m -23 X s 158 534 m -12 X s 158 556 m -12 X s 158 578 m -12 X s 158 600 m -12 X s 169 623 m -23 X s 158 645
 m -12 X s 158 667 m -12 X s 158 689 m -12 X s 158 712 m -12 X s 169 734 m -23 X s 158 756 m -12 X s 158 779 m -12 X s 158 801 m -12 X s 158 823 m -12 X s 169 845 m -23 X s 169 845 m -23 X s 158 868 m -12 X s 158 890 m -12 X s
 gsave  973 924 10 29 C 116.159 162.222 t 0 r /Helvetica-Bold findfont 44.0819 sf 0 0 m (0) show NC gr 
 gsave  973 924 10 29 C 92.126 274.375 t 0 r /Helvetica-Bold findfont 44.0819 sf 0 0 m (10) show NC gr 
 gsave  973 924 10 29 C 92.126 384.526 t 0 r /Helvetica-Bold findfont 44.0819 sf 0 0 m (20) show NC gr 
 gsave  973 924 10 29 C 92.126 496.679 t 0 r /Helvetica-Bold findfont 44.0819 sf 0 0 m (30) show NC gr 
 gsave  973 924 10 29 C 92.126 606.83 t 0 r /Helvetica-Bold findfont 44.0819 sf 0 0 m (40) show NC gr 
 gsave  973 924 10 29 C 92.126 718.983 t 0 r /Helvetica-Bold findfont 44.0819 sf 0 0 m (50) show NC gr 
 gsave  973 924 10 29 C 92.126 831.137 t 0 r /Helvetica-Bold findfont 44.0819 sf 0 0 m (60) show NC gr  935 177 m 730 Y s 912 177 m 23 X s 923 200 m 12 X s 923 222 m 12 X s 923 244 m 12 X s 923 266 m 12 X s 912 289 m 23 X s 923 311 m 12 X s 923 333 m
 12 X s 923 355 m 12 X s 923 378 m 12 X s 912 400 m 23 X s 923 422 m 12 X s 923 445 m 12 X s 923 467 m 12 X s 923 489 m 12 X s 912 511 m 23 X s 923 534 m 12 X s 923 556 m 12 X s 923 578 m 12 X s 923 600 m 12 X s 912 623 m 23 X s 923 645 m 12 X s 923
 667 m 12 X s 923 689 m 12 X s 923 712 m 12 X s 912 734 m 23 X s 923 756 m 12 X s 923 779 m 12 X s 923 801 m 12 X s 923 823 m 12 X s 912 845 m 23 X s 912 845 m 23 X s 923 868 m 12 X s 923 890 m 12 X s
 gr  gr showpage
end
%%EOF
