%!PS-Adobe-2.0 EPSF-2.0
%%BoundingBox:  0 0 248 737
%%Title: PullPlot_DsPi_Time_Signal_Bs2DsPi_avgD.eps: pullcanvassignal_Bs2DsPi_avgD
%%Creator: ROOT Version 5.34/09
%%CreationDate: Thu Aug 29 11:46:13 2013
%%EndComments
%%BeginProlog
80 dict begin
/s {stroke} def /l {lineto} def /m {moveto} def /t {translate} def
/r {rotate} def /rl {roll}  def /R {repeat} def
/d {rlineto} def /rm {rmoveto} def /gr {grestore} def /f {eofill} def
/c {setrgbcolor} def /black {0 setgray} def /sd {setdash} def
/cl {closepath} def /sf {scalefont setfont} def /lw {setlinewidth} def
/box {m dup 0 exch d exch 0 d 0 exch neg d cl} def
/NC{systemdict begin initclip end}def/C{NC box clip newpath}def
/bl {box s} def /bf {box f} def /Y { 0 exch d} def /X { 0 d} def 
/K {{pop pop 0 moveto} exch kshow} bind def
/ita {/ang 15 def gsave [1 0 ang dup sin exch cos div 1 0 0] concat} def 
/mp {newpath /y exch def /x exch def} def
/side {[w .77 mul w .23 mul] .385 w mul sd w 0 l currentpoint t -144 r} def
/mr {mp x y w2 0 360 arc} def /m24 {mr s} def /m20 {mr f} def
/mb {mp x y w2 add m w2 neg 0 d 0 w neg d w 0 d 0 w d cl} def
/mt {mp x y w2 add m w2 neg w neg d w 0 d cl} def
/m21 {mb f} def /m25 {mb s} def /m22 {mt f} def /m26{mt s} def
/m23 {mp x y w2 sub m w2 w d w neg 0 d cl f} def
/m27 {mp x y w2 add m w3 neg w2 neg d w3 w2 neg d w3 w2 d cl s} def
/m28 {mp x w2 sub y w2 sub w3 add m w3 0 d  0 w3 neg d w3 0 d 0 w3 d w3 0 d  0 w3 d w3 neg 0 d 0 w3 d w3 neg 0 d 0 w3 neg d w3 neg 0 d cl s } def
/m29 {mp gsave x w2 sub y w2 add w3 sub m currentpoint t 4 {side} repeat cl fill gr} def
/m30 {mp gsave x w2 sub y w2 add w3 sub m currentpoint t 4 {side} repeat cl s gr} def
/m31 {mp x y w2 sub m 0 w d x w2 sub y m w 0 d x w2 sub y w2 add m w w neg d x w2 sub y w2 sub m w w d s} def
/m32 {mp x y w2 sub m w2 w d w neg 0 d cl s} def
/m33 {mp x y w2 add m w3 neg w2 neg d w3 w2 neg d w3 w2 d cl f} def
/m34 {mp x w2 sub y w2 sub w3 add m w3 0 d  0 w3 neg d w3 0 d 0 w3 d w3 0 d  0 w3 d w3 neg 0 d 0 w3 d w3 neg 0 d 0 w3 neg d w3 neg 0 d cl f } def
/m2 {mp x y w2 sub m 0 w d x w2 sub y m w 0 d s} def
/m5 {mp x w2 sub y w2 sub m w w d x w2 sub y w2 add m w w neg d s} def
/reEncode {exch findfont dup length dict begin {1 index /FID eq  {pop pop} {def} ifelse } forall /Encoding exch def currentdict end dup /FontName get exch definefont pop } def [/Times-Bold /Times-Italic /Times-BoldItalic /Helvetica /Helvetica-Oblique
 /Helvetica-Bold /Helvetica-BoldOblique /Courier /Courier-Oblique /Courier-Bold /Courier-BoldOblique /Times-Roman /AvantGarde-Book /AvantGarde-BookOblique /AvantGarde-Demi /AvantGarde-DemiOblique /Bookman-Demi /Bookman-DemiItalic /Bookman-Light
 /Bookman-LightItalic /Helvetica-Narrow /Helvetica-Narrow-Bold /Helvetica-Narrow-BoldOblique /Helvetica-Narrow-Oblique /NewCenturySchlbk-Roman /NewCenturySchlbk-Bold /NewCenturySchlbk-BoldItalic /NewCenturySchlbk-Italic /Palatino-Bold
 /Palatino-BoldItalic /Palatino-Italic /Palatino-Roman ] {ISOLatin1Encoding reEncode } forall
%%EndProlog
%%BeginSetup
%%EndSetup
newpath  gsave  .25 .25 scale  gsave  0 0 t black[  ] 0 sd 9 lw 1 1 1 c 993 2948 0 0 bf black 1 1 1 c 973 924 10 1995 bf black 1 1 1 c 789 729 146 2143 bf black 789 729 146 2143 bl 1 1 1 c black 148 2145 m 140 X 7 Y 32 X 17 Y 15 X -9 Y 16 X 27 Y 16 X
 -27 Y 16 X 63 Y 16 X 44 Y 15 X 72 Y 32 X 240 Y 16 X -35 Y 15 X 169 Y 16 X -18 Y 16 X 143 Y 16 X -54 Y 15 X -53 Y 16 X 80 Y 16 X -98 Y 16 X -9 Y 16 X -98 Y 15 X -98 Y 16 X -18 Y 16 X -134 Y 16 X -35 Y 15 X -71 Y 16 X -63 Y 16 X 18 Y 16 X -53 Y 47 X
 -7 Y 158 X s 146 2143 m 789 X s
 gsave  973 924 10 1995 C 630.863 2026.77 t 0 r /Helvetica-Bold findfont 52.0968 sf 0 0 m ( Fitted value) show NC gr 
 gsave  973 924 10 1995 C 594.813 2026.77 t 0 r /Helvetica-Bold findfont 52.0968 sf 0 0 m (D) show NC gr  6 lw 595 2069 m 36 X s 9 lw 146 2165 m -22 Y s 196 2154 m -11 Y s 245 2154 m -11 Y s 294 2154 m -11 Y s 343 2165 m -22 Y s 393 2154 m -11 Y s
 442 2154 m -11 Y s 491 2154 m -11 Y s 540 2165 m -22 Y s 590 2154 m -11 Y s 639 2154 m -11 Y s 688 2154 m -11 Y s 738 2165 m -22 Y s 787 2154 m -11 Y s 836 2154 m -11 Y s 885 2154 m -11 Y s 935 2165 m -22 Y s 146 2165 m -22 Y s
 gsave  973 924 10 1995 C 108.148 2092.86 t 0 r /Helvetica-Bold findfont 44.0819 sf 0 0 m (\2550.4) show NC gr 
 gsave  973 924 10 1995 C 304.416 2092.86 t 0 r /Helvetica-Bold findfont 44.0819 sf 0 0 m (\2550.2) show NC gr 
 gsave  973 924 10 1995 C 526.72 2092.86 t 0 r /Helvetica-Bold findfont 44.0819 sf 0 0 m (0) show NC gr 
 gsave  973 924 10 1995 C 706.967 2092.86 t 0 r /Helvetica-Bold findfont 44.0819 sf 0 0 m (0.2) show NC gr 
 gsave  973 924 10 1995 C 903.235 2092.86 t 0 r /Helvetica-Bold findfont 44.0819 sf 0 0 m (0.4) show NC gr  146 2872 m 789 X s 146 2850 m 22 Y s 196 2861 m 11 Y s 245 2861 m 11 Y s 294 2861 m 11 Y s 343 2850 m 22 Y s 393 2861 m 11 Y s 442 2861 m 11 Y
 s 491 2861 m 11 Y s 540 2850 m 22 Y s 590 2861 m 11 Y s 639 2861 m 11 Y s 688 2861 m 11 Y s 738 2850 m 22 Y s 787 2861 m 11 Y s 836 2861 m 11 Y s 885 2861 m 11 Y s 935 2850 m 22 Y s 146 2850 m 22 Y s 146 2143 m 729 Y s
 gsave  973 924 10 1995 C 66.0904 2561.5 t 90 r /Helvetica-Bold findfont 52.0968 sf 0 0 m (Experiments) show NC gr  169 2143 m -23 X s 158 2160 m -12 X s 158 2178 m -12 X s 158 2196 m -12 X s 158 2214 m -12 X s 169 2232 m -23 X s 158 2250 m -12 X s
 158 2267 m -12 X s 158 2285 m -12 X s 158 2303 m -12 X s 169 2321 m -23 X s 158 2339 m -12 X s 158 2356 m -12 X s 158 2374 m -12 X s 158 2392 m -12 X s 169 2410 m -23 X s 158 2428 m -12 X s 158 2446 m -12 X s 158 2463 m -12 X s 158 2481 m -12 X s
 169 2499 m -23 X s 158 2517 m -12 X s 158 2535 m -12 X s 158 2552 m -12 X s 158 2570 m -12 X s 169 2588 m -23 X s 158 2606 m -12 X s 158 2624 m -12 X s 158 2642 m -12 X s 158 2659 m -12 X s 169 2677 m -23 X s 158 2695 m -12 X s 158 2713 m -12 X s
 158 2731 m -12 X s 158 2749 m -12 X s 169 2766 m -23 X s 158 2784 m -12 X s 158 2802 m -12 X s 158 2820 m -12 X s 158 2838 m -12 X s 169 2855 m -23 X s 169 2855 m -23 X s
 gsave  973 924 10 1995 C 116.159 2126.91 t 0 r /Helvetica-Bold findfont 44.0819 sf 0 0 m (0) show NC gr 
 gsave  973 924 10 1995 C 92.126 2217.03 t 0 r /Helvetica-Bold findfont 44.0819 sf 0 0 m (10) show NC gr 
 gsave  973 924 10 1995 C 92.126 2305.15 t 0 r /Helvetica-Bold findfont 44.0819 sf 0 0 m (20) show NC gr 
 gsave  973 924 10 1995 C 92.126 2395.28 t 0 r /Helvetica-Bold findfont 44.0819 sf 0 0 m (30) show NC gr 
 gsave  973 924 10 1995 C 92.126 2483.4 t 0 r /Helvetica-Bold findfont 44.0819 sf 0 0 m (40) show NC gr 
 gsave  973 924 10 1995 C 92.126 2573.52 t 0 r /Helvetica-Bold findfont 44.0819 sf 0 0 m (50) show NC gr 
 gsave  973 924 10 1995 C 92.126 2661.64 t 0 r /Helvetica-Bold findfont 44.0819 sf 0 0 m (60) show NC gr 
 gsave  973 924 10 1995 C 92.126 2751.76 t 0 r /Helvetica-Bold findfont 44.0819 sf 0 0 m (70) show NC gr 
 gsave  973 924 10 1995 C 92.126 2839.88 t 0 r /Helvetica-Bold findfont 44.0819 sf 0 0 m (80) show NC gr  935 2143 m 729 Y s 912 2143 m 23 X s 923 2160 m 12 X s 923 2178 m 12 X s 923 2196 m 12 X s 923 2214 m 12 X s 912 2232 m 23 X s 923 2250 m 12 X s
 923 2267 m 12 X s 923 2285 m 12 X s 923 2303 m 12 X s 912 2321 m 23 X s 923 2339 m 12 X s 923 2356 m 12 X s 923 2374 m 12 X s 923 2392 m 12 X s 912 2410 m 23 X s 923 2428 m 12 X s 923 2446 m 12 X s 923 2463 m 12 X s 923 2481 m 12 X s 912 2499 m 23 X
 s 923 2517 m 12 X s 923 2535 m 12 X s 923 2552 m 12 X s 923 2570 m 12 X s 912 2588 m 23 X s 923 2606 m 12 X s 923 2624 m 12 X s 923 2642 m 12 X s 923 2659 m 12 X s 912 2677 m 23 X s 923 2695 m 12 X s 923 2713 m 12 X s 923 2731 m 12 X s 923 2749 m 12
 X s 912 2766 m 23 X s 923 2784 m 12 X s 923 2802 m 12 X s 923 2820 m 12 X s 923 2838 m 12 X s 912 2855 m 23 X s 912 2855 m 23 X s 1 1 1 c 973 924 10 1012 bf black 1 1 1 c 789 730 146 1160 bf black 789 730 146 1160 bl 1 1 1 c black 148 1162 m 61 X 3
 Y 16 X 33 Y 16 X 53 Y 16 X 82 Y 15 X 158 Y 16 X 167 Y 16 X 48 Y 16 X 91 Y 15 X 58 Y 16 X -144 Y 16 X -148 Y 16 X -111 Y 16 X -235 Y 31 X -33 Y 16 X -5 Y 16 X -17 Y 473 X s 146 1160 m 789 X s
 gsave  973 924 10 1012 C 280.383 1057.45 t 0 r /Helvetica-Bold findfont 52.0968 sf 0 0 m (Uncertainty on fitted value) show NC gr  239 1182 m -22 Y s 285 1171 m -11 Y s 332 1171 m -11 Y s 378 1171 m -11 Y s 425 1171 m -11 Y s 471 1182 m -22 Y s 517
 1171 m -11 Y s 564 1171 m -11 Y s 610 1171 m -11 Y s 656 1171 m -11 Y s 703 1182 m -22 Y s 749 1171 m -11 Y s 796 1171 m -11 Y s 842 1171 m -11 Y s 888 1171 m -11 Y s 935 1182 m -22 Y s 239 1182 m -22 Y s 193 1171 m -11 Y s
 gsave  973 924 10 1012 C 194.266 1109.52 t 0 r /Helvetica-Bold findfont 44.0819 sf 0 0 m (0.07) show NC gr 
 gsave  973 924 10 1012 C 426.583 1109.52 t 0 r /Helvetica-Bold findfont 44.0819 sf 0 0 m (0.08) show NC gr 
 gsave  973 924 10 1012 C 658.901 1109.52 t 0 r /Helvetica-Bold findfont 44.0819 sf 0 0 m (0.09) show NC gr 
 gsave  973 924 10 1012 C 905.238 1109.52 t 0 r /Helvetica-Bold findfont 44.0819 sf 0 0 m (0.1) show NC gr  146 1890 m 789 X s 239 1867 m 23 Y s 285 1878 m 12 Y s 332 1878 m 12 Y s 378 1878 m 12 Y s 425 1878 m 12 Y s 471 1867 m 23 Y s 517 1878 m 12 Y
 s 564 1878 m 12 Y s 610 1878 m 12 Y s 656 1878 m 12 Y s 703 1867 m 23 Y s 749 1878 m 12 Y s 796 1878 m 12 Y s 842 1878 m 12 Y s 888 1878 m 12 Y s 935 1867 m 23 Y s 239 1867 m 23 Y s 193 1878 m 12 Y s 146 1160 m 730 Y s
 gsave  973 924 10 1012 C 66.0904 1578.16 t 90 r /Helvetica-Bold findfont 52.0968 sf 0 0 m (Experiments) show NC gr  169 1160 m -23 X s 158 1184 m -12 X s 158 1208 m -12 X s 158 1232 m -12 X s 169 1256 m -23 X s 158 1280 m -12 X s 158 1304 m -12 X s
 158 1328 m -12 X s 169 1352 m -23 X s 158 1376 m -12 X s 158 1400 m -12 X s 158 1424 m -12 X s 169 1448 m -23 X s 158 1471 m -12 X s 158 1495 m -12 X s 158 1519 m -12 X s 169 1543 m -23 X s 158 1567 m -12 X s 158 1591 m -12 X s 158 1615 m -12 X s
 169 1639 m -23 X s 158 1663 m -12 X s 158 1687 m -12 X s 158 1711 m -12 X s 169 1735 m -23 X s 158 1759 m -12 X s 158 1783 m -12 X s 158 1807 m -12 X s 169 1831 m -23 X s 169 1831 m -23 X s 158 1855 m -12 X s 158 1879 m -12 X s
 gsave  973 924 10 1012 C 116.159 1145.57 t 0 r /Helvetica-Bold findfont 44.0819 sf 0 0 m (0) show NC gr 
 gsave  973 924 10 1012 C 92.126 1241.7 t 0 r /Helvetica-Bold findfont 44.0819 sf 0 0 m (20) show NC gr 
 gsave  973 924 10 1012 C 92.126 1335.83 t 0 r /Helvetica-Bold findfont 44.0819 sf 0 0 m (40) show NC gr 
 gsave  973 924 10 1012 C 92.126 1431.96 t 0 r /Helvetica-Bold findfont 44.0819 sf 0 0 m (60) show NC gr 
 gsave  973 924 10 1012 C 92.126 1528.09 t 0 r /Helvetica-Bold findfont 44.0819 sf 0 0 m (80) show NC gr 
 gsave  973 924 10 1012 C 68.0931 1624.22 t 0 r /Helvetica-Bold findfont 44.0819 sf 0 0 m (100) show NC gr 
 gsave  973 924 10 1012 C 68.0931 1720.35 t 0 r /Helvetica-Bold findfont 44.0819 sf 0 0 m (120) show NC gr 
 gsave  973 924 10 1012 C 68.0931 1816.48 t 0 r /Helvetica-Bold findfont 44.0819 sf 0 0 m (140) show NC gr  935 1160 m 730 Y s 912 1160 m 23 X s 923 1184 m 12 X s 923 1208 m 12 X s 923 1232 m 12 X s 912 1256 m 23 X s 923 1280 m 12 X s 923 1304 m 12 X
 s 923 1328 m 12 X s 912 1352 m 23 X s 923 1376 m 12 X s 923 1400 m 12 X s 923 1424 m 12 X s 912 1448 m 23 X s 923 1471 m 12 X s 923 1495 m 12 X s 923 1519 m 12 X s 912 1543 m 23 X s 923 1567 m 12 X s 923 1591 m 12 X s 923 1615 m 12 X s 912 1639 m 23
 X s 923 1663 m 12 X s 923 1687 m 12 X s 923 1711 m 12 X s 912 1735 m 23 X s 923 1759 m 12 X s 923 1783 m 12 X s 923 1807 m 12 X s 912 1831 m 23 X s 912 1831 m 23 X s 923 1855 m 12 X s 923 1879 m 12 X s 1 1 1 c 973 924 10 29 bf black 1 1 1 c 789 730
 146 177 bf black 789 730 146 177 bl 1 1 1 c black 3 lw /w 24 def /w2 {w 2 div} def /w3 {w 3 div} def 170 189 m20 9 lw 186 184 m 4 Y s 186 212 m 5 Y s 3 lw 186 200 m20 9 lw 201 200 m 11 Y s 201 235 m 11 Y s 3 lw 201 223 m20 9 lw 217 200 m 11 Y s 217
 235 m 11 Y s 3 lw 217 223 m20 9 lw 233 184 m 4 Y s 233 212 m 5 Y s 3 lw 233 200 m20 9 lw 249 209 m 14 Y s 249 247 m 14 Y s 3 lw 249 235 m20 9 lw 265 227 m 19 Y s 265 270 m 18 Y s 3 lw 265 258 m20 9 lw 280 237 m 20 Y s 280 282 m 20 Y s 3 lw 280 270
 m20 9 lw 296 256 m 25 Y s 296 305 m 24 Y s 3 lw 296 293 m20 9 lw 312 286 m 29 Y s 312 339 m 30 Y s 3 lw 312 327 m20 9 lw 328 306 m 32 Y s 328 362 m 33 Y s 3 lw 328 350 m20 9 lw 343 336 m 37 Y s 343 397 m 37 Y s 3 lw 343 385 m20 9 lw 359 356 m 40 Y s
 359 420 m 39 Y s 3 lw 359 408 m20 9 lw 375 387 m 43 Y s 375 454 m 44 Y s 3 lw 375 442 m20 9 lw 391 377 m 42 Y s 391 443 m 42 Y s 3 lw 391 431 m20 9 lw 406 502 m 55 Y s 406 581 m 55 Y s 3 lw 406 569 m20 9 lw 422 450 m 50 Y s 422 524 m 50 Y s 3 lw 422
 512 m20 9 lw 438 439 m 49 Y s 438 512 m 49 Y s 3 lw 438 500 m20 9 lw 454 502 m 55 Y s 454 581 m 55 Y s 3 lw 454 569 m20 9 lw 470 544 m 59 Y s 470 627 m 59 Y s 3 lw 470 615 m20 9 lw 485 460 m 51 Y s 485 535 m 51 Y s 3 lw 485 523 m20 9 lw 501 640 m 67
 Y s 501 731 m 67 Y s 3 lw 501 719 m20 9 lw 517 450 m 50 Y s 517 524 m 50 Y s 3 lw 517 512 m20 9 lw 533 629 m 67 Y s 533 720 m 66 Y s 3 lw 533 708 m20 9 lw 548 534 m 58 Y s 548 616 m 58 Y s 3 lw 548 604 m20 9 lw 564 587 m 62 Y s 564 674 m 62 Y s 3 lw
 564 662 m20 9 lw 580 704 m 72 Y s 580 800 m 72 Y s 3 lw 580 788 m20 9 lw 596 555 m 60 Y s 596 639 m 60 Y s 3 lw 596 627 m20 9 lw 611 439 m 49 Y s 611 512 m 49 Y s 3 lw 611 500 m20 9 lw 627 597 m 64 Y s 627 685 m 64 Y s 3 lw 627 673 m20 9 lw 643 470
 m 53 Y s 643 547 m 52 Y s 3 lw 643 535 m20 9 lw 659 418 m 47 Y s 659 489 m 47 Y s 3 lw 659 477 m20 9 lw 675 470 m 53 Y s 675 547 m 52 Y s 3 lw 675 535 m20 9 lw 690 429 m 48 Y s 690 501 m 47 Y s 3 lw 690 489 m20 9 lw 706 356 m 40 Y s 706 420 m 39 Y s
 3 lw 706 408 m20 9 lw 722 286 m 29 Y s 722 339 m 30 Y s 3 lw 722 327 m20 9 lw 738 286 m 29 Y s 738 339 m 30 Y s 3 lw 738 327 m20 9 lw 753 286 m 29 Y s 753 339 m 30 Y s 3 lw 753 327 m20 9 lw 769 218 m 16 Y s 769 258 m 17 Y s 3 lw 769 246 m20 9 lw 785
 256 m 25 Y s 785 305 m 24 Y s 3 lw 785 293 m20 9 lw 801 209 m 14 Y s 801 247 m 14 Y s 3 lw 801 235 m20 9 lw 832 192 m 8 Y s 832 224 m 8 Y s 3 lw 832 212 m20 9 lw 848 200 m 11 Y s 848 235 m 11 Y s 3 lw 848 223 m20 9 lw 3 lw 864 189 m20 9 lw 880 184 m
 4 Y s 880 212 m 5 Y s 3 lw 880 200 m20 9 lw 911 184 m 4 Y s 911 212 m 5 Y s 3 lw 911 200 m20 9 lw 3 lw 927 189 m20 9 lw 0.95 0.95 0.95 c black 150 187 m 8 2 d 8 2 d 8 2 d 8 3 d 8 3 d 7 3 d 8 3 d 8 5 d 8 4 d 8 5 d 8 6 d 8 6 d 8 7 d 8 8 d 7 8 d 8 9 d
 8 9 d 8 10 d 8 11 d 8 12 d 8 13 d 8 13 d 8 14 d 7 14 d 8 15 d 8 16 d 8 16 d 8 16 d 8 17 d 8 17 d 8 17 d 7 17 d 8 17 d 8 17 d 8 17 d 8 16 d 8 15 d 8 14 d 8 14 d 8 13 d 7 12 d 8 10 d 8 9 d 8 8 d 8 6 d 8 5 d 8 3 d 8 1 d 8 X s 537 667 m 7 -2 d 8 -3 d 8
 -5 d 8 -7 d 8 -8 d 8 -9 d 8 -11 d 8 -12 d 8 -13 d 7 -14 d 8 -14 d 8 -16 d 8 -16 d 8 -16 d 8 -17 d 8 -17 d 8 -17 d 7 -18 d 8 -16 d 8 -17 d 8 -17 d 8 -16 d 8 -15 d 8 -15 d 8 -14 d 8 -14 d 7 -13 d 8 -12 d 8 -12 d 8 -11 d 8 -10 d 8 -9 d 8 -9 d 8 -8 d 8
 -7 d 7 -7 d 8 -6 d 8 -6 d 8 -5 d 8 -4 d 8 -4 d 8 -4 d 8 -3 d 7 -3 d 8 -2 d 8 -3 d 8 -1 d 8 -2 d 8 -2 d s 923 185 m 8 -1 d s 146 177 m 789 X s
 gsave  973 924 10 29 C 841.15 70.0959 t 0 r /Helvetica-Bold findfont 52.0968 sf 0 0 m (Pull) show NC gr  278 200 m -23 Y s 343 188 m -11 Y s 409 188 m -11 Y s 475 188 m -11 Y s 540 200 m -23 Y s 606 188 m -11 Y s 672 188 m -11 Y s 738 188 m -11 Y s
 803 200 m -23 Y s 278 200 m -23 Y s 212 188 m -11 Y s 146 188 m -11 Y s 803 200 m -23 Y s 869 188 m -11 Y s 935 188 m -11 Y s
 gsave  973 924 10 29 C 256.351 128.175 t 0 r /Helvetica-Bold findfont 44.0819 sf 0 0 m (\2552) show NC gr 
 gsave  973 924 10 29 C 526.72 128.175 t 0 r /Helvetica-Bold findfont 44.0819 sf 0 0 m (0) show NC gr 
 gsave  973 924 10 29 C 791.082 128.175 t 0 r /Helvetica-Bold findfont 44.0819 sf 0 0 m (2) show NC gr  146 907 m 789 X s 278 885 m 22 Y s 343 896 m 11 Y s 409 896 m 11 Y s 475 896 m 11 Y s 540 885 m 22 Y s 606 896 m 11 Y s 672 896 m 11 Y s 738 896 m
 11 Y s 803 885 m 22 Y s 278 885 m 22 Y s 212 896 m 11 Y s 146 896 m 11 Y s 803 885 m 22 Y s 869 896 m 11 Y s 935 896 m 11 Y s 146 177 m 730 Y s
 gsave  973 924 10 29 C 66.0904 594.813 t 90 r /Helvetica-Bold findfont 52.0968 sf 0 0 m (Experiments) show NC gr  169 177 m -23 X s 158 200 m -12 X s 158 223 m -12 X s 158 246 m -12 X s 158 270 m -12 X s 169 293 m -23 X s 158 316 m -12 X s 158 339 m
 -12 X s 158 362 m -12 X s 158 385 m -12 X s 169 408 m -23 X s 158 431 m -12 X s 158 454 m -12 X s 158 477 m -12 X s 158 500 m -12 X s 169 523 m -23 X s 158 546 m -12 X s 158 569 m -12 X s 158 592 m -12 X s 158 615 m -12 X s 169 638 m -23 X s 158 662
 m -12 X s 158 685 m -12 X s 158 708 m -12 X s 158 731 m -12 X s 169 754 m -23 X s 158 777 m -12 X s 158 800 m -12 X s 158 823 m -12 X s 158 846 m -12 X s 169 869 m -23 X s 169 869 m -23 X s 158 892 m -12 X s
 gsave  973 924 10 29 C 116.159 162.222 t 0 r /Helvetica-Bold findfont 44.0819 sf 0 0 m (0) show NC gr 
 gsave  973 924 10 29 C 92.126 278.381 t 0 r /Helvetica-Bold findfont 44.0819 sf 0 0 m (10) show NC gr 
 gsave  973 924 10 29 C 92.126 392.537 t 0 r /Helvetica-Bold findfont 44.0819 sf 0 0 m (20) show NC gr 
 gsave  973 924 10 29 C 92.126 508.696 t 0 r /Helvetica-Bold findfont 44.0819 sf 0 0 m (30) show NC gr 
 gsave  973 924 10 29 C 92.126 622.852 t 0 r /Helvetica-Bold findfont 44.0819 sf 0 0 m (40) show NC gr 
 gsave  973 924 10 29 C 92.126 739.011 t 0 r /Helvetica-Bold findfont 44.0819 sf 0 0 m (50) show NC gr 
 gsave  973 924 10 29 C 92.126 853.167 t 0 r /Helvetica-Bold findfont 44.0819 sf 0 0 m (60) show NC gr  935 177 m 730 Y s 912 177 m 23 X s 923 200 m 12 X s 923 223 m 12 X s 923 246 m 12 X s 923 270 m 12 X s 912 293 m 23 X s 923 316 m 12 X s 923 339 m
 12 X s 923 362 m 12 X s 923 385 m 12 X s 912 408 m 23 X s 923 431 m 12 X s 923 454 m 12 X s 923 477 m 12 X s 923 500 m 12 X s 912 523 m 23 X s 923 546 m 12 X s 923 569 m 12 X s 923 592 m 12 X s 923 615 m 12 X s 912 638 m 23 X s 923 662 m 12 X s 923
 685 m 12 X s 923 708 m 12 X s 923 731 m 12 X s 912 754 m 23 X s 923 777 m 12 X s 923 800 m 12 X s 923 823 m 12 X s 923 846 m 12 X s 912 869 m 23 X s 912 869 m 23 X s 923 892 m 12 X s
 gr  gr showpage
end
%%EOF
