%!PS-Adobe-2.0 EPSF-2.0
%%BoundingBox:  0 0 248 737
%%Title: PullPlot_DsPi_Time_Signal_deltaMs.eps: pullcanvassignal_deltaMs
%%Creator: ROOT Version 5.34/09
%%CreationDate: Thu Aug 29 11:46:13 2013
%%EndComments
%%BeginProlog
80 dict begin
/s {stroke} def /l {lineto} def /m {moveto} def /t {translate} def
/r {rotate} def /rl {roll}  def /R {repeat} def
/d {rlineto} def /rm {rmoveto} def /gr {grestore} def /f {eofill} def
/c {setrgbcolor} def /black {0 setgray} def /sd {setdash} def
/cl {closepath} def /sf {scalefont setfont} def /lw {setlinewidth} def
/box {m dup 0 exch d exch 0 d 0 exch neg d cl} def
/NC{systemdict begin initclip end}def/C{NC box clip newpath}def
/bl {box s} def /bf {box f} def /Y { 0 exch d} def /X { 0 d} def 
/K {{pop pop 0 moveto} exch kshow} bind def
/ita {/ang 15 def gsave [1 0 ang dup sin exch cos div 1 0 0] concat} def 
/mp {newpath /y exch def /x exch def} def
/side {[w .77 mul w .23 mul] .385 w mul sd w 0 l currentpoint t -144 r} def
/mr {mp x y w2 0 360 arc} def /m24 {mr s} def /m20 {mr f} def
/mb {mp x y w2 add m w2 neg 0 d 0 w neg d w 0 d 0 w d cl} def
/mt {mp x y w2 add m w2 neg w neg d w 0 d cl} def
/m21 {mb f} def /m25 {mb s} def /m22 {mt f} def /m26{mt s} def
/m23 {mp x y w2 sub m w2 w d w neg 0 d cl f} def
/m27 {mp x y w2 add m w3 neg w2 neg d w3 w2 neg d w3 w2 d cl s} def
/m28 {mp x w2 sub y w2 sub w3 add m w3 0 d  0 w3 neg d w3 0 d 0 w3 d w3 0 d  0 w3 d w3 neg 0 d 0 w3 d w3 neg 0 d 0 w3 neg d w3 neg 0 d cl s } def
/m29 {mp gsave x w2 sub y w2 add w3 sub m currentpoint t 4 {side} repeat cl fill gr} def
/m30 {mp gsave x w2 sub y w2 add w3 sub m currentpoint t 4 {side} repeat cl s gr} def
/m31 {mp x y w2 sub m 0 w d x w2 sub y m w 0 d x w2 sub y w2 add m w w neg d x w2 sub y w2 sub m w w d s} def
/m32 {mp x y w2 sub m w2 w d w neg 0 d cl s} def
/m33 {mp x y w2 add m w3 neg w2 neg d w3 w2 neg d w3 w2 d cl f} def
/m34 {mp x w2 sub y w2 sub w3 add m w3 0 d  0 w3 neg d w3 0 d 0 w3 d w3 0 d  0 w3 d w3 neg 0 d 0 w3 d w3 neg 0 d 0 w3 neg d w3 neg 0 d cl f } def
/m2 {mp x y w2 sub m 0 w d x w2 sub y m w 0 d s} def
/m5 {mp x w2 sub y w2 sub m w w d x w2 sub y w2 add m w w neg d s} def
/reEncode {exch findfont dup length dict begin {1 index /FID eq  {pop pop} {def} ifelse } forall /Encoding exch def currentdict end dup /FontName get exch definefont pop } def [/Times-Bold /Times-Italic /Times-BoldItalic /Helvetica /Helvetica-Oblique
 /Helvetica-Bold /Helvetica-BoldOblique /Courier /Courier-Oblique /Courier-Bold /Courier-BoldOblique /Times-Roman /AvantGarde-Book /AvantGarde-BookOblique /AvantGarde-Demi /AvantGarde-DemiOblique /Bookman-Demi /Bookman-DemiItalic /Bookman-Light
 /Bookman-LightItalic /Helvetica-Narrow /Helvetica-Narrow-Bold /Helvetica-Narrow-BoldOblique /Helvetica-Narrow-Oblique /NewCenturySchlbk-Roman /NewCenturySchlbk-Bold /NewCenturySchlbk-BoldItalic /NewCenturySchlbk-Italic /Palatino-Bold
 /Palatino-BoldItalic /Palatino-Italic /Palatino-Roman ] {ISOLatin1Encoding reEncode } forall
%%EndProlog
%%BeginSetup
%%EndSetup
newpath  gsave  .25 .25 scale  gsave  0 0 t black[  ] 0 sd 9 lw 1 1 1 c 993 2948 0 0 bf black 1 1 1 c 973 924 10 1995 bf black 1 1 1 c 789 729 146 2143 bf black 789 729 146 2143 bl 1 1 1 c black 148 2145 m 93 X 5 Y 31 X 8 Y 16 X -13 Y 16 X 21 Y 31 X
 68 Y 32 X 100 Y 16 X 38 Y 16 X 61 Y 15 X 61 Y 16 X 122 Y 16 X 222 Y 16 X -199 Y 15 X 153 Y 16 X -191 Y 16 X 168 Y 16 X -31 Y 15 X -236 Y 32 X -130 Y 16 X 84 Y 16 X -214 Y 15 X 84 Y 16 X -130 Y 16 X -15 Y 31 X -15 Y 16 X -8 Y 16 X -8 Y 16 X -5 Y 16 X
 5 Y 15 X -5 Y 174 X s 146 2143 m 789 X s
 gsave  973 924 10 1995 C 630.863 2040.79 t 0 r /Helvetica-Bold findfont 52.0968 sf 0 0 m ( Fitted value) show NC gr 
 gsave  973 924 10 1995 C 612.838 2028.77 t 0 r /Helvetica-Bold findfont 34.0633 sf 0 0 m (s) show NC gr 
 gsave  973 924 10 1995 C 554.759 2040.79 t 0 r /Helvetica-Bold findfont 52.0968 sf 0 0 m ( m) show NC gr 
 gsave  973 924 10 1995 C 522.715 2040.79 t 0 r /Symbol findfont 52.0968 sf 0 0 m (D) show NC gr  146 2165 m -22 Y s 178 2154 m -11 Y s 209 2154 m -11 Y s 241 2154 m -11 Y s 272 2154 m -11 Y s 304 2165 m -22 Y s 335 2154 m -11 Y s 367 2154 m -11 Y s
 399 2154 m -11 Y s 430 2154 m -11 Y s 462 2165 m -22 Y s 493 2154 m -11 Y s 525 2154 m -11 Y s 556 2154 m -11 Y s 588 2154 m -11 Y s 619 2165 m -22 Y s 651 2154 m -11 Y s 682 2154 m -11 Y s 714 2154 m -11 Y s 746 2154 m -11 Y s 777 2165 m -22 Y s
 809 2154 m -11 Y s 840 2154 m -11 Y s 872 2154 m -11 Y s 903 2154 m -11 Y s 935 2165 m -22 Y s
 gsave  973 924 10 1995 C 104.142 2092.86 t 0 r /Helvetica-Bold findfont 44.0819 sf 0 0 m (17.5) show NC gr 
 gsave  973 924 10 1995 C 260.356 2092.86 t 0 r /Helvetica-Bold findfont 44.0819 sf 0 0 m (17.6) show NC gr 
 gsave  973 924 10 1995 C 416.57 2092.86 t 0 r /Helvetica-Bold findfont 44.0819 sf 0 0 m (17.7) show NC gr 
 gsave  973 924 10 1995 C 574.786 2092.86 t 0 r /Helvetica-Bold findfont 44.0819 sf 0 0 m (17.8) show NC gr 
 gsave  973 924 10 1995 C 733.002 2092.86 t 0 r /Helvetica-Bold findfont 44.0819 sf 0 0 m (17.9) show NC gr 
 gsave  973 924 10 1995 C 909.243 2092.86 t 0 r /Helvetica-Bold findfont 44.0819 sf 0 0 m (18) show NC gr  146 2872 m 789 X s 146 2850 m 22 Y s 178 2861 m 11 Y s 209 2861 m 11 Y s 241 2861 m 11 Y s 272 2861 m 11 Y s 304 2850 m 22 Y s 335 2861 m 11 Y
 s 367 2861 m 11 Y s 399 2861 m 11 Y s 430 2861 m 11 Y s 462 2850 m 22 Y s 493 2861 m 11 Y s 525 2861 m 11 Y s 556 2861 m 11 Y s 588 2861 m 11 Y s 619 2850 m 22 Y s 651 2861 m 11 Y s 682 2861 m 11 Y s 714 2861 m 11 Y s 746 2861 m 11 Y s 777 2850 m 22
 Y s 809 2861 m 11 Y s 840 2861 m 11 Y s 872 2861 m 11 Y s 903 2861 m 11 Y s 935 2850 m 22 Y s 146 2143 m 729 Y s
 gsave  973 924 10 1995 C 66.0904 2561.5 t 90 r /Helvetica-Bold findfont 52.0968 sf 0 0 m (Experiments) show NC gr  169 2143 m -23 X s 158 2158 m -12 X s 158 2173 m -12 X s 158 2188 m -12 X s 158 2204 m -12 X s 169 2219 m -23 X s 158 2234 m -12 X s
 158 2250 m -12 X s 158 2265 m -12 X s 158 2280 m -12 X s 169 2295 m -23 X s 158 2311 m -12 X s 158 2326 m -12 X s 158 2341 m -12 X s 158 2356 m -12 X s 169 2372 m -23 X s 158 2387 m -12 X s 158 2402 m -12 X s 158 2418 m -12 X s 158 2433 m -12 X s
 169 2448 m -23 X s 158 2463 m -12 X s 158 2479 m -12 X s 158 2494 m -12 X s 158 2509 m -12 X s 169 2524 m -23 X s 158 2540 m -12 X s 158 2555 m -12 X s 158 2570 m -12 X s 158 2586 m -12 X s 169 2601 m -23 X s 158 2616 m -12 X s 158 2631 m -12 X s
 158 2647 m -12 X s 158 2662 m -12 X s 169 2677 m -23 X s 158 2693 m -12 X s 158 2708 m -12 X s 158 2723 m -12 X s 158 2738 m -12 X s 169 2754 m -23 X s 158 2769 m -12 X s 158 2784 m -12 X s 158 2799 m -12 X s 158 2815 m -12 X s 169 2830 m -23 X s
 169 2830 m -23 X s 158 2845 m -12 X s 158 2861 m -12 X s
 gsave  973 924 10 1995 C 116.159 2126.91 t 0 r /Helvetica-Bold findfont 44.0819 sf 0 0 m (0) show NC gr 
 gsave  973 924 10 1995 C 92.126 2203.01 t 0 r /Helvetica-Bold findfont 44.0819 sf 0 0 m (10) show NC gr 
 gsave  973 924 10 1995 C 92.126 2281.12 t 0 r /Helvetica-Bold findfont 44.0819 sf 0 0 m (20) show NC gr 
 gsave  973 924 10 1995 C 92.126 2357.22 t 0 r /Helvetica-Bold findfont 44.0819 sf 0 0 m (30) show NC gr 
 gsave  973 924 10 1995 C 92.126 2433.33 t 0 r /Helvetica-Bold findfont 44.0819 sf 0 0 m (40) show NC gr 
 gsave  973 924 10 1995 C 92.126 2509.43 t 0 r /Helvetica-Bold findfont 44.0819 sf 0 0 m (50) show NC gr 
 gsave  973 924 10 1995 C 92.126 2585.54 t 0 r /Helvetica-Bold findfont 44.0819 sf 0 0 m (60) show NC gr 
 gsave  973 924 10 1995 C 92.126 2661.64 t 0 r /Helvetica-Bold findfont 44.0819 sf 0 0 m (70) show NC gr 
 gsave  973 924 10 1995 C 92.126 2737.74 t 0 r /Helvetica-Bold findfont 44.0819 sf 0 0 m (80) show NC gr 
 gsave  973 924 10 1995 C 92.126 2815.85 t 0 r /Helvetica-Bold findfont 44.0819 sf 0 0 m (90) show NC gr  935 2143 m 729 Y s 912 2143 m 23 X s 923 2158 m 12 X s 923 2173 m 12 X s 923 2188 m 12 X s 923 2204 m 12 X s 912 2219 m 23 X s 923 2234 m 12 X s
 923 2250 m 12 X s 923 2265 m 12 X s 923 2280 m 12 X s 912 2295 m 23 X s 923 2311 m 12 X s 923 2326 m 12 X s 923 2341 m 12 X s 923 2356 m 12 X s 912 2372 m 23 X s 923 2387 m 12 X s 923 2402 m 12 X s 923 2418 m 12 X s 923 2433 m 12 X s 912 2448 m 23 X
 s 923 2463 m 12 X s 923 2479 m 12 X s 923 2494 m 12 X s 923 2509 m 12 X s 912 2524 m 23 X s 923 2540 m 12 X s 923 2555 m 12 X s 923 2570 m 12 X s 923 2586 m 12 X s 912 2601 m 23 X s 923 2616 m 12 X s 923 2631 m 12 X s 923 2647 m 12 X s 923 2662 m 12
 X s 912 2677 m 23 X s 923 2693 m 12 X s 923 2708 m 12 X s 923 2723 m 12 X s 923 2738 m 12 X s 912 2754 m 23 X s 923 2769 m 12 X s 923 2784 m 12 X s 923 2799 m 12 X s 923 2815 m 12 X s 912 2830 m 23 X s 912 2830 m 23 X s 923 2845 m 12 X s 923 2861 m
 12 X s 1 1 1 c 973 924 10 1012 bf black 1 1 1 c 789 730 146 1160 bf black 789 730 146 1160 bl 1 1 1 c black 148 1162 m 46 X 7 Y 15 X -7 Y 32 X 25 Y 16 X -18 Y 15 X 36 Y 16 X 62 Y 16 X 107 Y 16 X 27 Y 15 X 26 Y 16 X 178 Y 16 X 116 Y 16 X 54 Y 16 X
 -80 Y 15 X 44 Y 16 X 116 Y 16 X -125 Y 31 X -71 Y 16 X -36 Y 16 X -124 Y 16 X -27 Y 15 X -116 Y 32 X -9 Y 16 X -36 Y 16 X -89 Y 15 X -35 Y 16 X 53 Y 16 X -35 Y 31 X -18 Y 16 X -18 Y 16 X 9 Y 16 X 9 Y 16 X -9 Y 15 X -9 Y 16 X -7 Y 32 X 7 Y 15 X -7 Y
 111 X s 146 1160 m 789 X s
 gsave  973 924 10 1012 C 280.383 1057.45 t 0 r /Helvetica-Bold findfont 52.0968 sf 0 0 m (Uncertainty on fitted value) show NC gr  146 1182 m -22 Y s 186 1171 m -11 Y s 225 1171 m -11 Y s 265 1171 m -11 Y s 304 1171 m -11 Y s 343 1182 m -22 Y s 383
 1171 m -11 Y s 422 1171 m -11 Y s 462 1171 m -11 Y s 501 1171 m -11 Y s 540 1182 m -22 Y s 580 1171 m -11 Y s 619 1171 m -11 Y s 659 1171 m -11 Y s 698 1171 m -11 Y s 738 1182 m -22 Y s 777 1171 m -11 Y s 816 1171 m -11 Y s 856 1171 m -11 Y s 895
 1171 m -11 Y s 935 1182 m -22 Y s
 gsave  973 924 10 1012 C 104.142 1109.52 t 0 r /Helvetica-Bold findfont 44.0819 sf 0 0 m (0.03) show NC gr 
 gsave  973 924 10 1012 C 298.408 1109.52 t 0 r /Helvetica-Bold findfont 44.0819 sf 0 0 m (0.04) show NC gr 
 gsave  973 924 10 1012 C 496.679 1109.52 t 0 r /Helvetica-Bold findfont 44.0819 sf 0 0 m (0.05) show NC gr 
 gsave  973 924 10 1012 C 694.95 1109.52 t 0 r /Helvetica-Bold findfont 44.0819 sf 0 0 m (0.06) show NC gr 
 gsave  973 924 10 1012 C 889.216 1109.52 t 0 r /Helvetica-Bold findfont 44.0819 sf 0 0 m (0.07) show NC gr  146 1890 m 789 X s 146 1867 m 23 Y s 186 1878 m 12 Y s 225 1878 m 12 Y s 265 1878 m 12 Y s 304 1878 m 12 Y s 343 1867 m 23 Y s 383 1878 m 12
 Y s 422 1878 m 12 Y s 462 1878 m 12 Y s 501 1878 m 12 Y s 540 1867 m 23 Y s 580 1878 m 12 Y s 619 1878 m 12 Y s 659 1878 m 12 Y s 698 1878 m 12 Y s 738 1867 m 23 Y s 777 1878 m 12 Y s 816 1878 m 12 Y s 856 1878 m 12 Y s 895 1878 m 12 Y s 935 1867 m
 23 Y s 146 1160 m 730 Y s
 gsave  973 924 10 1012 C 66.0904 1578.16 t 90 r /Helvetica-Bold findfont 52.0968 sf 0 0 m (Experiments) show NC gr  169 1160 m -23 X s 158 1178 m -12 X s 158 1196 m -12 X s 158 1213 m -12 X s 158 1231 m -12 X s 169 1249 m -23 X s 158 1267 m -12 X s
 158 1285 m -12 X s 158 1303 m -12 X s 158 1320 m -12 X s 169 1338 m -23 X s 158 1356 m -12 X s 158 1374 m -12 X s 158 1392 m -12 X s 158 1409 m -12 X s 169 1427 m -23 X s 158 1445 m -12 X s 158 1463 m -12 X s 158 1481 m -12 X s 158 1499 m -12 X s
 169 1516 m -23 X s 158 1534 m -12 X s 158 1552 m -12 X s 158 1570 m -12 X s 158 1588 m -12 X s 169 1605 m -23 X s 158 1623 m -12 X s 158 1641 m -12 X s 158 1659 m -12 X s 158 1677 m -12 X s 169 1695 m -23 X s 158 1712 m -12 X s 158 1730 m -12 X s
 158 1748 m -12 X s 158 1766 m -12 X s 169 1784 m -23 X s 158 1801 m -12 X s 158 1819 m -12 X s 158 1837 m -12 X s 158 1855 m -12 X s 169 1873 m -23 X s 169 1873 m -23 X s
 gsave  973 924 10 1012 C 116.159 1145.57 t 0 r /Helvetica-Bold findfont 44.0819 sf 0 0 m (0) show NC gr 
 gsave  973 924 10 1012 C 92.126 1233.69 t 0 r /Helvetica-Bold findfont 44.0819 sf 0 0 m (10) show NC gr 
 gsave  973 924 10 1012 C 92.126 1323.81 t 0 r /Helvetica-Bold findfont 44.0819 sf 0 0 m (20) show NC gr 
 gsave  973 924 10 1012 C 92.126 1411.93 t 0 r /Helvetica-Bold findfont 44.0819 sf 0 0 m (30) show NC gr 
 gsave  973 924 10 1012 C 92.126 1502.05 t 0 r /Helvetica-Bold findfont 44.0819 sf 0 0 m (40) show NC gr 
 gsave  973 924 10 1012 C 92.126 1590.17 t 0 r /Helvetica-Bold findfont 44.0819 sf 0 0 m (50) show NC gr 
 gsave  973 924 10 1012 C 92.126 1680.3 t 0 r /Helvetica-Bold findfont 44.0819 sf 0 0 m (60) show NC gr 
 gsave  973 924 10 1012 C 92.126 1768.42 t 0 r /Helvetica-Bold findfont 44.0819 sf 0 0 m (70) show NC gr 
 gsave  973 924 10 1012 C 92.126 1858.54 t 0 r /Helvetica-Bold findfont 44.0819 sf 0 0 m (80) show NC gr  935 1160 m 730 Y s 912 1160 m 23 X s 923 1178 m 12 X s 923 1196 m 12 X s 923 1213 m 12 X s 923 1231 m 12 X s 912 1249 m 23 X s 923 1267 m 12 X s
 923 1285 m 12 X s 923 1303 m 12 X s 923 1320 m 12 X s 912 1338 m 23 X s 923 1356 m 12 X s 923 1374 m 12 X s 923 1392 m 12 X s 923 1409 m 12 X s 912 1427 m 23 X s 923 1445 m 12 X s 923 1463 m 12 X s 923 1481 m 12 X s 923 1499 m 12 X s 912 1516 m 23 X
 s 923 1534 m 12 X s 923 1552 m 12 X s 923 1570 m 12 X s 923 1588 m 12 X s 912 1605 m 23 X s 923 1623 m 12 X s 923 1641 m 12 X s 923 1659 m 12 X s 923 1677 m 12 X s 912 1695 m 23 X s 923 1712 m 12 X s 923 1730 m 12 X s 923 1748 m 12 X s 923 1766 m 12
 X s 912 1784 m 23 X s 923 1801 m 12 X s 923 1819 m 12 X s 923 1837 m 12 X s 923 1855 m 12 X s 912 1873 m 23 X s 912 1873 m 23 X s 1 1 1 c 973 924 10 29 bf black 1 1 1 c 789 730 146 177 bf black 789 730 146 177 bl 1 1 1 c black 3 lw /w 24 def /w2 {w
 2 div} def /w3 {w 3 div} def 154 189 m20 9 lw 3 lw 170 189 m20 9 lw 3 lw 186 189 m20 9 lw 3 lw 201 189 m20 9 lw 217 184 m 5 Y s 217 213 m 4 Y s 3 lw 217 201 m20 9 lw 233 210 m 14 Y s 233 248 m 14 Y s 3 lw 233 236 m20 9 lw 249 201 m 11 Y s 249 236 m
 12 Y s 3 lw 249 224 m20 9 lw 265 238 m 21 Y s 265 283 m 21 Y s 3 lw 265 271 m20 9 lw 280 228 m 19 Y s 280 271 m 19 Y s 3 lw 280 259 m20 9 lw 296 219 m 17 Y s 296 260 m 16 Y s 3 lw 296 248 m20 9 lw 312 288 m 30 Y s 312 342 m 30 Y s 3 lw 312 330 m20 9
 lw 328 267 m 27 Y s 328 318 m 27 Y s 3 lw 328 306 m20 9 lw 343 277 m 29 Y s 343 330 m 29 Y s 3 lw 343 318 m20 9 lw 359 339 m 38 Y s 359 401 m 37 Y s 3 lw 359 389 m20 9 lw 375 380 m 43 Y s 375 448 m 43 Y s 3 lw 375 435 m20 9 lw 391 370 m 42 Y s 391
 436 m 42 Y s 3 lw 391 424 m20 9 lw 406 401 m 46 Y s 406 471 m 45 Y s 3 lw 406 459 m20 9 lw 422 370 m 42 Y s 422 436 m 42 Y s 3 lw 422 424 m20 9 lw 438 497 m 56 Y s 438 577 m 55 Y s 3 lw 438 565 m20 9 lw 454 551 m 60 Y s 454 635 m 61 Y s 3 lw 454 623
 m20 9 lw 470 605 m 65 Y s 470 694 m 65 Y s 3 lw 470 682 m20 9 lw 485 583 m 63 Y s 485 671 m 63 Y s 3 lw 485 659 m20 9 lw 501 594 m 64 Y s 501 682 m 64 Y s 3 lw 501 670 m20 9 lw 517 519 m 57 Y s 517 600 m 58 Y s 3 lw 517 588 m20 9 lw 533 573 m 62 Y s
 533 659 m 62 Y s 3 lw 533 647 m20 9 lw 548 616 m 66 Y s 548 706 m 66 Y s 3 lw 548 694 m20 9 lw 564 627 m 66 Y s 564 717 m 67 Y s 3 lw 564 705 m20 9 lw 580 519 m 57 Y s 580 600 m 58 Y s 3 lw 580 588 m20 9 lw 596 573 m 62 Y s 596 659 m 62 Y s 3 lw 596
 647 m20 9 lw 611 703 m 73 Y s 611 800 m 72 Y s 3 lw 611 788 m20 9 lw 627 551 m 60 Y s 627 635 m 61 Y s 3 lw 627 623 m20 9 lw 643 497 m 56 Y s 643 577 m 55 Y s 3 lw 643 565 m20 9 lw 659 391 m 44 Y s 659 459 m 45 Y s 3 lw 659 447 m20 9 lw 675 412 m 47
 Y s 675 483 m 46 Y s 3 lw 675 471 m20 9 lw 690 380 m 43 Y s 690 448 m 43 Y s 3 lw 690 435 m20 9 lw 706 380 m 43 Y s 706 448 m 43 Y s 3 lw 706 435 m20 9 lw 722 391 m 44 Y s 722 459 m 45 Y s 3 lw 722 447 m20 9 lw 738 258 m 25 Y s 738 307 m 25 Y s 3 lw
 738 295 m20 9 lw 753 267 m 27 Y s 753 318 m 27 Y s 3 lw 753 306 m20 9 lw 769 210 m 14 Y s 769 248 m 14 Y s 3 lw 769 236 m20 9 lw 785 238 m 21 Y s 785 283 m 21 Y s 3 lw 785 271 m20 9 lw 801 248 m 23 Y s 801 295 m 23 Y s 3 lw 801 283 m20 9 lw 816 210
 m 14 Y s 816 248 m 14 Y s 3 lw 816 236 m20 9 lw 832 201 m 11 Y s 832 236 m 12 Y s 3 lw 832 224 m20 9 lw 848 192 m 8 Y s 848 225 m 8 Y s 3 lw 848 212 m20 9 lw 3 lw 864 189 m20 9 lw 3 lw 880 189 m20 9 lw 3 lw 895 189 m20 9 lw 3 lw 911 189 m20 9 lw
 0.95 0.95 0.95 c black 150 184 m 8 1 d 8 2 d 8 2 d 8 2 d 8 2 d 7 3 d 8 3 d 8 3 d 8 4 d 8 4 d 8 5 d 8 6 d 8 6 d 8 6 d 7 8 d 8 8 d 8 8 d 8 10 d 8 10 d 8 12 d 8 11 d 8 13 d 8 14 d 7 14 d 8 15 d 8 16 d 8 16 d 8 17 d 8 18 d 8 17 d 8 19 d 7 18 d 8 18 d 8
 19 d 8 18 d 8 17 d 8 18 d 8 16 d 8 16 d 8 15 d 7 14 d 8 13 d 8 11 d 8 10 d 8 8 d 8 7 d 8 5 d 8 3 d 8 1 d s 537 686 m 7 X 8 -2 d 8 -4 d 8 -6 d 8 -7 d 8 -9 d 8 -10 d 8 -12 d 8 -13 d 7 -15 d 8 -15 d 8 -16 d 8 -17 d 8 -17 d 8 -18 d 8 -19 d 8 -18 d 7 -18
 d 8 -19 d 8 -18 d 8 -17 d 8 -17 d 8 -17 d 8 -16 d 8 -16 d 8 -15 d 7 -14 d 8 -13 d 8 -12 d 8 -12 d 8 -11 d 8 -10 d 8 -9 d 8 -9 d 8 -7 d 7 -7 d 8 -7 d 8 -6 d 8 -5 d 8 -4 d 8 -5 d 8 -3 d 8 -4 d 7 -2 d 8 -3 d 8 -2 d 8 -2 d 8 -2 d 8 -1 d s 923 185 m 8 -1
 d s 146 177 m 789 X s
 gsave  973 924 10 29 C 841.15 70.0959 t 0 r /Helvetica-Bold findfont 52.0968 sf 0 0 m (Pull) show NC gr  278 200 m -23 Y s 343 188 m -11 Y s 409 188 m -11 Y s 475 188 m -11 Y s 540 200 m -23 Y s 606 188 m -11 Y s 672 188 m -11 Y s 738 188 m -11 Y s
 803 200 m -23 Y s 278 200 m -23 Y s 212 188 m -11 Y s 146 188 m -11 Y s 803 200 m -23 Y s 869 188 m -11 Y s 935 188 m -11 Y s
 gsave  973 924 10 29 C 256.351 128.175 t 0 r /Helvetica-Bold findfont 44.0819 sf 0 0 m (\2552) show NC gr 
 gsave  973 924 10 29 C 526.72 128.175 t 0 r /Helvetica-Bold findfont 44.0819 sf 0 0 m (0) show NC gr 
 gsave  973 924 10 29 C 791.082 128.175 t 0 r /Helvetica-Bold findfont 44.0819 sf 0 0 m (2) show NC gr  146 907 m 789 X s 278 885 m 22 Y s 343 896 m 11 Y s 409 896 m 11 Y s 475 896 m 11 Y s 540 885 m 22 Y s 606 896 m 11 Y s 672 896 m 11 Y s 738 896 m
 11 Y s 803 885 m 22 Y s 278 885 m 22 Y s 212 896 m 11 Y s 146 896 m 11 Y s 803 885 m 22 Y s 869 896 m 11 Y s 935 896 m 11 Y s 146 177 m 730 Y s
 gsave  973 924 10 29 C 66.0904 594.813 t 90 r /Helvetica-Bold findfont 52.0968 sf 0 0 m (Experiments) show NC gr  169 177 m -23 X s 158 201 m -12 X s 158 224 m -12 X s 158 248 m -12 X s 158 271 m -12 X s 169 295 m -23 X s 158 318 m -12 X s 158 342 m
 -12 X s 158 365 m -12 X s 158 389 m -12 X s 169 412 m -23 X s 158 435 m -12 X s 158 459 m -12 X s 158 482 m -12 X s 158 506 m -12 X s 169 529 m -23 X s 158 553 m -12 X s 158 576 m -12 X s 158 600 m -12 X s 158 623 m -12 X s 169 647 m -23 X s 158 670
 m -12 X s 158 694 m -12 X s 158 717 m -12 X s 158 741 m -12 X s 169 764 m -23 X s 158 788 m -12 X s 158 811 m -12 X s 158 835 m -12 X s 158 858 m -12 X s 169 882 m -23 X s 169 882 m -23 X s 158 905 m -12 X s
 gsave  973 924 10 29 C 116.159 162.222 t 0 r /Helvetica-Bold findfont 44.0819 sf 0 0 m (0) show NC gr 
 gsave  973 924 10 29 C 92.126 280.383 t 0 r /Helvetica-Bold findfont 44.0819 sf 0 0 m (10) show NC gr 
 gsave  973 924 10 29 C 92.126 396.542 t 0 r /Helvetica-Bold findfont 44.0819 sf 0 0 m (20) show NC gr 
 gsave  973 924 10 29 C 92.126 514.704 t 0 r /Helvetica-Bold findfont 44.0819 sf 0 0 m (30) show NC gr 
 gsave  973 924 10 29 C 92.126 630.863 t 0 r /Helvetica-Bold findfont 44.0819 sf 0 0 m (40) show NC gr 
 gsave  973 924 10 29 C 92.126 749.024 t 0 r /Helvetica-Bold findfont 44.0819 sf 0 0 m (50) show NC gr 
 gsave  973 924 10 29 C 92.126 867.186 t 0 r /Helvetica-Bold findfont 44.0819 sf 0 0 m (60) show NC gr  935 177 m 730 Y s 912 177 m 23 X s 923 201 m 12 X s 923 224 m 12 X s 923 248 m 12 X s 923 271 m 12 X s 912 295 m 23 X s 923 318 m 12 X s 923 342 m
 12 X s 923 365 m 12 X s 923 389 m 12 X s 912 412 m 23 X s 923 435 m 12 X s 923 459 m 12 X s 923 482 m 12 X s 923 506 m 12 X s 912 529 m 23 X s 923 553 m 12 X s 923 576 m 12 X s 923 600 m 12 X s 923 623 m 12 X s 912 647 m 23 X s 923 670 m 12 X s 923
 694 m 12 X s 923 717 m 12 X s 923 741 m 12 X s 912 764 m 23 X s 923 788 m 12 X s 923 811 m 12 X s 923 835 m 12 X s 923 858 m 12 X s 912 882 m 23 X s 912 882 m 23 X s 923 905 m 12 X s
 gr  gr showpage
end
%%EOF
