%!PS-Adobe-2.0 EPSF-2.0
%%BoundingBox:  0 0 248 737
%%Title: PullPlot_DsPi_Time_Signal_Bs2DsPi_TagEff.eps: pullcanvassignal_Bs2DsPi_TagEff
%%Creator: ROOT Version 5.34/09
%%CreationDate: Thu Aug 29 11:46:13 2013
%%EndComments
%%BeginProlog
80 dict begin
/s {stroke} def /l {lineto} def /m {moveto} def /t {translate} def
/r {rotate} def /rl {roll}  def /R {repeat} def
/d {rlineto} def /rm {rmoveto} def /gr {grestore} def /f {eofill} def
/c {setrgbcolor} def /black {0 setgray} def /sd {setdash} def
/cl {closepath} def /sf {scalefont setfont} def /lw {setlinewidth} def
/box {m dup 0 exch d exch 0 d 0 exch neg d cl} def
/NC{systemdict begin initclip end}def/C{NC box clip newpath}def
/bl {box s} def /bf {box f} def /Y { 0 exch d} def /X { 0 d} def 
/K {{pop pop 0 moveto} exch kshow} bind def
/ita {/ang 15 def gsave [1 0 ang dup sin exch cos div 1 0 0] concat} def 
/mp {newpath /y exch def /x exch def} def
/side {[w .77 mul w .23 mul] .385 w mul sd w 0 l currentpoint t -144 r} def
/mr {mp x y w2 0 360 arc} def /m24 {mr s} def /m20 {mr f} def
/mb {mp x y w2 add m w2 neg 0 d 0 w neg d w 0 d 0 w d cl} def
/mt {mp x y w2 add m w2 neg w neg d w 0 d cl} def
/m21 {mb f} def /m25 {mb s} def /m22 {mt f} def /m26{mt s} def
/m23 {mp x y w2 sub m w2 w d w neg 0 d cl f} def
/m27 {mp x y w2 add m w3 neg w2 neg d w3 w2 neg d w3 w2 d cl s} def
/m28 {mp x w2 sub y w2 sub w3 add m w3 0 d  0 w3 neg d w3 0 d 0 w3 d w3 0 d  0 w3 d w3 neg 0 d 0 w3 d w3 neg 0 d 0 w3 neg d w3 neg 0 d cl s } def
/m29 {mp gsave x w2 sub y w2 add w3 sub m currentpoint t 4 {side} repeat cl fill gr} def
/m30 {mp gsave x w2 sub y w2 add w3 sub m currentpoint t 4 {side} repeat cl s gr} def
/m31 {mp x y w2 sub m 0 w d x w2 sub y m w 0 d x w2 sub y w2 add m w w neg d x w2 sub y w2 sub m w w d s} def
/m32 {mp x y w2 sub m w2 w d w neg 0 d cl s} def
/m33 {mp x y w2 add m w3 neg w2 neg d w3 w2 neg d w3 w2 d cl f} def
/m34 {mp x w2 sub y w2 sub w3 add m w3 0 d  0 w3 neg d w3 0 d 0 w3 d w3 0 d  0 w3 d w3 neg 0 d 0 w3 d w3 neg 0 d 0 w3 neg d w3 neg 0 d cl f } def
/m2 {mp x y w2 sub m 0 w d x w2 sub y m w 0 d s} def
/m5 {mp x w2 sub y w2 sub m w w d x w2 sub y w2 add m w w neg d s} def
/reEncode {exch findfont dup length dict begin {1 index /FID eq  {pop pop} {def} ifelse } forall /Encoding exch def currentdict end dup /FontName get exch definefont pop } def [/Times-Bold /Times-Italic /Times-BoldItalic /Helvetica /Helvetica-Oblique
 /Helvetica-Bold /Helvetica-BoldOblique /Courier /Courier-Oblique /Courier-Bold /Courier-BoldOblique /Times-Roman /AvantGarde-Book /AvantGarde-BookOblique /AvantGarde-Demi /AvantGarde-DemiOblique /Bookman-Demi /Bookman-DemiItalic /Bookman-Light
 /Bookman-LightItalic /Helvetica-Narrow /Helvetica-Narrow-Bold /Helvetica-Narrow-BoldOblique /Helvetica-Narrow-Oblique /NewCenturySchlbk-Roman /NewCenturySchlbk-Bold /NewCenturySchlbk-BoldItalic /NewCenturySchlbk-Italic /Palatino-Bold
 /Palatino-BoldItalic /Palatino-Italic /Palatino-Roman ] {ISOLatin1Encoding reEncode } forall
%%EndProlog
%%BeginSetup
%%EndSetup
newpath  gsave  .25 .25 scale  gsave  0 0 t black[  ] 0 sd 9 lw 1 1 1 c 993 2948 0 0 bf black 1 1 1 c 973 924 10 1995 bf black 1 1 1 c 789 729 146 2143 bf black 789 729 146 2143 bl 1 1 1 c black 148 2145 m 361 X 4 Y 31 X 19 Y 16 X -19 Y 16 X 32 Y 16
 X 63 Y 16 X 25 Y 15 X 101 Y 16 X 82 Y 16 X 139 Y 16 X -12 Y 15 X 214 Y 16 X 45 Y 16 X -139 Y 16 X 25 Y 16 X -76 Y 15 X -152 Y 16 X -12 Y 16 X -152 Y 16 X -57 Y 15 X -82 Y 16 X -19 Y 16 X -29 Y 47 X 4 Y 16 X -4 Y 16 X s 146 2143 m 789 X s
 gsave  973 924 10 1995 C 228.312 2040.79 t 0 r /Helvetica-Bold findfont 52.0968 sf 0 0 m (Bs2DsPi_TagEff Fitted value) show NC gr  146 2165 m -22 Y s 212 2154 m -11 Y s 278 2154 m -11 Y s 343 2154 m -11 Y s 409 2165 m -22 Y s 475 2154 m -11 Y s 540
 2154 m -11 Y s 606 2154 m -11 Y s 672 2165 m -22 Y s 738 2154 m -11 Y s 803 2154 m -11 Y s 869 2154 m -11 Y s 935 2165 m -22 Y s
 gsave  973 924 10 1995 C 104.142 2092.86 t 0 r /Helvetica-Bold findfont 44.0819 sf 0 0 m (0.36) show NC gr 
 gsave  973 924 10 1995 C 364.498 2092.86 t 0 r /Helvetica-Bold findfont 44.0819 sf 0 0 m (0.38) show NC gr 
 gsave  973 924 10 1995 C 640.876 2092.86 t 0 r /Helvetica-Bold findfont 44.0819 sf 0 0 m (0.4) show NC gr 
 gsave  973 924 10 1995 C 891.219 2092.86 t 0 r /Helvetica-Bold findfont 44.0819 sf 0 0 m (0.42) show NC gr  146 2872 m 789 X s 146 2850 m 22 Y s 212 2861 m 11 Y s 278 2861 m 11 Y s 343 2861 m 11 Y s 409 2850 m 22 Y s 475 2861 m 11 Y s 540 2861 m 11
 Y s 606 2861 m 11 Y s 672 2850 m 22 Y s 738 2861 m 11 Y s 803 2861 m 11 Y s 869 2861 m 11 Y s 935 2850 m 22 Y s 146 2143 m 729 Y s
 gsave  973 924 10 1995 C 66.0904 2561.5 t 90 r /Helvetica-Bold findfont 52.0968 sf 0 0 m (Experiments) show NC gr  169 2143 m -23 X s 158 2174 m -12 X s 158 2206 m -12 X s 158 2237 m -12 X s 169 2269 m -23 X s 158 2301 m -12 X s 158 2332 m -12 X s
 158 2364 m -12 X s 169 2395 m -23 X s 158 2427 m -12 X s 158 2459 m -12 X s 158 2490 m -12 X s 169 2522 m -23 X s 158 2553 m -12 X s 158 2585 m -12 X s 158 2616 m -12 X s 169 2648 m -23 X s 158 2680 m -12 X s 158 2711 m -12 X s 158 2743 m -12 X s
 169 2774 m -23 X s 169 2774 m -23 X s 158 2806 m -12 X s 158 2838 m -12 X s 158 2869 m -12 X s
 gsave  973 924 10 1995 C 116.159 2126.91 t 0 r /Helvetica-Bold findfont 44.0819 sf 0 0 m (0) show NC gr 
 gsave  973 924 10 1995 C 92.126 2253.08 t 0 r /Helvetica-Bold findfont 44.0819 sf 0 0 m (20) show NC gr 
 gsave  973 924 10 1995 C 92.126 2381.26 t 0 r /Helvetica-Bold findfont 44.0819 sf 0 0 m (40) show NC gr 
 gsave  973 924 10 1995 C 92.126 2507.43 t 0 r /Helvetica-Bold findfont 44.0819 sf 0 0 m (60) show NC gr 
 gsave  973 924 10 1995 C 92.126 2633.6 t 0 r /Helvetica-Bold findfont 44.0819 sf 0 0 m (80) show NC gr 
 gsave  973 924 10 1995 C 68.0931 2759.77 t 0 r /Helvetica-Bold findfont 44.0819 sf 0 0 m (100) show NC gr  935 2143 m 729 Y s 912 2143 m 23 X s 923 2174 m 12 X s 923 2206 m 12 X s 923 2237 m 12 X s 912 2269 m 23 X s 923 2301 m 12 X s 923 2332 m 12 X
 s 923 2364 m 12 X s 912 2395 m 23 X s 923 2427 m 12 X s 923 2459 m 12 X s 923 2490 m 12 X s 912 2522 m 23 X s 923 2553 m 12 X s 923 2585 m 12 X s 923 2616 m 12 X s 912 2648 m 23 X s 923 2680 m 12 X s 923 2711 m 12 X s 923 2743 m 12 X s 912 2774 m 23
 X s 912 2774 m 23 X s 923 2806 m 12 X s 923 2838 m 12 X s 923 2869 m 12 X s 1 1 1 c 973 924 10 1012 bf black 1 1 1 c 789 730 146 1160 bf black 789 730 146 1160 bl 1 1 1 c black 148 1162 m 30 X 5 Y 16 X 7 Y 15 X -7 Y 48 X 14 Y 15 X -7 Y 16 X -12 Y 32
 X 12 Y 31 X -7 Y 16 X 62 Y 16 X -27 Y 16 X -21 Y 15 X 35 Y 16 X 41 Y 16 X 14 Y 31 X 90 Y 16 X 133 Y 16 X 229 Y 16 X 49 Y 15 X -7 Y 32 X 90 Y 16 X -188 Y 16 X -21 Y 15 X -125 Y 16 X -180 Y 16 X -28 Y 16 X -14 Y 15 X -104 Y 16 X 7 Y 16 X -35 Y 16 X 14
 Y 16 X -19 Y 15 X 5 Y 16 X -5 Y 142 X 5 Y 16 X s 146 1160 m 789 X s
 gsave  973 924 10 1012 C 280.383 1057.45 t 0 r /Helvetica-Bold findfont 52.0968 sf 0 0 m (Uncertainty on fitted value) show NC gr  146 1182 m -22 Y s 199 1171 m -11 Y s 251 1171 m -11 Y s 304 1171 m -11 Y s 356 1171 m -11 Y s 409 1182 m -22 Y s 462
 1171 m -11 Y s 514 1171 m -11 Y s 567 1171 m -11 Y s 619 1171 m -11 Y s 672 1182 m -22 Y s 724 1171 m -11 Y s 777 1171 m -11 Y s 830 1171 m -11 Y s 882 1171 m -11 Y s 935 1182 m -22 Y s 146 1182 m -22 Y s
 gsave  973 924 10 1012 C 78.1068 1109.52 t 0 r /Helvetica-Bold findfont 44.0819 sf 0 0 m (0.0042) show NC gr 
 gsave  973 924 10 1012 C 340.466 1109.52 t 0 r /Helvetica-Bold findfont 44.0819 sf 0 0 m (0.0043) show NC gr 
 gsave  973 924 10 1012 C 602.824 1109.52 t 0 r /Helvetica-Bold findfont 44.0819 sf 0 0 m (0.0044) show NC gr 
 gsave  973 924 10 1012 C 865.183 1109.52 t 0 r /Helvetica-Bold findfont 44.0819 sf 0 0 m (0.0045) show NC gr  146 1890 m 789 X s 146 1867 m 23 Y s 199 1878 m 12 Y s 251 1878 m 12 Y s 304 1878 m 12 Y s 356 1878 m 12 Y s 409 1867 m 23 Y s 462 1878 m
 12 Y s 514 1878 m 12 Y s 567 1878 m 12 Y s 619 1878 m 12 Y s 672 1867 m 23 Y s 724 1878 m 12 Y s 777 1878 m 12 Y s 830 1878 m 12 Y s 882 1878 m 12 Y s 935 1867 m 23 Y s 146 1867 m 23 Y s 146 1160 m 730 Y s
 gsave  973 924 10 1012 C 66.0904 1578.16 t 90 r /Helvetica-Bold findfont 52.0968 sf 0 0 m (Experiments) show NC gr  169 1160 m -23 X s 158 1195 m -12 X s 158 1229 m -12 X s 158 1264 m -12 X s 169 1299 m -23 X s 158 1334 m -12 X s 158 1368 m -12 X s
 158 1403 m -12 X s 169 1438 m -23 X s 158 1473 m -12 X s 158 1507 m -12 X s 158 1542 m -12 X s 169 1577 m -23 X s 158 1612 m -12 X s 158 1646 m -12 X s 158 1681 m -12 X s 169 1716 m -23 X s 158 1751 m -12 X s 158 1785 m -12 X s 158 1820 m -12 X s
 169 1855 m -23 X s 169 1855 m -23 X s 158 1890 m -12 X s
 gsave  973 924 10 1012 C 116.159 1145.57 t 0 r /Helvetica-Bold findfont 44.0819 sf 0 0 m (0) show NC gr 
 gsave  973 924 10 1012 C 92.126 1283.76 t 0 r /Helvetica-Bold findfont 44.0819 sf 0 0 m (20) show NC gr 
 gsave  973 924 10 1012 C 92.126 1421.94 t 0 r /Helvetica-Bold findfont 44.0819 sf 0 0 m (40) show NC gr 
 gsave  973 924 10 1012 C 92.126 1562.14 t 0 r /Helvetica-Bold findfont 44.0819 sf 0 0 m (60) show NC gr 
 gsave  973 924 10 1012 C 92.126 1700.33 t 0 r /Helvetica-Bold findfont 44.0819 sf 0 0 m (80) show NC gr 
 gsave  973 924 10 1012 C 68.0931 1840.52 t 0 r /Helvetica-Bold findfont 44.0819 sf 0 0 m (100) show NC gr  935 1160 m 730 Y s 912 1160 m 23 X s 923 1195 m 12 X s 923 1229 m 12 X s 923 1264 m 12 X s 912 1299 m 23 X s 923 1334 m 12 X s 923 1368 m 12 X
 s 923 1403 m 12 X s 912 1438 m 23 X s 923 1473 m 12 X s 923 1507 m 12 X s 923 1542 m 12 X s 912 1577 m 23 X s 923 1612 m 12 X s 923 1646 m 12 X s 923 1681 m 12 X s 912 1716 m 23 X s 923 1751 m 12 X s 923 1785 m 12 X s 923 1820 m 12 X s 912 1855 m 23
 X s 912 1855 m 23 X s 923 1890 m 12 X s 1 1 1 c 973 924 10 29 bf black 1 1 1 c 789 730 146 177 bf black 789 730 146 177 bl 1 1 1 c black 3 lw /w 24 def /w2 {w 2 div} def /w3 {w 3 div} def 217 189 m20 9 lw 233 201 m 12 Y s 233 237 m 12 Y s 3 lw 233
 225 m20 9 lw 249 210 m 15 Y s 249 249 m 15 Y s 3 lw 249 237 m20 9 lw 3 lw 265 189 m20 9 lw 280 220 m 17 Y s 280 261 m 17 Y s 3 lw 280 249 m20 9 lw 296 229 m 20 Y s 296 273 m 20 Y s 3 lw 296 261 m20 9 lw 312 279 m 30 Y s 312 333 m 29 Y s 3 lw 312 321
 m20 9 lw 328 259 m 26 Y s 328 309 m 26 Y s 3 lw 328 297 m20 9 lw 343 342 m 38 Y s 343 404 m 39 Y s 3 lw 343 392 m20 9 lw 359 321 m 36 Y s 359 381 m 35 Y s 3 lw 359 369 m20 9 lw 375 427 m 49 Y s 375 500 m 49 Y s 3 lw 375 488 m20 9 lw 391 363 m 41 Y s
 391 428 m 42 Y s 3 lw 391 416 m20 9 lw 406 470 m 54 Y s 406 548 m 53 Y s 3 lw 406 536 m20 9 lw 422 449 m 51 Y s 422 524 m 51 Y s 3 lw 422 512 m20 9 lw 438 460 m 52 Y s 438 536 m 52 Y s 3 lw 438 524 m20 9 lw 454 580 m 63 Y s 454 667 m 64 Y s 3 lw 454
 655 m20 9 lw 470 569 m 62 Y s 470 655 m 63 Y s 3 lw 470 643 m20 9 lw 485 580 m 63 Y s 485 667 m 64 Y s 3 lw 485 655 m20 9 lw 501 580 m 63 Y s 501 667 m 64 Y s 3 lw 501 655 m20 9 lw 517 536 m 60 Y s 517 620 m 59 Y s 3 lw 517 608 m20 9 lw 533 613 m 66
 Y s 533 703 m 67 Y s 3 lw 533 691 m20 9 lw 548 702 m 73 Y s 548 799 m 73 Y s 3 lw 548 787 m20 9 lw 564 690 m 73 Y s 564 787 m 72 Y s 3 lw 564 775 m20 9 lw 580 613 m 66 Y s 580 703 m 67 Y s 3 lw 580 691 m20 9 lw 596 657 m 70 Y s 596 751 m 70 Y s 3 lw
 596 739 m20 9 lw 611 481 m 55 Y s 611 560 m 54 Y s 3 lw 611 548 m20 9 lw 627 438 m 50 Y s 627 512 m 50 Y s 3 lw 627 500 m20 9 lw 643 492 m 56 Y s 643 572 m 55 Y s 3 lw 643 560 m20 9 lw 659 503 m 57 Y s 659 584 m 56 Y s 3 lw 659 572 m20 9 lw 675 395
 m 45 Y s 675 464 m 46 Y s 3 lw 675 452 m20 9 lw 690 384 m 44 Y s 690 452 m 44 Y s 3 lw 690 440 m20 9 lw 706 416 m 48 Y s 706 488 m 48 Y s 3 lw 706 476 m20 9 lw 722 342 m 38 Y s 722 404 m 39 Y s 3 lw 722 392 m20 9 lw 738 269 m 28 Y s 738 321 m 27 Y s
 3 lw 738 309 m20 9 lw 753 290 m 31 Y s 753 345 m 31 Y s 3 lw 753 333 m20 9 lw 769 239 m 22 Y s 769 285 m 22 Y s 3 lw 769 273 m20 9 lw 785 259 m 26 Y s 785 309 m 26 Y s 3 lw 785 297 m20 9 lw 801 259 m 26 Y s 801 309 m 26 Y s 3 lw 801 297 m20 9 lw 816
 192 m 9 Y s 816 225 m 9 Y s 3 lw 816 213 m20 9 lw 832 192 m 9 Y s 832 225 m 9 Y s 3 lw 832 213 m20 9 lw 848 192 m 9 Y s 848 225 m 9 Y s 3 lw 848 213 m20 9 lw 3 lw 864 189 m20 9 lw 3 lw 895 189 m20 9 lw 911 184 m 5 Y s 911 213 m 5 Y s 3 lw 911 201
 m20 9 lw 3 lw 927 189 m20 9 lw 0.95 0.95 0.95 c black 150 183 m 8 1 d 8 1 d 8 1 d 8 2 d 8 2 d 7 3 d 8 2 d 8 3 d 8 4 d 8 4 d 8 4 d 8 5 d 8 6 d 8 6 d 7 7 d 8 8 d 8 9 d 8 9 d 8 10 d 8 11 d 8 12 d 8 13 d 8 14 d 7 15 d 8 15 d 8 16 d 8 17 d 8 18 d 8 19 d
 8 19 d 8 19 d 7 20 d 8 20 d 8 19 d 8 20 d 8 20 d 8 19 d 8 18 d 8 18 d 8 17 d 7 16 d 8 14 d 8 13 d 8 12 d 8 9 d 8 8 d 8 7 d 8 4 d 8 2 d s 537 714 m 7 X 8 -1 d 8 -4 d 8 -6 d 8 -7 d 8 -10 d 8 -11 d 8 -12 d 8 -14 d 7 -16 d 8 -16 d 8 -18 d 8 -18 d 8 -19
 d 8 -20 d 8 -19 d 8 -20 d 7 -20 d 8 -20 d 8 -19 d 8 -19 d 8 -19 d 8 -18 d 8 -17 d 8 -17 d 8 -15 d 7 -15 d 8 -14 d 8 -13 d 8 -13 d 8 -11 d 8 -10 d 8 -10 d 8 -9 d 8 -8 d 7 -7 d 8 -6 d 8 -6 d 8 -5 d 8 -5 d 8 -4 d 8 -4 d 8 -3 d 7 -3 d 8 -2 d 8 -2 d 8 -2
 d 8 -2 d 8 -1 d s 923 184 m 8 -1 d s 146 177 m 789 X s
 gsave  973 924 10 29 C 841.15 70.0959 t 0 r /Helvetica-Bold findfont 52.0968 sf 0 0 m (Pull) show NC gr  278 200 m -23 Y s 343 188 m -11 Y s 409 188 m -11 Y s 475 188 m -11 Y s 540 200 m -23 Y s 606 188 m -11 Y s 672 188 m -11 Y s 738 188 m -11 Y s
 803 200 m -23 Y s 278 200 m -23 Y s 212 188 m -11 Y s 146 188 m -11 Y s 803 200 m -23 Y s 869 188 m -11 Y s 935 188 m -11 Y s
 gsave  973 924 10 29 C 256.351 128.175 t 0 r /Helvetica-Bold findfont 44.0819 sf 0 0 m (\2552) show NC gr 
 gsave  973 924 10 29 C 526.72 128.175 t 0 r /Helvetica-Bold findfont 44.0819 sf 0 0 m (0) show NC gr 
 gsave  973 924 10 29 C 791.082 128.175 t 0 r /Helvetica-Bold findfont 44.0819 sf 0 0 m (2) show NC gr  146 907 m 789 X s 278 885 m 22 Y s 343 896 m 11 Y s 409 896 m 11 Y s 475 896 m 11 Y s 540 885 m 22 Y s 606 896 m 11 Y s 672 896 m 11 Y s 738 896 m
 11 Y s 803 885 m 22 Y s 278 885 m 22 Y s 212 896 m 11 Y s 146 896 m 11 Y s 803 885 m 22 Y s 869 896 m 11 Y s 935 896 m 11 Y s 146 177 m 730 Y s
 gsave  973 924 10 29 C 66.0904 594.813 t 90 r /Helvetica-Bold findfont 52.0968 sf 0 0 m (Experiments) show NC gr  169 177 m -23 X s 158 201 m -12 X s 158 225 m -12 X s 158 249 m -12 X s 158 273 m -12 X s 169 297 m -23 X s 158 321 m -12 X s 158 345 m
 -12 X s 158 369 m -12 X s 158 392 m -12 X s 169 416 m -23 X s 158 440 m -12 X s 158 464 m -12 X s 158 488 m -12 X s 158 512 m -12 X s 169 536 m -23 X s 158 560 m -12 X s 158 584 m -12 X s 158 608 m -12 X s 158 632 m -12 X s 169 655 m -23 X s 158 679
 m -12 X s 158 703 m -12 X s 158 727 m -12 X s 158 751 m -12 X s 169 775 m -23 X s 158 799 m -12 X s 158 823 m -12 X s 158 847 m -12 X s 158 871 m -12 X s 169 894 m -23 X s 169 894 m -23 X s
 gsave  973 924 10 29 C 116.159 162.222 t 0 r /Helvetica-Bold findfont 44.0819 sf 0 0 m (0) show NC gr 
 gsave  973 924 10 29 C 92.126 282.386 t 0 r /Helvetica-Bold findfont 44.0819 sf 0 0 m (10) show NC gr 
 gsave  973 924 10 29 C 92.126 400.548 t 0 r /Helvetica-Bold findfont 44.0819 sf 0 0 m (20) show NC gr 
 gsave  973 924 10 29 C 92.126 520.712 t 0 r /Helvetica-Bold findfont 44.0819 sf 0 0 m (30) show NC gr 
 gsave  973 924 10 29 C 92.126 640.876 t 0 r /Helvetica-Bold findfont 44.0819 sf 0 0 m (40) show NC gr 
 gsave  973 924 10 29 C 92.126 759.038 t 0 r /Helvetica-Bold findfont 44.0819 sf 0 0 m (50) show NC gr 
 gsave  973 924 10 29 C 92.126 879.202 t 0 r /Helvetica-Bold findfont 44.0819 sf 0 0 m (60) show NC gr  935 177 m 730 Y s 912 177 m 23 X s 923 201 m 12 X s 923 225 m 12 X s 923 249 m 12 X s 923 273 m 12 X s 912 297 m 23 X s 923 321 m 12 X s 923 345 m
 12 X s 923 369 m 12 X s 923 392 m 12 X s 912 416 m 23 X s 923 440 m 12 X s 923 464 m 12 X s 923 488 m 12 X s 923 512 m 12 X s 912 536 m 23 X s 923 560 m 12 X s 923 584 m 12 X s 923 608 m 12 X s 923 632 m 12 X s 912 655 m 23 X s 923 679 m 12 X s 923
 703 m 12 X s 923 727 m 12 X s 923 751 m 12 X s 912 775 m 23 X s 923 799 m 12 X s 923 823 m 12 X s 923 847 m 12 X s 923 871 m 12 X s 912 894 m 23 X s 912 894 m 23 X s
 gr  gr showpage
end
%%EOF
