%!PS-Adobe-2.0 EPSF-2.0
%%BoundingBox:  0 0 248 737
%%Title: PullPlot_DsPi_Time_Signal_Bs2DsPi_avgS.eps: pullcanvassignal_Bs2DsPi_avgS
%%Creator: ROOT Version 5.34/09
%%CreationDate: Thu Aug 29 11:46:13 2013
%%EndComments
%%BeginProlog
80 dict begin
/s {stroke} def /l {lineto} def /m {moveto} def /t {translate} def
/r {rotate} def /rl {roll}  def /R {repeat} def
/d {rlineto} def /rm {rmoveto} def /gr {grestore} def /f {eofill} def
/c {setrgbcolor} def /black {0 setgray} def /sd {setdash} def
/cl {closepath} def /sf {scalefont setfont} def /lw {setlinewidth} def
/box {m dup 0 exch d exch 0 d 0 exch neg d cl} def
/NC{systemdict begin initclip end}def/C{NC box clip newpath}def
/bl {box s} def /bf {box f} def /Y { 0 exch d} def /X { 0 d} def 
/K {{pop pop 0 moveto} exch kshow} bind def
/ita {/ang 15 def gsave [1 0 ang dup sin exch cos div 1 0 0] concat} def 
/mp {newpath /y exch def /x exch def} def
/side {[w .77 mul w .23 mul] .385 w mul sd w 0 l currentpoint t -144 r} def
/mr {mp x y w2 0 360 arc} def /m24 {mr s} def /m20 {mr f} def
/mb {mp x y w2 add m w2 neg 0 d 0 w neg d w 0 d 0 w d cl} def
/mt {mp x y w2 add m w2 neg w neg d w 0 d cl} def
/m21 {mb f} def /m25 {mb s} def /m22 {mt f} def /m26{mt s} def
/m23 {mp x y w2 sub m w2 w d w neg 0 d cl f} def
/m27 {mp x y w2 add m w3 neg w2 neg d w3 w2 neg d w3 w2 d cl s} def
/m28 {mp x w2 sub y w2 sub w3 add m w3 0 d  0 w3 neg d w3 0 d 0 w3 d w3 0 d  0 w3 d w3 neg 0 d 0 w3 d w3 neg 0 d 0 w3 neg d w3 neg 0 d cl s } def
/m29 {mp gsave x w2 sub y w2 add w3 sub m currentpoint t 4 {side} repeat cl fill gr} def
/m30 {mp gsave x w2 sub y w2 add w3 sub m currentpoint t 4 {side} repeat cl s gr} def
/m31 {mp x y w2 sub m 0 w d x w2 sub y m w 0 d x w2 sub y w2 add m w w neg d x w2 sub y w2 sub m w w d s} def
/m32 {mp x y w2 sub m w2 w d w neg 0 d cl s} def
/m33 {mp x y w2 add m w3 neg w2 neg d w3 w2 neg d w3 w2 d cl f} def
/m34 {mp x w2 sub y w2 sub w3 add m w3 0 d  0 w3 neg d w3 0 d 0 w3 d w3 0 d  0 w3 d w3 neg 0 d 0 w3 d w3 neg 0 d 0 w3 neg d w3 neg 0 d cl f } def
/m2 {mp x y w2 sub m 0 w d x w2 sub y m w 0 d s} def
/m5 {mp x w2 sub y w2 sub m w w d x w2 sub y w2 add m w w neg d s} def
/reEncode {exch findfont dup length dict begin {1 index /FID eq  {pop pop} {def} ifelse } forall /Encoding exch def currentdict end dup /FontName get exch definefont pop } def [/Times-Bold /Times-Italic /Times-BoldItalic /Helvetica /Helvetica-Oblique
 /Helvetica-Bold /Helvetica-BoldOblique /Courier /Courier-Oblique /Courier-Bold /Courier-BoldOblique /Times-Roman /AvantGarde-Book /AvantGarde-BookOblique /AvantGarde-Demi /AvantGarde-DemiOblique /Bookman-Demi /Bookman-DemiItalic /Bookman-Light
 /Bookman-LightItalic /Helvetica-Narrow /Helvetica-Narrow-Bold /Helvetica-Narrow-BoldOblique /Helvetica-Narrow-Oblique /NewCenturySchlbk-Roman /NewCenturySchlbk-Bold /NewCenturySchlbk-BoldItalic /NewCenturySchlbk-Italic /Palatino-Bold
 /Palatino-BoldItalic /Palatino-Italic /Palatino-Roman ] {ISOLatin1Encoding reEncode } forall
%%EndProlog
%%BeginSetup
%%EndSetup
newpath  gsave  .25 .25 scale  gsave  0 0 t black[  ] 0 sd 9 lw 1 1 1 c 993 2948 0 0 bf black 1 1 1 c 973 924 10 1995 bf black 1 1 1 c 789 729 146 2143 bf black 789 729 146 2143 bl 1 1 1 c black 148 2145 m 46 X 9 Y 15 X -9 Y 16 X 9 Y 16 X 48 Y 16 X
 -36 Y 15 X 24 Y 16 X 59 Y 16 X -12 Y 16 X 71 Y 15 X 35 Y 16 X -59 Y 16 X 106 Y 16 X -82 Y 16 X 70 Y 15 X 24 Y 16 X 106 Y 16 X 294 Y 16 X -200 Y 15 X 94 Y 16 X -94 Y 16 X 47 Y 16 X 177 Y 15 X -142 Y 16 X 106 Y 16 X 48 Y 16 X -248 Y 16 X -12 Y 15 X
 -35 Y 16 X -35 Y 16 X -59 Y 16 X 47 Y 15 X -82 Y 16 X -12 Y 16 X -94 Y 16 X -36 Y 16 X -59 Y 15 X 24 Y 16 X -47 Y 16 X -12 Y 16 X 12 Y 15 X -24 Y 16 X -21 Y 16 X 9 Y 16 X 24 Y 15 X -24 Y 16 X -9 Y 32 X s 146 2143 m 789 X s
 gsave  973 924 10 1995 C 630.863 2024.77 t 0 r /Helvetica-Bold findfont 52.0968 sf 0 0 m ( Fitted value) show NC gr 
 gsave  973 924 10 1995 C 596.816 2024.77 t 0 r /Helvetica-Bold findfont 52.0968 sf 0 0 m (S) show NC gr  6 lw 597 2069 m 34 X s 9 lw 146 2165 m -22 Y s 196 2154 m -11 Y s 245 2154 m -11 Y s 294 2154 m -11 Y s 343 2165 m -22 Y s 393 2154 m -11 Y s
 442 2154 m -11 Y s 491 2154 m -11 Y s 540 2165 m -22 Y s 590 2154 m -11 Y s 639 2154 m -11 Y s 688 2154 m -11 Y s 738 2165 m -22 Y s 787 2154 m -11 Y s 836 2154 m -11 Y s 885 2154 m -11 Y s 935 2165 m -22 Y s 146 2165 m -22 Y s
 gsave  973 924 10 1995 C 108.148 2092.86 t 0 r /Helvetica-Bold findfont 44.0819 sf 0 0 m (\2550.4) show NC gr 
 gsave  973 924 10 1995 C 304.416 2092.86 t 0 r /Helvetica-Bold findfont 44.0819 sf 0 0 m (\2550.2) show NC gr 
 gsave  973 924 10 1995 C 526.72 2092.86 t 0 r /Helvetica-Bold findfont 44.0819 sf 0 0 m (0) show NC gr 
 gsave  973 924 10 1995 C 706.967 2092.86 t 0 r /Helvetica-Bold findfont 44.0819 sf 0 0 m (0.2) show NC gr 
 gsave  973 924 10 1995 C 903.235 2092.86 t 0 r /Helvetica-Bold findfont 44.0819 sf 0 0 m (0.4) show NC gr  146 2872 m 789 X s 146 2850 m 22 Y s 196 2861 m 11 Y s 245 2861 m 11 Y s 294 2861 m 11 Y s 343 2850 m 22 Y s 393 2861 m 11 Y s 442 2861 m 11 Y
 s 491 2861 m 11 Y s 540 2850 m 22 Y s 590 2861 m 11 Y s 639 2861 m 11 Y s 688 2861 m 11 Y s 738 2850 m 22 Y s 787 2861 m 11 Y s 836 2861 m 11 Y s 885 2861 m 11 Y s 935 2850 m 22 Y s 146 2850 m 22 Y s 146 2143 m 729 Y s
 gsave  973 924 10 1995 C 66.0904 2561.5 t 90 r /Helvetica-Bold findfont 52.0968 sf 0 0 m (Experiments) show NC gr  169 2143 m -23 X s 158 2166 m -12 X s 158 2190 m -12 X s 158 2213 m -12 X s 158 2237 m -12 X s 169 2260 m -23 X s 158 2284 m -12 X s
 158 2308 m -12 X s 158 2331 m -12 X s 158 2355 m -12 X s 169 2378 m -23 X s 158 2402 m -12 X s 158 2425 m -12 X s 158 2449 m -12 X s 158 2472 m -12 X s 169 2496 m -23 X s 158 2520 m -12 X s 158 2543 m -12 X s 158 2567 m -12 X s 158 2590 m -12 X s
 169 2614 m -23 X s 158 2637 m -12 X s 158 2661 m -12 X s 158 2684 m -12 X s 158 2708 m -12 X s 169 2732 m -23 X s 158 2755 m -12 X s 158 2779 m -12 X s 158 2802 m -12 X s 158 2826 m -12 X s 169 2849 m -23 X s 169 2849 m -23 X s
 gsave  973 924 10 1995 C 116.159 2126.91 t 0 r /Helvetica-Bold findfont 44.0819 sf 0 0 m (0) show NC gr 
 gsave  973 924 10 1995 C 92.126 2245.07 t 0 r /Helvetica-Bold findfont 44.0819 sf 0 0 m (10) show NC gr 
 gsave  973 924 10 1995 C 92.126 2363.23 t 0 r /Helvetica-Bold findfont 44.0819 sf 0 0 m (20) show NC gr 
 gsave  973 924 10 1995 C 92.126 2481.39 t 0 r /Helvetica-Bold findfont 44.0819 sf 0 0 m (30) show NC gr 
 gsave  973 924 10 1995 C 92.126 2599.56 t 0 r /Helvetica-Bold findfont 44.0819 sf 0 0 m (40) show NC gr 
 gsave  973 924 10 1995 C 92.126 2715.71 t 0 r /Helvetica-Bold findfont 44.0819 sf 0 0 m (50) show NC gr 
 gsave  973 924 10 1995 C 92.126 2833.88 t 0 r /Helvetica-Bold findfont 44.0819 sf 0 0 m (60) show NC gr  935 2143 m 729 Y s 912 2143 m 23 X s 923 2166 m 12 X s 923 2190 m 12 X s 923 2213 m 12 X s 923 2237 m 12 X s 912 2260 m 23 X s 923 2284 m 12 X s
 923 2308 m 12 X s 923 2331 m 12 X s 923 2355 m 12 X s 912 2378 m 23 X s 923 2402 m 12 X s 923 2425 m 12 X s 923 2449 m 12 X s 923 2472 m 12 X s 912 2496 m 23 X s 923 2520 m 12 X s 923 2543 m 12 X s 923 2567 m 12 X s 923 2590 m 12 X s 912 2614 m 23 X
 s 923 2637 m 12 X s 923 2661 m 12 X s 923 2684 m 12 X s 923 2708 m 12 X s 912 2732 m 23 X s 923 2755 m 12 X s 923 2779 m 12 X s 923 2802 m 12 X s 923 2826 m 12 X s 912 2849 m 23 X s 912 2849 m 23 X s 1 1 1 c 973 924 10 1012 bf black 1 1 1 c 789 730
 146 1160 bf black 789 730 146 1160 bl 1 1 1 c black 148 1162 m 77 X 5 Y 47 X 43 Y 16 X 29 Y 16 X 71 Y 16 X 86 Y 15 X 79 Y 16 X 158 Y 16 X 71 Y 16 X 115 Y 16 X 36 Y 15 X -201 Y 16 X 72 Y 16 X -93 Y 16 X -57 Y 15 X -79 Y 16 X -72 Y 16 X -43 Y 16 X -72
 Y 15 X -21 Y 16 X -65 Y 16 X 15 Y 16 X -58 Y 16 X 29 Y 15 X -21 Y 48 X -22 Y 15 X -5 Y 16 X 5 Y 16 X -5 Y 16 X 5 Y 16 X -5 Y 15 X 5 Y 16 X -5 Y 158 X s 146 1160 m 789 X s
 gsave  973 924 10 1012 C 280.383 1057.45 t 0 r /Helvetica-Bold findfont 52.0968 sf 0 0 m (Uncertainty on fitted value) show NC gr  146 1182 m -22 Y s 186 1171 m -11 Y s 225 1171 m -11 Y s 265 1171 m -11 Y s 304 1182 m -22 Y s 343 1171 m -11 Y s 383
 1171 m -11 Y s 422 1171 m -11 Y s 462 1182 m -22 Y s 501 1171 m -11 Y s 540 1171 m -11 Y s 580 1171 m -11 Y s 619 1182 m -22 Y s 659 1171 m -11 Y s 698 1171 m -11 Y s 738 1171 m -11 Y s 777 1182 m -22 Y s 816 1171 m -11 Y s 856 1171 m -11 Y s 895
 1171 m -11 Y s 935 1182 m -22 Y s 935 1182 m -22 Y s
 gsave  973 924 10 1012 C 102.14 1109.52 t 0 r /Helvetica-Bold findfont 44.0819 sf 0 0 m (0.08) show NC gr 
 gsave  973 924 10 1012 C 274.375 1109.52 t 0 r /Helvetica-Bold findfont 44.0819 sf 0 0 m (0.1) show NC gr 
 gsave  973 924 10 1012 C 418.572 1109.52 t 0 r /Helvetica-Bold findfont 44.0819 sf 0 0 m (0.12) show NC gr 
 gsave  973 924 10 1012 C 574.786 1109.52 t 0 r /Helvetica-Bold findfont 44.0819 sf 0 0 m (0.14) show NC gr 
 gsave  973 924 10 1012 C 733.002 1109.52 t 0 r /Helvetica-Bold findfont 44.0819 sf 0 0 m (0.16) show NC gr 
 gsave  973 924 10 1012 C 889.216 1109.52 t 0 r /Helvetica-Bold findfont 44.0819 sf 0 0 m (0.18) show NC gr  146 1890 m 789 X s 146 1867 m 23 Y s 186 1878 m 12 Y s 225 1878 m 12 Y s 265 1878 m 12 Y s 304 1867 m 23 Y s 343 1878 m 12 Y s 383 1878 m 12
 Y s 422 1878 m 12 Y s 462 1867 m 23 Y s 501 1878 m 12 Y s 540 1878 m 12 Y s 580 1878 m 12 Y s 619 1867 m 23 Y s 659 1878 m 12 Y s 698 1878 m 12 Y s 738 1878 m 12 Y s 777 1867 m 23 Y s 816 1878 m 12 Y s 856 1878 m 12 Y s 895 1878 m 12 Y s 935 1867 m
 23 Y s 935 1867 m 23 Y s 146 1160 m 730 Y s
 gsave  973 924 10 1012 C 66.0904 1578.16 t 90 r /Helvetica-Bold findfont 52.0968 sf 0 0 m (Experiments) show NC gr  169 1160 m -23 X s 158 1196 m -12 X s 158 1232 m -12 X s 158 1267 m -12 X s 169 1303 m -23 X s 158 1339 m -12 X s 158 1375 m -12 X s
 158 1411 m -12 X s 169 1447 m -23 X s 158 1482 m -12 X s 158 1518 m -12 X s 158 1554 m -12 X s 169 1590 m -23 X s 158 1626 m -12 X s 158 1661 m -12 X s 158 1697 m -12 X s 169 1733 m -23 X s 158 1769 m -12 X s 158 1805 m -12 X s 158 1841 m -12 X s
 169 1876 m -23 X s 169 1876 m -23 X s
 gsave  973 924 10 1012 C 116.159 1145.57 t 0 r /Helvetica-Bold findfont 44.0819 sf 0 0 m (0) show NC gr 
 gsave  973 924 10 1012 C 92.126 1287.76 t 0 r /Helvetica-Bold findfont 44.0819 sf 0 0 m (20) show NC gr 
 gsave  973 924 10 1012 C 92.126 1431.96 t 0 r /Helvetica-Bold findfont 44.0819 sf 0 0 m (40) show NC gr 
 gsave  973 924 10 1012 C 92.126 1574.15 t 0 r /Helvetica-Bold findfont 44.0819 sf 0 0 m (60) show NC gr 
 gsave  973 924 10 1012 C 92.126 1718.35 t 0 r /Helvetica-Bold findfont 44.0819 sf 0 0 m (80) show NC gr 
 gsave  973 924 10 1012 C 68.0931 1860.54 t 0 r /Helvetica-Bold findfont 44.0819 sf 0 0 m (100) show NC gr  935 1160 m 730 Y s 912 1160 m 23 X s 923 1196 m 12 X s 923 1232 m 12 X s 923 1267 m 12 X s 912 1303 m 23 X s 923 1339 m 12 X s 923 1375 m 12 X
 s 923 1411 m 12 X s 912 1447 m 23 X s 923 1482 m 12 X s 923 1518 m 12 X s 923 1554 m 12 X s 912 1590 m 23 X s 923 1626 m 12 X s 923 1661 m 12 X s 923 1697 m 12 X s 912 1733 m 23 X s 923 1769 m 12 X s 923 1805 m 12 X s 923 1841 m 12 X s 912 1876 m 23
 X s 912 1876 m 23 X s 1 1 1 c 973 924 10 29 bf black 1 1 1 c 789 730 146 177 bf black 789 730 146 177 bl 1 1 1 c black 3 lw /w 24 def /w2 {w 2 div} def /w3 {w 3 div} def 154 189 m20 9 lw 170 184 m 4 Y s 170 212 m 4 Y s 3 lw 170 200 m20 9 lw 3 lw 186
 189 m20 9 lw 217 184 m 4 Y s 217 212 m 4 Y s 3 lw 217 200 m20 9 lw 233 200 m 11 Y s 233 235 m 10 Y s 3 lw 233 223 m20 9 lw 249 200 m 11 Y s 249 235 m 10 Y s 3 lw 249 223 m20 9 lw 265 209 m 13 Y s 265 246 m 13 Y s 3 lw 265 234 m20 9 lw 280 217 m 16 Y
 s 280 257 m 16 Y s 3 lw 280 245 m20 9 lw 296 209 m 13 Y s 296 246 m 13 Y s 3 lw 296 234 m20 9 lw 312 293 m 31 Y s 312 348 m 30 Y s 3 lw 312 336 m20 9 lw 328 255 m 24 Y s 328 303 m 23 Y s 3 lw 328 291 m20 9 lw 343 293 m 31 Y s 343 348 m 30 Y s 3 lw
 343 336 m20 9 lw 359 313 m 34 Y s 359 371 m 33 Y s 3 lw 359 359 m20 9 lw 375 394 m 43 Y s 375 461 m 44 Y s 3 lw 375 449 m20 9 lw 391 394 m 43 Y s 391 461 m 44 Y s 3 lw 391 449 m20 9 lw 406 414 m 46 Y s 406 484 m 46 Y s 3 lw 406 472 m20 9 lw 422 384
 m 42 Y s 422 450 m 42 Y s 3 lw 422 438 m20 9 lw 438 507 m 55 Y s 438 586 m 55 Y s 3 lw 438 574 m20 9 lw 454 424 m 47 Y s 454 495 m 47 Y s 3 lw 454 483 m20 9 lw 470 496 m 54 Y s 470 574 m 55 Y s 3 lw 470 562 m20 9 lw 485 517 m 56 Y s 485 597 m 56 Y s
 3 lw 485 585 m20 9 lw 501 706 m 71 Y s 501 801 m 71 Y s 3 lw 501 789 m20 9 lw 517 622 m 64 Y s 517 710 m 65 Y s 3 lw 517 698 m20 9 lw 533 569 m 61 Y s 533 654 m 60 Y s 3 lw 533 642 m20 9 lw 548 674 m 69 Y s 548 767 m 69 Y s 3 lw 548 755 m20 9 lw 564
 622 m 64 Y s 564 710 m 65 Y s 3 lw 564 698 m20 9 lw 580 435 m 47 Y s 580 506 m 48 Y s 3 lw 580 494 m20 9 lw 596 538 m 58 Y s 596 620 m 58 Y s 3 lw 596 608 m20 9 lw 611 569 m 61 Y s 611 654 m 60 Y s 3 lw 611 642 m20 9 lw 627 569 m 61 Y s 627 654 m 60
 Y s 3 lw 627 642 m20 9 lw 643 580 m 61 Y s 643 665 m 61 Y s 3 lw 643 653 m20 9 lw 659 394 m 43 Y s 659 461 m 44 Y s 3 lw 659 449 m20 9 lw 675 353 m 39 Y s 675 416 m 39 Y s 3 lw 675 404 m20 9 lw 690 323 m 35 Y s 690 382 m 35 Y s 3 lw 690 370 m20 9 lw
 706 293 m 31 Y s 706 348 m 30 Y s 3 lw 706 336 m20 9 lw 722 284 m 29 Y s 722 337 m 28 Y s 3 lw 722 325 m20 9 lw 738 303 m 32 Y s 738 359 m 32 Y s 3 lw 738 347 m20 9 lw 753 255 m 24 Y s 753 303 m 23 Y s 3 lw 753 291 m20 9 lw 769 227 m 18 Y s 769 269
 m 18 Y s 3 lw 769 257 m20 9 lw 785 293 m 31 Y s 785 348 m 30 Y s 3 lw 785 336 m20 9 lw 801 313 m 34 Y s 801 371 m 33 Y s 3 lw 801 359 m20 9 lw 816 209 m 13 Y s 816 246 m 13 Y s 3 lw 816 234 m20 9 lw 832 227 m 18 Y s 832 269 m 18 Y s 3 lw 832 257 m20
 9 lw 848 200 m 11 Y s 848 235 m 10 Y s 3 lw 848 223 m20 9 lw 3 lw 864 189 m20 9 lw 880 192 m 7 Y s 880 223 m 8 Y s 3 lw 880 211 m20 9 lw 3 lw 895 189 m20 9 lw 3 lw 911 189 m20 9 lw 3 lw 927 189 m20 9 lw 0.95 0.95 0.95 c black 150 185 m 8 1 d 8 2 d 8
 1 d 8 2 d 8 3 d 7 2 d 8 3 d 8 4 d 8 4 d 8 4 d 8 5 d 8 5 d 8 6 d 8 6 d 7 7 d 8 8 d 8 8 d 8 9 d 8 10 d 8 10 d 8 11 d 8 12 d 8 13 d 7 13 d 8 14 d 8 15 d 8 15 d 8 15 d 8 16 d 8 17 d 8 16 d 7 17 d 8 17 d 8 17 d 8 17 d 8 16 d 8 16 d 8 15 d 8 15 d 8 14 d 7
 13 d 8 12 d 8 11 d 8 9 d 8 8 d 8 7 d 8 5 d 8 4 d 8 2 d s 537 657 m 7 1 d 8 -1 d 8 -3 d 8 -4 d 8 -6 d 8 -7 d 8 -9 d 8 -10 d 8 -11 d 7 -13 d 8 -13 d 8 -14 d 8 -15 d 8 -16 d 8 -16 d 8 -16 d 8 -17 d 7 -17 d 8 -17 d 8 -17 d 8 -16 d 8 -16 d 8 -16 d 8 -16
 d 8 -15 d 8 -14 d 7 -14 d 8 -13 d 8 -12 d 8 -12 d 8 -11 d 8 -10 d 8 -9 d 8 -9 d 8 -8 d 7 -8 d 8 -6 d 8 -7 d 8 -5 d 8 -5 d 8 -5 d 8 -4 d 8 -3 d 7 -4 d 8 -3 d 8 -2 d 8 -2 d 8 -2 d 8 -2 d s 923 187 m 8 -1 d s 146 177 m 789 X s
 gsave  973 924 10 29 C 841.15 70.0959 t 0 r /Helvetica-Bold findfont 52.0968 sf 0 0 m (Pull) show NC gr  278 200 m -23 Y s 343 188 m -11 Y s 409 188 m -11 Y s 475 188 m -11 Y s 540 200 m -23 Y s 606 188 m -11 Y s 672 188 m -11 Y s 738 188 m -11 Y s
 803 200 m -23 Y s 278 200 m -23 Y s 212 188 m -11 Y s 146 188 m -11 Y s 803 200 m -23 Y s 869 188 m -11 Y s 935 188 m -11 Y s
 gsave  973 924 10 29 C 256.351 128.175 t 0 r /Helvetica-Bold findfont 44.0819 sf 0 0 m (\2552) show NC gr 
 gsave  973 924 10 29 C 526.72 128.175 t 0 r /Helvetica-Bold findfont 44.0819 sf 0 0 m (0) show NC gr 
 gsave  973 924 10 29 C 791.082 128.175 t 0 r /Helvetica-Bold findfont 44.0819 sf 0 0 m (2) show NC gr  146 907 m 789 X s 278 885 m 22 Y s 343 896 m 11 Y s 409 896 m 11 Y s 475 896 m 11 Y s 540 885 m 22 Y s 606 896 m 11 Y s 672 896 m 11 Y s 738 896 m
 11 Y s 803 885 m 22 Y s 278 885 m 22 Y s 212 896 m 11 Y s 146 896 m 11 Y s 803 885 m 22 Y s 869 896 m 11 Y s 935 896 m 11 Y s 146 177 m 730 Y s
 gsave  973 924 10 29 C 66.0904 594.813 t 90 r /Helvetica-Bold findfont 52.0968 sf 0 0 m (Experiments) show NC gr  169 177 m -23 X s 158 200 m -12 X s 158 223 m -12 X s 158 245 m -12 X s 158 268 m -12 X s 169 291 m -23 X s 158 313 m -12 X s 158 336 m
 -12 X s 158 359 m -12 X s 158 381 m -12 X s 169 404 m -23 X s 158 427 m -12 X s 158 449 m -12 X s 158 472 m -12 X s 158 494 m -12 X s 169 517 m -23 X s 158 540 m -12 X s 158 562 m -12 X s 158 585 m -12 X s 158 608 m -12 X s 169 630 m -23 X s 158 653
 m -12 X s 158 676 m -12 X s 158 698 m -12 X s 158 721 m -12 X s 169 744 m -23 X s 158 766 m -12 X s 158 789 m -12 X s 158 812 m -12 X s 158 834 m -12 X s 169 857 m -23 X s 169 857 m -23 X s 158 880 m -12 X s 158 902 m -12 X s
 gsave  973 924 10 29 C 116.159 162.222 t 0 r /Helvetica-Bold findfont 44.0819 sf 0 0 m (0) show NC gr 
 gsave  973 924 10 29 C 92.126 276.378 t 0 r /Helvetica-Bold findfont 44.0819 sf 0 0 m (10) show NC gr 
 gsave  973 924 10 29 C 92.126 388.531 t 0 r /Helvetica-Bold findfont 44.0819 sf 0 0 m (20) show NC gr 
 gsave  973 924 10 29 C 92.126 502.687 t 0 r /Helvetica-Bold findfont 44.0819 sf 0 0 m (30) show NC gr 
 gsave  973 924 10 29 C 92.126 614.841 t 0 r /Helvetica-Bold findfont 44.0819 sf 0 0 m (40) show NC gr 
 gsave  973 924 10 29 C 92.126 728.997 t 0 r /Helvetica-Bold findfont 44.0819 sf 0 0 m (50) show NC gr 
 gsave  973 924 10 29 C 92.126 841.15 t 0 r /Helvetica-Bold findfont 44.0819 sf 0 0 m (60) show NC gr  935 177 m 730 Y s 912 177 m 23 X s 923 200 m 12 X s 923 223 m 12 X s 923 245 m 12 X s 923 268 m 12 X s 912 291 m 23 X s 923 313 m 12 X s 923 336 m
 12 X s 923 359 m 12 X s 923 381 m 12 X s 912 404 m 23 X s 923 427 m 12 X s 923 449 m 12 X s 923 472 m 12 X s 923 494 m 12 X s 912 517 m 23 X s 923 540 m 12 X s 923 562 m 12 X s 923 585 m 12 X s 923 608 m 12 X s 912 630 m 23 X s 923 653 m 12 X s 923
 676 m 12 X s 923 698 m 12 X s 923 721 m 12 X s 912 744 m 23 X s 923 766 m 12 X s 923 789 m 12 X s 923 812 m 12 X s 923 834 m 12 X s 912 857 m 23 X s 912 857 m 23 X s 923 880 m 12 X s 923 902 m 12 X s
 gr  gr showpage
end
%%EOF
