<?xml version="1.0" encoding="UTF-8" standalone="no"?>
<!-- Created with Inkscape (http://www.inkscape.org/) -->

<svg
   xmlns:dc="http://purl.org/dc/elements/1.1/"
   xmlns:cc="http://creativecommons.org/ns#"
   xmlns:rdf="http://www.w3.org/1999/02/22-rdf-syntax-ns#"
   xmlns:svg="http://www.w3.org/2000/svg"
   xmlns="http://www.w3.org/2000/svg"
   xmlns:sodipodi="http://sodipodi.sourceforge.net/DTD/sodipodi-0.dtd"
   xmlns:inkscape="http://www.inkscape.org/namespaces/inkscape"
   id="svg2"
   version="1.1"
   inkscape:version="0.48.4 r9939"
   width="708.75"
   height="480"
   xml:space="preserve"
   sodipodi:docname="Offline_MC_Bs2DsK_Ds2KKPi_mass.pdf"><metadata
     id="metadata8"><rdf:RDF><cc:Work
         rdf:about=""><dc:format>image/svg+xml</dc:format><dc:type
           rdf:resource="http://purl.org/dc/dcmitype/StillImage" /><dc:title></dc:title></cc:Work></rdf:RDF></metadata><defs
     id="defs6"><clipPath
       clipPathUnits="userSpaceOnUse"
       id="clipPath26"><path
         d="m 0,0 566.929,0 0,384.469 L 0,384.469 0,0 z"
         id="path28" /></clipPath><clipPath
       clipPathUnits="userSpaceOnUse"
       id="clipPath38"><path
         d="m 0,0 566.929,0 0,384.469 L 0,384.469 0,0 z"
         id="path40" /></clipPath><clipPath
       clipPathUnits="userSpaceOnUse"
       id="clipPath50"><path
         d="m 0,0 566.929,0 0,384.469 L 0,384.469 0,0 z"
         id="path52" /></clipPath><clipPath
       clipPathUnits="userSpaceOnUse"
       id="clipPath62"><path
         d="m 0,0 566.929,0 0,384.469 L 0,384.469 0,0 z"
         id="path64" /></clipPath><clipPath
       clipPathUnits="userSpaceOnUse"
       id="clipPath74"><path
         d="m 0,0 566.929,0 0,384.469 L 0,384.469 0,0 z"
         id="path76" /></clipPath><clipPath
       clipPathUnits="userSpaceOnUse"
       id="clipPath148"><path
         d="m 0,0 566.929,0 0,384.469 L 0,384.469 0,0 z"
         id="path150" /></clipPath><clipPath
       clipPathUnits="userSpaceOnUse"
       id="clipPath160"><path
         d="m 0,0 566.929,0 0,384.469 L 0,384.469 0,0 z"
         id="path162" /></clipPath><clipPath
       clipPathUnits="userSpaceOnUse"
       id="clipPath172"><path
         d="m 0,0 566.929,0 0,384.469 L 0,384.469 0,0 z"
         id="path174" /></clipPath><clipPath
       clipPathUnits="userSpaceOnUse"
       id="clipPath184"><path
         d="m 0,0 566.929,0 0,384.469 L 0,384.469 0,0 z"
         id="path186" /></clipPath><clipPath
       clipPathUnits="userSpaceOnUse"
       id="clipPath196"><path
         d="m 0,0 566.929,0 0,384.469 L 0,384.469 0,0 z"
         id="path198" /></clipPath><clipPath
       clipPathUnits="userSpaceOnUse"
       id="clipPath208"><path
         d="m 0,0 566.929,0 0,384.469 L 0,384.469 0,0 z"
         id="path210" /></clipPath><clipPath
       clipPathUnits="userSpaceOnUse"
       id="clipPath220"><path
         d="m 0,0 566.929,0 0,384.469 L 0,384.469 0,0 z"
         id="path222" /></clipPath><clipPath
       clipPathUnits="userSpaceOnUse"
       id="clipPath234"><path
         d="m 0,0 566.929,0 0,384.469 L 0,384.469 0,0 z"
         id="path236" /></clipPath><clipPath
       clipPathUnits="userSpaceOnUse"
       id="clipPath246"><path
         d="m 0,0 566.929,0 0,384.469 L 0,384.469 0,0 z"
         id="path248" /></clipPath><clipPath
       clipPathUnits="userSpaceOnUse"
       id="clipPath356"><path
         d="m 0,0 566.929,0 0,384.469 L 0,384.469 0,0 z"
         id="path358" /></clipPath><clipPath
       clipPathUnits="userSpaceOnUse"
       id="clipPath368"><path
         d="m 0,0 566.929,0 0,384.469 L 0,384.469 0,0 z"
         id="path370" /></clipPath><clipPath
       clipPathUnits="userSpaceOnUse"
       id="clipPath380"><path
         d="m 0,0 566.929,0 0,384.469 L 0,384.469 0,0 z"
         id="path382" /></clipPath><clipPath
       clipPathUnits="userSpaceOnUse"
       id="clipPath392"><path
         d="m 0,0 566.929,0 0,384.469 L 0,384.469 0,0 z"
         id="path394" /></clipPath><clipPath
       clipPathUnits="userSpaceOnUse"
       id="clipPath404"><path
         d="m 0,0 566.929,0 0,384.469 L 0,384.469 0,0 z"
         id="path406" /></clipPath><clipPath
       clipPathUnits="userSpaceOnUse"
       id="clipPath416"><path
         d="m 0,0 566.929,0 0,384.469 L 0,384.469 0,0 z"
         id="path418" /></clipPath><clipPath
       clipPathUnits="userSpaceOnUse"
       id="clipPath428"><path
         d="m 0,0 566.929,0 0,384.469 L 0,384.469 0,0 z"
         id="path430" /></clipPath><clipPath
       clipPathUnits="userSpaceOnUse"
       id="clipPath440"><path
         d="m 0,0 566.929,0 0,384.469 L 0,384.469 0,0 z"
         id="path442" /></clipPath><clipPath
       clipPathUnits="userSpaceOnUse"
       id="clipPath452"><path
         d="m 0,0 566.929,0 0,384.469 L 0,384.469 0,0 z"
         id="path454" /></clipPath><clipPath
       clipPathUnits="userSpaceOnUse"
       id="clipPath464"><path
         d="m 0,0 566.929,0 0,384.469 L 0,384.469 0,0 z"
         id="path466" /></clipPath><clipPath
       clipPathUnits="userSpaceOnUse"
       id="clipPath476"><path
         d="m 0,0 566.929,0 0,384.469 L 0,384.469 0,0 z"
         id="path478" /></clipPath><clipPath
       clipPathUnits="userSpaceOnUse"
       id="clipPath488"><path
         d="m 0,0 566.929,0 0,384.469 L 0,384.469 0,0 z"
         id="path490" /></clipPath><clipPath
       clipPathUnits="userSpaceOnUse"
       id="clipPath500"><path
         d="m 0,0 566.929,0 0,384.469 L 0,384.469 0,0 z"
         id="path502" /></clipPath><clipPath
       clipPathUnits="userSpaceOnUse"
       id="clipPath522"><path
         d="m 0,0 566.929,0 0,384.469 L 0,384.469 0,0 z"
         id="path524" /></clipPath><clipPath
       clipPathUnits="userSpaceOnUse"
       id="clipPath536"><path
         d="m 0,0 566.929,0 0,384.469 L 0,384.469 0,0 z"
         id="path538" /></clipPath><clipPath
       clipPathUnits="userSpaceOnUse"
       id="clipPath548"><path
         d="m 0,0 566.929,0 0,384.469 L 0,384.469 0,0 z"
         id="path550" /></clipPath><clipPath
       clipPathUnits="userSpaceOnUse"
       id="clipPath560"><path
         d="m 0,0 566.929,0 0,384.469 L 0,384.469 0,0 z"
         id="path562" /></clipPath><clipPath
       clipPathUnits="userSpaceOnUse"
       id="clipPath572"><path
         d="m 0,0 566.929,0 0,384.469 L 0,384.469 0,0 z"
         id="path574" /></clipPath><clipPath
       clipPathUnits="userSpaceOnUse"
       id="clipPath584"><path
         d="m 0,0 566.929,0 0,384.469 L 0,384.469 0,0 z"
         id="path586" /></clipPath><clipPath
       clipPathUnits="userSpaceOnUse"
       id="clipPath596"><path
         d="m 0,0 566.929,0 0,384.469 L 0,384.469 0,0 z"
         id="path598" /></clipPath><clipPath
       clipPathUnits="userSpaceOnUse"
       id="clipPath608"><path
         d="m 0,0 566.929,0 0,384.469 L 0,384.469 0,0 z"
         id="path610" /></clipPath><clipPath
       clipPathUnits="userSpaceOnUse"
       id="clipPath620"><path
         d="m 0,0 566.929,0 0,384.469 L 0,384.469 0,0 z"
         id="path622" /></clipPath><clipPath
       clipPathUnits="userSpaceOnUse"
       id="clipPath632"><path
         d="m 0,0 566.929,0 0,384.469 L 0,384.469 0,0 z"
         id="path634" /></clipPath></defs><sodipodi:namedview
     pagecolor="#ffffff"
     bordercolor="#666666"
     borderopacity="1"
     objecttolerance="10"
     gridtolerance="10"
     guidetolerance="10"
     inkscape:pageopacity="0"
     inkscape:pageshadow="2"
     inkscape:window-width="1920"
     inkscape:window-height="1137"
     id="namedview4"
     showgrid="false"
     inkscape:zoom="1.3906433"
     inkscape:cx="379.18671"
     inkscape:cy="247.65236"
     inkscape:window-x="-2"
     inkscape:window-y="-3"
     inkscape:window-maximized="1"
     inkscape:current-layer="g10" /><g
     id="g10"
     inkscape:groupmode="layer"
     inkscape:label="Offline_MC_Bs2DsK_Ds2KKPi_mass"
     transform="matrix(1.25,0,0,-1.25,0,480)"><path
       d="m 0,0 566.929,0 0,384.469 L 0,384.469 0,0 z"
       style="fill:#ffffff;fill-opacity:1;fill-rule:evenodd;stroke:none"
       id="path12" /><path
       d="m 56.6929,38.4469 453.543,0 0,307.575 -453.543,0 0,-307.575 z"
       style="fill:#ffffff;fill-opacity:1;fill-rule:evenodd;stroke:none"
       id="path14" /><path
       d="m 56.6929,38.4469 453.543,0 0,307.575 -453.543,0 0,-307.575 z"
       style="fill:none;stroke:#000000;stroke-opacity:1;stroke-width:0.75;stroke-linecap:butt;stroke-linejoin:miter;stroke-miterlimit:10;stroke-dasharray:none"
       id="path16" /><path
       d="m 56.6929,38.8035 4.5355,0 0,-0.2917 4.5354,0 0,0.0648 4.5354,0 0,-0.0324 4.5354,0 0,0.1296 4.5355,0 0,-0.0324 4.5354,0 0,0.1297 4.5354,0 0,-0.0324 4.5355,0 0,0.0324 4.5354,0 0,-0.0973 4.5352,0 0,0.1621 4.536,0 0,-0.0648 4.535,0 0,-0.1297 4.536,0 0,0.1621 4.535,0 0,-0.0972 4.535,0 0,0.2593 4.536,0 0,-0.2269 4.535,0 0,0.2593 4.536,0 0,-0.1621 4.535,0 0,-0.0648 4.536,0 0,-0.0324 4.535,0 0,0.0972 4.535,0 0,-0.1296 4.536,0 0,0.0324 4.535,0 0,0.4863 4.536,0 0,-0.1946 4.535,0 0,0.0649 4.536,0 0,0.0324 4.535,0 0,-0.2269 4.535,0 0,-0.0324 4.536,0 0,0.2593 4.535,0 0,0.2593 4.536,0 0,-0.2269 4.535,0 0,0.1945 4.536,0 0,0.0324 4.535,0 0,-0.3566 4.536,0 0,0.1297 4.535,0 0,0.2269 4.535,0 0,0.0973 4.536,0 0,-0.1297 4.535,0 0,-0.0648 4.536,0 0,0.1621 4.535,0 0,0.5187 4.536,0 0,-0.1621 4.535,0 0,-0.1297 4.535,0 0,0.0973 4.536,0 0,0.6807 4.535,0 0,-0.2269 4.536,0 0,0.2594 4.535,0 0,0.5511 4.536,0 0,0.8428 4.535,0 0,0.8429 4.535,0 0,1.783 4.536,0 0,2.1072 4.535,0 0,3.3066 4.536,0 0,12.6106 4.535,0 0,21.6228 4.536,0 0,37.2157 4.535,0 0,66.878 4.535,0 0,79.392 4.536,0 0,55.921 4.535,0 0,7.813 4.536,0 0,-56.894 4.535,0 0,-81.012 4.536,0 0,-65.29 4.535,0 0,-45.0611 4.535,0 0,-23.4382 4.536,0 0,-10.6007 4.535,0 0,-4.9599 4.536,0 0,-2.3341 4.535,0 0,-1.8154 4.536,0 0,-0.389 4.535,0 0,-0.0325 4.536,0 0,-0.5511 4.535,0 0,-0.0324 4.535,0 0,-0.3566 4.536,0 0,0.0648 4.535,0 0,-0.0324 4.536,0 0,0.0649 4.535,0 0,-0.0325 4.536,0 0,-0.0648 4.535,0 0,-0.0972 4.535,0 0,0.0324 4.536,0 0,0.0324 4.535,0 0,-0.0324 4.536,0 0,0.0972 4.535,0 0,-0.1621 4.536,0 0,0.0649 4.535,0 0,-0.0324 4.535,0 0,-0.0325 4.536,0 0,0 4.535,0 0,0.0649 4.536,0 0,-0.0649 4.535,0 0,0.0973 4.536,0 0,-0.1297 4.535,0 0,0.0649 4.535,0 0,0 4.536,0 0,0.0648 4.535,0 0,-0.0973 4.536,0 0,0.0973 4.535,0"
       style="fill:none;stroke:#000000;stroke-opacity:1;stroke-width:1.5;stroke-linecap:butt;stroke-linejoin:miter;stroke-miterlimit:10;stroke-dasharray:none"
       id="path18" /><path
       d="m 56.6929,38.4469 453.5431,0"
       style="fill:none;stroke:#000000;stroke-opacity:1;stroke-width:0.75;stroke-linecap:butt;stroke-linejoin:miter;stroke-miterlimit:10;stroke-dasharray:none"
       id="path20" /><g
       id="g22"
       transform="matrix(2,0,0,2,-470.03549,-35.851418)"><g
         id="g24"
         clip-path="url(#clipPath26)"><text
           transform="matrix(1,0,0,-1,506.652,13.8474)"
           id="text30"><tspan
             style="font-size:12.21829987px;font-variant:normal;font-weight:normal;writing-mode:lr-tb;fill:#000000;fill-opacity:1;fill-rule:nonzero;stroke:none;font-family:Helvetica;-inkscape-font-specification:Helvetica"
             x="0"
             y="0"
             id="tspan32">]</tspan></text>
</g></g><g
       id="g34"
       transform="matrix(2,0,0,2,-470.03549,-35.851418)"><g
         id="g36"
         clip-path="url(#clipPath38)"><text
           transform="matrix(1,0,0,-1,501.765,19.5493)"
           id="text42"><tspan
             style="font-size:8.14552975px;font-variant:normal;font-weight:normal;writing-mode:lr-tb;fill:#000000;fill-opacity:1;fill-rule:nonzero;stroke:none;font-family:Helvetica;-inkscape-font-specification:Helvetica"
             x="0"
             y="0"
             id="tspan44">2</tspan></text>
</g></g><g
       id="g46"
       transform="matrix(2,0,0,2,-470.03549,-35.851418)"><g
         id="g48"
         clip-path="url(#clipPath50)"><text
           transform="matrix(1,0,0,-1,456.15,13.8474)"
           id="text54"><tspan
             style="font-size:12.21829987px;font-variant:normal;font-weight:normal;writing-mode:lr-tb;fill:#000000;fill-opacity:1;fill-rule:nonzero;stroke:none;font-family:Helvetica;-inkscape-font-specification:Helvetica"
             x="0 4.0686941 7.4653811 10.862069 21.039913 27.833288 35.982895 39.379581"
             y="0"
             sodipodi:role="line"
             id="tspan56">) [MeV/c</tspan></text>
</g></g><g
       id="g58"
       transform="matrix(2,0,0,2,-470.03549,-35.851418)"><g
         id="g60"
         clip-path="url(#clipPath62)"><text
           transform="matrix(1,0,0,-1,452.077,8.14553)"
           id="text66"><tspan
             style="font-size:8.14552975px;font-variant:normal;font-weight:normal;writing-mode:lr-tb;fill:#000000;fill-opacity:1;fill-rule:nonzero;stroke:none;font-family:Helvetica;-inkscape-font-specification:Helvetica"
             x="0"
             y="0"
             id="tspan68">s</tspan></text>
</g></g><g
       id="g70"
       transform="matrix(2,0,0,2,-470.03549,-35.851418)"><g
         id="g72"
         clip-path="url(#clipPath74)"><text
           transform="matrix(1,0,0,-1,430.084,13.8474)"
           id="text78"><tspan
             style="font-size:12.21829987px;font-variant:normal;font-weight:normal;writing-mode:lr-tb;fill:#000000;fill-opacity:1;fill-rule:nonzero;stroke:none;font-family:Helvetica;-inkscape-font-specification:Helvetica"
             x="0 10.177844 14.246538"
             y="0"
             sodipodi:role="line"
             id="tspan80">m(B</tspan></text>
</g></g><path
       d="m 56.6929,47.6742 0,-9.2273"
       style="fill:none;stroke:#000000;stroke-opacity:1;stroke-width:0.75;stroke-linecap:butt;stroke-linejoin:miter;stroke-miterlimit:10;stroke-dasharray:none"
       id="path82" /><path
       d="m 71.811,43.0606 0,-4.6137"
       style="fill:none;stroke:#000000;stroke-opacity:1;stroke-width:0.75;stroke-linecap:butt;stroke-linejoin:miter;stroke-miterlimit:10;stroke-dasharray:none"
       id="path84" /><path
       d="m 86.9291,43.0606 0,-4.6137"
       style="fill:none;stroke:#000000;stroke-opacity:1;stroke-width:0.75;stroke-linecap:butt;stroke-linejoin:miter;stroke-miterlimit:10;stroke-dasharray:none"
       id="path86" /><path
       d="m 102.047,43.0606 0,-4.6137"
       style="fill:none;stroke:#000000;stroke-opacity:1;stroke-width:0.75;stroke-linecap:butt;stroke-linejoin:miter;stroke-miterlimit:10;stroke-dasharray:none"
       id="path88" /><path
       d="m 117.165,43.0606 0,-4.6137"
       style="fill:none;stroke:#000000;stroke-opacity:1;stroke-width:0.75;stroke-linecap:butt;stroke-linejoin:miter;stroke-miterlimit:10;stroke-dasharray:none"
       id="path90" /><path
       d="m 132.283,47.6742 0,-9.2273"
       style="fill:none;stroke:#000000;stroke-opacity:1;stroke-width:0.75;stroke-linecap:butt;stroke-linejoin:miter;stroke-miterlimit:10;stroke-dasharray:none"
       id="path92" /><path
       d="m 147.402,43.0606 0,-4.6137"
       style="fill:none;stroke:#000000;stroke-opacity:1;stroke-width:0.75;stroke-linecap:butt;stroke-linejoin:miter;stroke-miterlimit:10;stroke-dasharray:none"
       id="path94" /><path
       d="m 162.52,43.0606 0,-4.6137"
       style="fill:none;stroke:#000000;stroke-opacity:1;stroke-width:0.75;stroke-linecap:butt;stroke-linejoin:miter;stroke-miterlimit:10;stroke-dasharray:none"
       id="path96" /><path
       d="m 177.638,43.0606 0,-4.6137"
       style="fill:none;stroke:#000000;stroke-opacity:1;stroke-width:0.75;stroke-linecap:butt;stroke-linejoin:miter;stroke-miterlimit:10;stroke-dasharray:none"
       id="path98" /><path
       d="m 192.756,43.0606 0,-4.6137"
       style="fill:none;stroke:#000000;stroke-opacity:1;stroke-width:0.75;stroke-linecap:butt;stroke-linejoin:miter;stroke-miterlimit:10;stroke-dasharray:none"
       id="path100" /><path
       d="m 207.874,47.6742 0,-9.2273"
       style="fill:none;stroke:#000000;stroke-opacity:1;stroke-width:0.75;stroke-linecap:butt;stroke-linejoin:miter;stroke-miterlimit:10;stroke-dasharray:none"
       id="path102" /><path
       d="m 222.992,43.0606 0,-4.6137"
       style="fill:none;stroke:#000000;stroke-opacity:1;stroke-width:0.75;stroke-linecap:butt;stroke-linejoin:miter;stroke-miterlimit:10;stroke-dasharray:none"
       id="path104" /><path
       d="m 238.11,43.0606 0,-4.6137"
       style="fill:none;stroke:#000000;stroke-opacity:1;stroke-width:0.75;stroke-linecap:butt;stroke-linejoin:miter;stroke-miterlimit:10;stroke-dasharray:none"
       id="path106" /><path
       d="m 253.228,43.0606 0,-4.6137"
       style="fill:none;stroke:#000000;stroke-opacity:1;stroke-width:0.75;stroke-linecap:butt;stroke-linejoin:miter;stroke-miterlimit:10;stroke-dasharray:none"
       id="path108" /><path
       d="m 268.346,43.0606 0,-4.6137"
       style="fill:none;stroke:#000000;stroke-opacity:1;stroke-width:0.75;stroke-linecap:butt;stroke-linejoin:miter;stroke-miterlimit:10;stroke-dasharray:none"
       id="path110" /><path
       d="m 283.465,47.6742 0,-9.2273"
       style="fill:none;stroke:#000000;stroke-opacity:1;stroke-width:0.75;stroke-linecap:butt;stroke-linejoin:miter;stroke-miterlimit:10;stroke-dasharray:none"
       id="path112" /><path
       d="m 298.583,43.0606 0,-4.6137"
       style="fill:none;stroke:#000000;stroke-opacity:1;stroke-width:0.75;stroke-linecap:butt;stroke-linejoin:miter;stroke-miterlimit:10;stroke-dasharray:none"
       id="path114" /><path
       d="m 313.701,43.0606 0,-4.6137"
       style="fill:none;stroke:#000000;stroke-opacity:1;stroke-width:0.75;stroke-linecap:butt;stroke-linejoin:miter;stroke-miterlimit:10;stroke-dasharray:none"
       id="path116" /><path
       d="m 328.819,43.0606 0,-4.6137"
       style="fill:none;stroke:#000000;stroke-opacity:1;stroke-width:0.75;stroke-linecap:butt;stroke-linejoin:miter;stroke-miterlimit:10;stroke-dasharray:none"
       id="path118" /><path
       d="m 343.937,43.0606 0,-4.6137"
       style="fill:none;stroke:#000000;stroke-opacity:1;stroke-width:0.75;stroke-linecap:butt;stroke-linejoin:miter;stroke-miterlimit:10;stroke-dasharray:none"
       id="path120" /><path
       d="m 359.055,47.6742 0,-9.2273"
       style="fill:none;stroke:#000000;stroke-opacity:1;stroke-width:0.75;stroke-linecap:butt;stroke-linejoin:miter;stroke-miterlimit:10;stroke-dasharray:none"
       id="path122" /><path
       d="m 374.173,43.0606 0,-4.6137"
       style="fill:none;stroke:#000000;stroke-opacity:1;stroke-width:0.75;stroke-linecap:butt;stroke-linejoin:miter;stroke-miterlimit:10;stroke-dasharray:none"
       id="path124" /><path
       d="m 389.291,43.0606 0,-4.6137"
       style="fill:none;stroke:#000000;stroke-opacity:1;stroke-width:0.75;stroke-linecap:butt;stroke-linejoin:miter;stroke-miterlimit:10;stroke-dasharray:none"
       id="path126" /><path
       d="m 404.409,43.0606 0,-4.6137"
       style="fill:none;stroke:#000000;stroke-opacity:1;stroke-width:0.75;stroke-linecap:butt;stroke-linejoin:miter;stroke-miterlimit:10;stroke-dasharray:none"
       id="path128" /><path
       d="m 419.528,43.0606 0,-4.6137"
       style="fill:none;stroke:#000000;stroke-opacity:1;stroke-width:0.75;stroke-linecap:butt;stroke-linejoin:miter;stroke-miterlimit:10;stroke-dasharray:none"
       id="path130" /><path
       d="m 434.646,47.6742 0,-9.2273"
       style="fill:none;stroke:#000000;stroke-opacity:1;stroke-width:0.75;stroke-linecap:butt;stroke-linejoin:miter;stroke-miterlimit:10;stroke-dasharray:none"
       id="path132" /><path
       d="m 449.764,43.0606 0,-4.6137"
       style="fill:none;stroke:#000000;stroke-opacity:1;stroke-width:0.75;stroke-linecap:butt;stroke-linejoin:miter;stroke-miterlimit:10;stroke-dasharray:none"
       id="path134" /><path
       d="m 464.882,43.0606 0,-4.6137"
       style="fill:none;stroke:#000000;stroke-opacity:1;stroke-width:0.75;stroke-linecap:butt;stroke-linejoin:miter;stroke-miterlimit:10;stroke-dasharray:none"
       id="path136" /><path
       d="m 480,43.0606 0,-4.6137"
       style="fill:none;stroke:#000000;stroke-opacity:1;stroke-width:0.75;stroke-linecap:butt;stroke-linejoin:miter;stroke-miterlimit:10;stroke-dasharray:none"
       id="path138" /><path
       d="m 495.118,43.0606 0,-4.6137"
       style="fill:none;stroke:#000000;stroke-opacity:1;stroke-width:0.75;stroke-linecap:butt;stroke-linejoin:miter;stroke-miterlimit:10;stroke-dasharray:none"
       id="path140" /><path
       d="m 510.236,47.6742 0,-9.2273"
       style="fill:none;stroke:#000000;stroke-opacity:1;stroke-width:0.75;stroke-linecap:butt;stroke-linejoin:miter;stroke-miterlimit:10;stroke-dasharray:none"
       id="path142" /><g
       id="g144"
       transform="matrix(2,0,0,2,-55.950447,-36.671707)"><g
         id="g146"
         clip-path="url(#clipPath148)"><text
           transform="matrix(1,0,0,-1,42.3568,26.0657)"
           id="text152"><tspan
             style="font-size:12.21829987px;font-variant:normal;font-weight:normal;writing-mode:lr-tb;fill:#000000;fill-opacity:1;fill-rule:nonzero;stroke:none;font-family:Helvetica;-inkscape-font-specification:Helvetica"
             x="0 6.793375 13.58675 20.380125"
             y="0"
             sodipodi:role="line"
             id="tspan154">5000</tspan></text>
</g></g><g
       id="g168"
       transform="matrix(2,0,0,2,-207.45765,-36.671707)"><g
         id="g170"
         clip-path="url(#clipPath172)"><text
           transform="matrix(1,0,0,-1,193.864,26.0657)"
           id="text176"><tspan
             style="font-size:12.21829987px;font-variant:normal;font-weight:normal;writing-mode:lr-tb;fill:#000000;fill-opacity:1;fill-rule:nonzero;stroke:none;font-family:Helvetica;-inkscape-font-specification:Helvetica"
             x="0 6.793375 13.58675 20.380125"
             y="0"
             sodipodi:role="line"
             id="tspan178">5200</tspan></text>
</g></g><g
       id="g192"
       transform="matrix(2,0,0,2,-358.14965,-36.671707)"><g
         id="g194"
         clip-path="url(#clipPath196)"><text
           transform="matrix(1,0,0,-1,344.556,26.0657)"
           id="text200"><tspan
             style="font-size:12.21829987px;font-variant:normal;font-weight:normal;writing-mode:lr-tb;fill:#000000;fill-opacity:1;fill-rule:nonzero;stroke:none;font-family:Helvetica;-inkscape-font-specification:Helvetica"
             x="0 6.793375 13.58675 20.380125"
             y="0"
             sodipodi:role="line"
             id="tspan202">5400</tspan></text>
</g></g><g
       id="g216"
       transform="matrix(2,0,0,2,-509.65665,-36.671707)"><g
         id="g218"
         clip-path="url(#clipPath220)"><text
           transform="matrix(1,0,0,-1,496.063,26.0657)"
           id="text224"><tspan
             style="font-size:12.21829987px;font-variant:normal;font-weight:normal;writing-mode:lr-tb;fill:#000000;fill-opacity:1;fill-rule:nonzero;stroke:none;font-family:Helvetica;-inkscape-font-specification:Helvetica"
             x="0 6.793375 13.58675 20.380125"
             y="0"
             sodipodi:role="line"
             id="tspan226">5600</tspan></text>
</g></g><path
       d="m 56.6929,38.4469 0,307.5751"
       style="fill:none;stroke:#000000;stroke-opacity:1;stroke-width:0.75;stroke-linecap:butt;stroke-linejoin:miter;stroke-miterlimit:10;stroke-dasharray:none"
       id="path228" /><g
       id="g230"
       transform="matrix(2,0,0,2,-13.506933,-342.22989)"><g
         id="g232"
         clip-path="url(#clipPath234)"><text
           transform="matrix(0,1,1,0,13.8474,341.298)"
           id="text238"><tspan
             style="font-size:8.14552975px;font-variant:normal;font-weight:normal;writing-mode:lr-tb;fill:#000000;fill-opacity:1;fill-rule:nonzero;stroke:none;font-family:Helvetica;-inkscape-font-specification:Helvetica"
             x="0"
             y="0"
             id="tspan240">2</tspan></text>
</g></g><g
       id="g242"
       transform="matrix(2,0,0,2,-13.506933,-342.22989)"><g
         id="g244"
         clip-path="url(#clipPath246)"><text
           transform="matrix(0,1,1,0,18.7347,248.439)"
           id="text250"><tspan
             style="font-size:12.21829987px;font-variant:normal;font-weight:normal;writing-mode:lr-tb;fill:#000000;fill-opacity:1;fill-rule:nonzero;stroke:none;font-family:Helvetica;-inkscape-font-specification:Helvetica"
             x="0 8.1496058 14.258756 21.052132 27.845505 31.242193 37.351341 40.748032 44.144718 47.541405 54.334782 57.731468 67.909309 74.702682 82.852295 86.248978"
             y="0"
             sodipodi:role="line"
             id="tspan252">Events / 6 MeV/c</tspan></text>
</g></g><path
       d="m 70.2992,38.4469 -13.6063,0"
       style="fill:none;stroke:#000000;stroke-opacity:1;stroke-width:0.75;stroke-linecap:butt;stroke-linejoin:miter;stroke-miterlimit:10;stroke-dasharray:none"
       id="path254" /><path
       d="m 63.4961,44.9305 -6.8032,0"
       style="fill:none;stroke:#000000;stroke-opacity:1;stroke-width:0.75;stroke-linecap:butt;stroke-linejoin:miter;stroke-miterlimit:10;stroke-dasharray:none"
       id="path256" /><path
       d="m 63.4961,51.4141 -6.8032,0"
       style="fill:none;stroke:#000000;stroke-opacity:1;stroke-width:0.75;stroke-linecap:butt;stroke-linejoin:miter;stroke-miterlimit:10;stroke-dasharray:none"
       id="path258" /><path
       d="m 63.4961,57.8977 -6.8032,0"
       style="fill:none;stroke:#000000;stroke-opacity:1;stroke-width:0.75;stroke-linecap:butt;stroke-linejoin:miter;stroke-miterlimit:10;stroke-dasharray:none"
       id="path260" /><path
       d="m 63.4961,64.3813 -6.8032,0"
       style="fill:none;stroke:#000000;stroke-opacity:1;stroke-width:0.75;stroke-linecap:butt;stroke-linejoin:miter;stroke-miterlimit:10;stroke-dasharray:none"
       id="path262" /><path
       d="m 70.2992,70.8649 -13.6063,0"
       style="fill:none;stroke:#000000;stroke-opacity:1;stroke-width:0.75;stroke-linecap:butt;stroke-linejoin:miter;stroke-miterlimit:10;stroke-dasharray:none"
       id="path264" /><path
       d="m 63.4961,77.3485 -6.8032,0"
       style="fill:none;stroke:#000000;stroke-opacity:1;stroke-width:0.75;stroke-linecap:butt;stroke-linejoin:miter;stroke-miterlimit:10;stroke-dasharray:none"
       id="path266" /><path
       d="m 63.4961,83.8321 -6.8032,0"
       style="fill:none;stroke:#000000;stroke-opacity:1;stroke-width:0.75;stroke-linecap:butt;stroke-linejoin:miter;stroke-miterlimit:10;stroke-dasharray:none"
       id="path268" /><path
       d="m 63.4961,90.3157 -6.8032,0"
       style="fill:none;stroke:#000000;stroke-opacity:1;stroke-width:0.75;stroke-linecap:butt;stroke-linejoin:miter;stroke-miterlimit:10;stroke-dasharray:none"
       id="path270" /><path
       d="m 63.4961,96.7993 -6.8032,0"
       style="fill:none;stroke:#000000;stroke-opacity:1;stroke-width:0.75;stroke-linecap:butt;stroke-linejoin:miter;stroke-miterlimit:10;stroke-dasharray:none"
       id="path272" /><path
       d="m 70.2992,103.283 -13.6063,0"
       style="fill:none;stroke:#000000;stroke-opacity:1;stroke-width:0.75;stroke-linecap:butt;stroke-linejoin:miter;stroke-miterlimit:10;stroke-dasharray:none"
       id="path274" /><path
       d="m 63.4961,109.766 -6.8032,0"
       style="fill:none;stroke:#000000;stroke-opacity:1;stroke-width:0.75;stroke-linecap:butt;stroke-linejoin:miter;stroke-miterlimit:10;stroke-dasharray:none"
       id="path276" /><path
       d="m 63.4961,116.25 -6.8032,0"
       style="fill:none;stroke:#000000;stroke-opacity:1;stroke-width:0.75;stroke-linecap:butt;stroke-linejoin:miter;stroke-miterlimit:10;stroke-dasharray:none"
       id="path278" /><path
       d="m 63.4961,122.734 -6.8032,0"
       style="fill:none;stroke:#000000;stroke-opacity:1;stroke-width:0.75;stroke-linecap:butt;stroke-linejoin:miter;stroke-miterlimit:10;stroke-dasharray:none"
       id="path280" /><path
       d="m 63.4961,129.217 -6.8032,0"
       style="fill:none;stroke:#000000;stroke-opacity:1;stroke-width:0.75;stroke-linecap:butt;stroke-linejoin:miter;stroke-miterlimit:10;stroke-dasharray:none"
       id="path282" /><path
       d="m 70.2992,135.701 -13.6063,0"
       style="fill:none;stroke:#000000;stroke-opacity:1;stroke-width:0.75;stroke-linecap:butt;stroke-linejoin:miter;stroke-miterlimit:10;stroke-dasharray:none"
       id="path284" /><path
       d="m 63.4961,142.184 -6.8032,0"
       style="fill:none;stroke:#000000;stroke-opacity:1;stroke-width:0.75;stroke-linecap:butt;stroke-linejoin:miter;stroke-miterlimit:10;stroke-dasharray:none"
       id="path286" /><path
       d="m 63.4961,148.668 -6.8032,0"
       style="fill:none;stroke:#000000;stroke-opacity:1;stroke-width:0.75;stroke-linecap:butt;stroke-linejoin:miter;stroke-miterlimit:10;stroke-dasharray:none"
       id="path288" /><path
       d="m 63.4961,155.152 -6.8032,0"
       style="fill:none;stroke:#000000;stroke-opacity:1;stroke-width:0.75;stroke-linecap:butt;stroke-linejoin:miter;stroke-miterlimit:10;stroke-dasharray:none"
       id="path290" /><path
       d="m 63.4961,161.635 -6.8032,0"
       style="fill:none;stroke:#000000;stroke-opacity:1;stroke-width:0.75;stroke-linecap:butt;stroke-linejoin:miter;stroke-miterlimit:10;stroke-dasharray:none"
       id="path292" /><path
       d="m 70.2992,168.119 -13.6063,0"
       style="fill:none;stroke:#000000;stroke-opacity:1;stroke-width:0.75;stroke-linecap:butt;stroke-linejoin:miter;stroke-miterlimit:10;stroke-dasharray:none"
       id="path294" /><path
       d="m 63.4961,174.602 -6.8032,0"
       style="fill:none;stroke:#000000;stroke-opacity:1;stroke-width:0.75;stroke-linecap:butt;stroke-linejoin:miter;stroke-miterlimit:10;stroke-dasharray:none"
       id="path296" /><path
       d="m 63.4961,181.086 -6.8032,0"
       style="fill:none;stroke:#000000;stroke-opacity:1;stroke-width:0.75;stroke-linecap:butt;stroke-linejoin:miter;stroke-miterlimit:10;stroke-dasharray:none"
       id="path298" /><path
       d="m 63.4961,187.57 -6.8032,0"
       style="fill:none;stroke:#000000;stroke-opacity:1;stroke-width:0.75;stroke-linecap:butt;stroke-linejoin:miter;stroke-miterlimit:10;stroke-dasharray:none"
       id="path300" /><path
       d="m 63.4961,194.053 -6.8032,0"
       style="fill:none;stroke:#000000;stroke-opacity:1;stroke-width:0.75;stroke-linecap:butt;stroke-linejoin:miter;stroke-miterlimit:10;stroke-dasharray:none"
       id="path302" /><path
       d="m 70.2992,200.537 -13.6063,0"
       style="fill:none;stroke:#000000;stroke-opacity:1;stroke-width:0.75;stroke-linecap:butt;stroke-linejoin:miter;stroke-miterlimit:10;stroke-dasharray:none"
       id="path304" /><path
       d="m 63.4961,207.02 -6.8032,0"
       style="fill:none;stroke:#000000;stroke-opacity:1;stroke-width:0.75;stroke-linecap:butt;stroke-linejoin:miter;stroke-miterlimit:10;stroke-dasharray:none"
       id="path306" /><path
       d="m 63.4961,213.504 -6.8032,0"
       style="fill:none;stroke:#000000;stroke-opacity:1;stroke-width:0.75;stroke-linecap:butt;stroke-linejoin:miter;stroke-miterlimit:10;stroke-dasharray:none"
       id="path308" /><path
       d="m 63.4961,219.988 -6.8032,0"
       style="fill:none;stroke:#000000;stroke-opacity:1;stroke-width:0.75;stroke-linecap:butt;stroke-linejoin:miter;stroke-miterlimit:10;stroke-dasharray:none"
       id="path310" /><path
       d="m 63.4961,226.471 -6.8032,0"
       style="fill:none;stroke:#000000;stroke-opacity:1;stroke-width:0.75;stroke-linecap:butt;stroke-linejoin:miter;stroke-miterlimit:10;stroke-dasharray:none"
       id="path312" /><path
       d="m 70.2992,232.955 -13.6063,0"
       style="fill:none;stroke:#000000;stroke-opacity:1;stroke-width:0.75;stroke-linecap:butt;stroke-linejoin:miter;stroke-miterlimit:10;stroke-dasharray:none"
       id="path314" /><path
       d="m 63.4961,239.438 -6.8032,0"
       style="fill:none;stroke:#000000;stroke-opacity:1;stroke-width:0.75;stroke-linecap:butt;stroke-linejoin:miter;stroke-miterlimit:10;stroke-dasharray:none"
       id="path316" /><path
       d="m 63.4961,245.922 -6.8032,0"
       style="fill:none;stroke:#000000;stroke-opacity:1;stroke-width:0.75;stroke-linecap:butt;stroke-linejoin:miter;stroke-miterlimit:10;stroke-dasharray:none"
       id="path318" /><path
       d="m 63.4961,252.406 -6.8032,0"
       style="fill:none;stroke:#000000;stroke-opacity:1;stroke-width:0.75;stroke-linecap:butt;stroke-linejoin:miter;stroke-miterlimit:10;stroke-dasharray:none"
       id="path320" /><path
       d="m 63.4961,258.889 -6.8032,0"
       style="fill:none;stroke:#000000;stroke-opacity:1;stroke-width:0.75;stroke-linecap:butt;stroke-linejoin:miter;stroke-miterlimit:10;stroke-dasharray:none"
       id="path322" /><path
       d="m 70.2992,265.373 -13.6063,0"
       style="fill:none;stroke:#000000;stroke-opacity:1;stroke-width:0.75;stroke-linecap:butt;stroke-linejoin:miter;stroke-miterlimit:10;stroke-dasharray:none"
       id="path324" /><path
       d="m 63.4961,271.856 -6.8032,0"
       style="fill:none;stroke:#000000;stroke-opacity:1;stroke-width:0.75;stroke-linecap:butt;stroke-linejoin:miter;stroke-miterlimit:10;stroke-dasharray:none"
       id="path326" /><path
       d="m 63.4961,278.34 -6.8032,0"
       style="fill:none;stroke:#000000;stroke-opacity:1;stroke-width:0.75;stroke-linecap:butt;stroke-linejoin:miter;stroke-miterlimit:10;stroke-dasharray:none"
       id="path328" /><path
       d="m 63.4961,284.824 -6.8032,0"
       style="fill:none;stroke:#000000;stroke-opacity:1;stroke-width:0.75;stroke-linecap:butt;stroke-linejoin:miter;stroke-miterlimit:10;stroke-dasharray:none"
       id="path330" /><path
       d="m 63.4961,291.307 -6.8032,0"
       style="fill:none;stroke:#000000;stroke-opacity:1;stroke-width:0.75;stroke-linecap:butt;stroke-linejoin:miter;stroke-miterlimit:10;stroke-dasharray:none"
       id="path332" /><path
       d="m 70.2992,297.791 -13.6063,0"
       style="fill:none;stroke:#000000;stroke-opacity:1;stroke-width:0.75;stroke-linecap:butt;stroke-linejoin:miter;stroke-miterlimit:10;stroke-dasharray:none"
       id="path334" /><path
       d="m 63.4961,304.274 -6.8032,0"
       style="fill:none;stroke:#000000;stroke-opacity:1;stroke-width:0.75;stroke-linecap:butt;stroke-linejoin:miter;stroke-miterlimit:10;stroke-dasharray:none"
       id="path336" /><path
       d="m 63.4961,310.758 -6.8032,0"
       style="fill:none;stroke:#000000;stroke-opacity:1;stroke-width:0.75;stroke-linecap:butt;stroke-linejoin:miter;stroke-miterlimit:10;stroke-dasharray:none"
       id="path338" /><path
       d="m 63.4961,317.242 -6.8032,0"
       style="fill:none;stroke:#000000;stroke-opacity:1;stroke-width:0.75;stroke-linecap:butt;stroke-linejoin:miter;stroke-miterlimit:10;stroke-dasharray:none"
       id="path340" /><path
       d="m 63.4961,323.725 -6.8032,0"
       style="fill:none;stroke:#000000;stroke-opacity:1;stroke-width:0.75;stroke-linecap:butt;stroke-linejoin:miter;stroke-miterlimit:10;stroke-dasharray:none"
       id="path342" /><path
       d="m 70.2992,330.209 -13.6063,0"
       style="fill:none;stroke:#000000;stroke-opacity:1;stroke-width:0.75;stroke-linecap:butt;stroke-linejoin:miter;stroke-miterlimit:10;stroke-dasharray:none"
       id="path344" /><path
       d="m 70.2992,330.209 -13.6063,0"
       style="fill:none;stroke:#000000;stroke-opacity:1;stroke-width:0.75;stroke-linecap:butt;stroke-linejoin:miter;stroke-miterlimit:10;stroke-dasharray:none"
       id="path346" /><path
       d="m 63.4961,336.692 -6.8032,0"
       style="fill:none;stroke:#000000;stroke-opacity:1;stroke-width:0.75;stroke-linecap:butt;stroke-linejoin:miter;stroke-miterlimit:10;stroke-dasharray:none"
       id="path348" /><path
       d="m 63.4961,343.176 -6.8032,0"
       style="fill:none;stroke:#000000;stroke-opacity:1;stroke-width:0.75;stroke-linecap:butt;stroke-linejoin:miter;stroke-miterlimit:10;stroke-dasharray:none"
       id="path350" /><g
       id="g352"
       transform="matrix(0,2,-2,0,119.47613,-59.66623)"><g
         id="g354"
         clip-path="url(#clipPath356)"><text
           transform="matrix(1,0,0,-1,47.2441,34.2112)"
           id="text360"><tspan
             style="font-size:12.21829987px;font-variant:normal;font-weight:normal;writing-mode:lr-tb;fill:#000000;fill-opacity:1;fill-rule:nonzero;stroke:none;font-family:Helvetica;-inkscape-font-specification:Helvetica"
             x="0"
             y="0"
             id="tspan362">0</tspan></text>
</g></g><g
       id="g388"
       transform="matrix(0,2,-2,0,311.16003,54.424974)"><g
         id="g390"
         clip-path="url(#clipPath392)"><text
           transform="matrix(1,0,0,-1,26.8803,131.143)"
           id="text396"><tspan
             style="font-size:12.21829987px;font-variant:normal;font-weight:normal;writing-mode:lr-tb;fill:#000000;fill-opacity:1;fill-rule:nonzero;stroke:none;font-family:Helvetica;-inkscape-font-specification:Helvetica"
             x="0 6.793375 13.58675 20.380125"
             y="0"
             sodipodi:role="line"
             id="tspan398">3000</tspan></text>
</g></g><g
       id="g424"
       transform="matrix(0,2,-2,0,505.10159,151.20186)"><g
         id="g426"
         clip-path="url(#clipPath428)"><text
           transform="matrix(1,0,0,-1,26.8803,228.075)"
           id="text432"><tspan
             style="font-size:12.21829987px;font-variant:normal;font-weight:normal;writing-mode:lr-tb;fill:#000000;fill-opacity:1;fill-rule:nonzero;stroke:none;font-family:Helvetica;-inkscape-font-specification:Helvetica"
             x="0 6.793375 13.58675 20.380125"
             y="0"
             sodipodi:role="line"
             id="tspan434">6000</tspan></text>
</g></g><g
       id="g460"
       transform="matrix(0,2,-2,0,700.56972,248.99559)"><g
         id="g462"
         clip-path="url(#clipPath464)"><text
           transform="matrix(1,0,0,-1,26.8803,325.821)"
           id="text468"><tspan
             style="font-size:12.21829987px;font-variant:normal;font-weight:normal;writing-mode:lr-tb;fill:#000000;fill-opacity:1;fill-rule:nonzero;stroke:none;font-family:Helvetica;-inkscape-font-specification:Helvetica"
             x="0 6.793375 13.58675 20.380125"
             y="0"
             sodipodi:role="line"
             id="tspan470">9000</tspan></text>
</g></g><g
       id="g472"
       transform="matrix(2,0,0,2,-283.39349,-367.34279)"><g
         id="g474"
         clip-path="url(#clipPath476)"><text
           transform="matrix(1,0,0,-1,366.549,364.92)"
           id="text480"><tspan
             style="font-size:20.36380005px;font-variant:normal;font-weight:normal;writing-mode:lr-tb;fill:#000000;fill-opacity:1;fill-rule:nonzero;stroke:none;font-family:Helvetica;-inkscape-font-specification:Helvetica"
             x="0"
             y="0"
             id="tspan482">)</tspan></text>
</g></g><g
       id="g484"
       transform="matrix(2,0,0,2,-283.39349,-367.34279)"><g
         id="g486"
         clip-path="url(#clipPath488)"><text
           transform="matrix(1,0,0,-1,360.033,355.145)"
           id="text492"><tspan
             style="font-size:13.84739971px;font-variant:normal;font-weight:normal;writing-mode:lr-tb;fill:#000000;fill-opacity:1;fill-rule:nonzero;stroke:none;font-family:Helvetica;-inkscape-font-specification:Helvetica"
             x="0"
             y="0"
             id="tspan494">s</tspan></text>
</g></g><g
       id="g496"
       transform="matrix(2,0,0,2,-283.39349,-367.34279)"><g
         id="g498"
         clip-path="url(#clipPath500)"><text
           transform="matrix(1,0,0,-1,193.049,364.92)"
           id="text504"><tspan
             style="font-size:20.36380005px;font-variant:normal;font-weight:normal;writing-mode:lr-tb;fill:#000000;fill-opacity:1;fill-rule:nonzero;stroke:none;font-family:Helvetica;-inkscape-font-specification:Helvetica"
             x="0 14.702663 19.223427 29.405327 35.066463 41.84761 46.368374 57.690647 69.012917 74.674057 79.194817 90.51709 101.83936 107.5005 118.82278 124.48391 130.14505 147.10809 153.88924"
             y="0"
             sodipodi:role="line"
             id="tspan506">Distribution of m(B</tspan></text>
</g></g></g></svg>